[0.046s] Invoking command in '/home/memonsio/wsr2/build/kuka_lwr4plus_msgs': CMAKE_PREFIX_PATH=${CMAKE_PREFIX_PATH}:/home/memonsio/wsr2/install/wessling_hand_urdf:/home/memonsio/wsr2/install/wessling_hand_sim:/home/memonsio/wsr2/install/py_srvcli:/home/memonsio/wsr2/install/robot_example_urdf:/home/memonsio/wsr2/install/robot_example_sim:/home/memonsio/wsr2/install/learning_tf2_py:/home/memonsio/wsr2/install/kuka_lwr4plus_urdf:/home/memonsio/wsr2/install/kuka_lwr4plus_sim:/home/memonsio/wsr2/install/arcos_lab_mobile_platform_urdf:/home/memonsio/wsr2/install/arcos_lab_mobile_platform_sim:/home/memonsio/wsr2/install/arcos-lab-humanoid-startup-sim:/home/memonsio/wsr2/install/arcos-lab-humanoid-robot-descriptions:/opt/ros/foxy /usr/bin/cmake --build /home/memonsio/wsr2/build/kuka_lwr4plus_msgs -- -j4 -l4
[0.177s] [  1%] Built target kuka_lwr4plus_msgs__cpp
[0.191s] [ 12%] Built target kuka_lwr4plus_msgs__rosidl_generator_c
[0.236s] [ 23%] Built target kuka_lwr4plus_msgs__rosidl_typesupport_cpp
[0.291s] [ 34%] Built target kuka_lwr4plus_msgs__rosidl_typesupport_fastrtps_cpp
[0.303s] [ 45%] Built target kuka_lwr4plus_msgs__rosidl_typesupport_introspection_cpp
[0.342s] [ 56%] Built target kuka_lwr4plus_msgs__rosidl_typesupport_introspection_c
[0.345s] [ 67%] Built target kuka_lwr4plus_msgs__rosidl_typesupport_c
[0.360s] [ 78%] Built target kuka_lwr4plus_msgs__rosidl_typesupport_fastrtps_c
[0.404s] [ 78%] Built target kuka_lwr4plus_msgs
[0.452s] [ 80%] Built target kuka_lwr4plus_msgs__py
[0.512s] [ 89%] Built target kuka_lwr4plus_msgs__python
[0.577s] [ 92%] Built target kuka_lwr4plus_msgs__rosidl_typesupport_introspection_c__pyext
[0.598s] [ 96%] Built target kuka_lwr4plus_msgs__rosidl_typesupport_c__pyext
[0.607s] [100%] Built target kuka_lwr4plus_msgs__rosidl_typesupport_fastrtps_c__pyext
[0.862s] Invoked command in '/home/memonsio/wsr2/build/kuka_lwr4plus_msgs' returned '0': CMAKE_PREFIX_PATH=${CMAKE_PREFIX_PATH}:/home/memonsio/wsr2/install/wessling_hand_urdf:/home/memonsio/wsr2/install/wessling_hand_sim:/home/memonsio/wsr2/install/py_srvcli:/home/memonsio/wsr2/install/robot_example_urdf:/home/memonsio/wsr2/install/robot_example_sim:/home/memonsio/wsr2/install/learning_tf2_py:/home/memonsio/wsr2/install/kuka_lwr4plus_urdf:/home/memonsio/wsr2/install/kuka_lwr4plus_sim:/home/memonsio/wsr2/install/arcos_lab_mobile_platform_urdf:/home/memonsio/wsr2/install/arcos_lab_mobile_platform_sim:/home/memonsio/wsr2/install/arcos-lab-humanoid-startup-sim:/home/memonsio/wsr2/install/arcos-lab-humanoid-robot-descriptions:/opt/ros/foxy /usr/bin/cmake --build /home/memonsio/wsr2/build/kuka_lwr4plus_msgs -- -j4 -l4
[1.478s] Invoking command in '/home/memonsio/wsr2/build/kuka_lwr4plus_msgs': CMAKE_PREFIX_PATH=${CMAKE_PREFIX_PATH}:/home/memonsio/wsr2/install/wessling_hand_urdf:/home/memonsio/wsr2/install/wessling_hand_sim:/home/memonsio/wsr2/install/py_srvcli:/home/memonsio/wsr2/install/robot_example_urdf:/home/memonsio/wsr2/install/robot_example_sim:/home/memonsio/wsr2/install/learning_tf2_py:/home/memonsio/wsr2/install/kuka_lwr4plus_urdf:/home/memonsio/wsr2/install/kuka_lwr4plus_sim:/home/memonsio/wsr2/install/arcos_lab_mobile_platform_urdf:/home/memonsio/wsr2/install/arcos_lab_mobile_platform_sim:/home/memonsio/wsr2/install/arcos-lab-humanoid-startup-sim:/home/memonsio/wsr2/install/arcos-lab-humanoid-robot-descriptions:/opt/ros/foxy /usr/bin/cmake --install /home/memonsio/wsr2/build/kuka_lwr4plus_msgs
[1.512s] -- Install configuration: ""
[1.513s] -- Up-to-date: /home/memonsio/wsr2/install/kuka_lwr4plus_msgs/share/ament_index/resource_index/rosidl_interfaces/kuka_lwr4plus_msgs
[1.513s] -- Up-to-date: /home/memonsio/wsr2/install/kuka_lwr4plus_msgs/include/kuka_lwr4plus_msgs
[1.513s] -- Up-to-date: /home/memonsio/wsr2/install/kuka_lwr4plus_msgs/include/kuka_lwr4plus_msgs/srv
[1.513s] -- Up-to-date: /home/memonsio/wsr2/install/kuka_lwr4plus_msgs/include/kuka_lwr4plus_msgs/srv/detail
[1.513s] -- Up-to-date: /home/memonsio/wsr2/install/kuka_lwr4plus_msgs/include/kuka_lwr4plus_msgs/srv/detail/arm_enable__struct.h
[1.514s] -- Up-to-date: /home/memonsio/wsr2/install/kuka_lwr4plus_msgs/include/kuka_lwr4plus_msgs/srv/detail/arm_enable__functions.c
[1.514s] -- Up-to-date: /home/memonsio/wsr2/install/kuka_lwr4plus_msgs/include/kuka_lwr4plus_msgs/srv/detail/arm_enable__functions.h
[1.514s] -- Up-to-date: /home/memonsio/wsr2/install/kuka_lwr4plus_msgs/include/kuka_lwr4plus_msgs/srv/detail/arm_enable__type_support.h
[1.514s] -- Up-to-date: /home/memonsio/wsr2/install/kuka_lwr4plus_msgs/include/kuka_lwr4plus_msgs/srv/arm_enable.h
[1.514s] -- Up-to-date: /home/memonsio/wsr2/install/kuka_lwr4plus_msgs/include/kuka_lwr4plus_msgs/msg
[1.515s] -- Up-to-date: /home/memonsio/wsr2/install/kuka_lwr4plus_msgs/include/kuka_lwr4plus_msgs/msg/arm_status.h
[1.515s] -- Up-to-date: /home/memonsio/wsr2/install/kuka_lwr4plus_msgs/include/kuka_lwr4plus_msgs/msg/arm_command.h
[1.515s] -- Up-to-date: /home/memonsio/wsr2/install/kuka_lwr4plus_msgs/include/kuka_lwr4plus_msgs/msg/rosidl_generator_c__visibility_control.h
[1.516s] -- Up-to-date: /home/memonsio/wsr2/install/kuka_lwr4plus_msgs/include/kuka_lwr4plus_msgs/msg/detail
[1.517s] -- Up-to-date: /home/memonsio/wsr2/install/kuka_lwr4plus_msgs/include/kuka_lwr4plus_msgs/msg/detail/arm_ext_torques__struct.h
[1.517s] -- Up-to-date: /home/memonsio/wsr2/install/kuka_lwr4plus_msgs/include/kuka_lwr4plus_msgs/msg/detail/arm_ext_torques__functions.c
[1.517s] -- Up-to-date: /home/memonsio/wsr2/install/kuka_lwr4plus_msgs/include/kuka_lwr4plus_msgs/msg/detail/arm_command__type_support.h
[1.517s] -- Up-to-date: /home/memonsio/wsr2/install/kuka_lwr4plus_msgs/include/kuka_lwr4plus_msgs/msg/detail/arm_status__type_support.h
[1.517s] -- Up-to-date: /home/memonsio/wsr2/install/kuka_lwr4plus_msgs/include/kuka_lwr4plus_msgs/msg/detail/arm_status__functions.c
[1.518s] -- Up-to-date: /home/memonsio/wsr2/install/kuka_lwr4plus_msgs/include/kuka_lwr4plus_msgs/msg/detail/arm_ext_torques__functions.h
[1.518s] -- Up-to-date: /home/memonsio/wsr2/install/kuka_lwr4plus_msgs/include/kuka_lwr4plus_msgs/msg/detail/arm_ext_torques__type_support.h
[1.518s] -- Up-to-date: /home/memonsio/wsr2/install/kuka_lwr4plus_msgs/include/kuka_lwr4plus_msgs/msg/detail/arm_command__struct.h
[1.518s] -- Up-to-date: /home/memonsio/wsr2/install/kuka_lwr4plus_msgs/include/kuka_lwr4plus_msgs/msg/detail/arm_command__functions.c
[1.518s] -- Up-to-date: /home/memonsio/wsr2/install/kuka_lwr4plus_msgs/include/kuka_lwr4plus_msgs/msg/detail/arm_status__struct.h
[1.519s] -- Up-to-date: /home/memonsio/wsr2/install/kuka_lwr4plus_msgs/include/kuka_lwr4plus_msgs/msg/detail/arm_status__functions.h
[1.519s] -- Up-to-date: /home/memonsio/wsr2/install/kuka_lwr4plus_msgs/include/kuka_lwr4plus_msgs/msg/detail/arm_command__functions.h
[1.519s] -- Up-to-date: /home/memonsio/wsr2/install/kuka_lwr4plus_msgs/include/kuka_lwr4plus_msgs/msg/arm_ext_torques.h
[1.519s] -- Up-to-date: /home/memonsio/wsr2/install/kuka_lwr4plus_msgs/share/kuka_lwr4plus_msgs/environment/library_path.sh
[1.519s] -- Up-to-date: /home/memonsio/wsr2/install/kuka_lwr4plus_msgs/share/kuka_lwr4plus_msgs/environment/library_path.dsv
[1.520s] -- Up-to-date: /home/memonsio/wsr2/install/kuka_lwr4plus_msgs/lib/libkuka_lwr4plus_msgs__rosidl_generator_c.so
[1.520s] -- Up-to-date: /home/memonsio/wsr2/install/kuka_lwr4plus_msgs/include/kuka_lwr4plus_msgs
[1.520s] -- Up-to-date: /home/memonsio/wsr2/install/kuka_lwr4plus_msgs/include/kuka_lwr4plus_msgs/srv
[1.520s] -- Up-to-date: /home/memonsio/wsr2/install/kuka_lwr4plus_msgs/include/kuka_lwr4plus_msgs/srv/detail
[1.520s] -- Up-to-date: /home/memonsio/wsr2/install/kuka_lwr4plus_msgs/include/kuka_lwr4plus_msgs/srv/detail/arm_enable__rosidl_typesupport_fastrtps_c.h
[1.521s] -- Up-to-date: /home/memonsio/wsr2/install/kuka_lwr4plus_msgs/include/kuka_lwr4plus_msgs/msg
[1.521s] -- Up-to-date: /home/memonsio/wsr2/install/kuka_lwr4plus_msgs/include/kuka_lwr4plus_msgs/msg/detail
[1.521s] -- Up-to-date: /home/memonsio/wsr2/install/kuka_lwr4plus_msgs/include/kuka_lwr4plus_msgs/msg/detail/arm_command__rosidl_typesupport_fastrtps_c.h
[1.521s] -- Up-to-date: /home/memonsio/wsr2/install/kuka_lwr4plus_msgs/include/kuka_lwr4plus_msgs/msg/detail/arm_ext_torques__rosidl_typesupport_fastrtps_c.h
[1.521s] -- Up-to-date: /home/memonsio/wsr2/install/kuka_lwr4plus_msgs/include/kuka_lwr4plus_msgs/msg/detail/arm_status__rosidl_typesupport_fastrtps_c.h
[1.521s] -- Up-to-date: /home/memonsio/wsr2/install/kuka_lwr4plus_msgs/include/kuka_lwr4plus_msgs/msg/rosidl_typesupport_fastrtps_c__visibility_control.h
[1.522s] -- Up-to-date: /home/memonsio/wsr2/install/kuka_lwr4plus_msgs/lib/libkuka_lwr4plus_msgs__rosidl_typesupport_fastrtps_c.so
[1.523s] -- Up-to-date: /home/memonsio/wsr2/install/kuka_lwr4plus_msgs/include/kuka_lwr4plus_msgs
[1.523s] -- Up-to-date: /home/memonsio/wsr2/install/kuka_lwr4plus_msgs/include/kuka_lwr4plus_msgs/srv
[1.523s] -- Up-to-date: /home/memonsio/wsr2/install/kuka_lwr4plus_msgs/include/kuka_lwr4plus_msgs/srv/detail
[1.523s] -- Up-to-date: /home/memonsio/wsr2/install/kuka_lwr4plus_msgs/include/kuka_lwr4plus_msgs/srv/detail/arm_enable__rosidl_typesupport_fastrtps_cpp.hpp
[1.524s] -- Up-to-date: /home/memonsio/wsr2/install/kuka_lwr4plus_msgs/include/kuka_lwr4plus_msgs/srv/detail/dds_fastrtps
[1.524s] -- Up-to-date: /home/memonsio/wsr2/install/kuka_lwr4plus_msgs/include/kuka_lwr4plus_msgs/msg
[1.530s] -- Up-to-date: /home/memonsio/wsr2/install/kuka_lwr4plus_msgs/include/kuka_lwr4plus_msgs/msg/detail
[1.530s] -- Up-to-date: /home/memonsio/wsr2/install/kuka_lwr4plus_msgs/include/kuka_lwr4plus_msgs/msg/detail/arm_status__rosidl_typesupport_fastrtps_cpp.hpp
[1.530s] -- Up-to-date: /home/memonsio/wsr2/install/kuka_lwr4plus_msgs/include/kuka_lwr4plus_msgs/msg/detail/arm_command__rosidl_typesupport_fastrtps_cpp.hpp
[1.531s] -- Up-to-date: /home/memonsio/wsr2/install/kuka_lwr4plus_msgs/include/kuka_lwr4plus_msgs/msg/detail/dds_fastrtps
[1.531s] -- Up-to-date: /home/memonsio/wsr2/install/kuka_lwr4plus_msgs/include/kuka_lwr4plus_msgs/msg/detail/arm_ext_torques__rosidl_typesupport_fastrtps_cpp.hpp
[1.531s] -- Up-to-date: /home/memonsio/wsr2/install/kuka_lwr4plus_msgs/include/kuka_lwr4plus_msgs/msg/rosidl_typesupport_fastrtps_cpp__visibility_control.h
[1.531s] -- Up-to-date: /home/memonsio/wsr2/install/kuka_lwr4plus_msgs/lib/libkuka_lwr4plus_msgs__rosidl_typesupport_fastrtps_cpp.so
[1.532s] -- Up-to-date: /home/memonsio/wsr2/install/kuka_lwr4plus_msgs/include/kuka_lwr4plus_msgs
[1.533s] -- Up-to-date: /home/memonsio/wsr2/install/kuka_lwr4plus_msgs/include/kuka_lwr4plus_msgs/srv
[1.533s] -- Up-to-date: /home/memonsio/wsr2/install/kuka_lwr4plus_msgs/include/kuka_lwr4plus_msgs/srv/detail
[1.533s] -- Up-to-date: /home/memonsio/wsr2/install/kuka_lwr4plus_msgs/include/kuka_lwr4plus_msgs/srv/detail/arm_enable__rosidl_typesupport_introspection_c.h
[1.533s] -- Up-to-date: /home/memonsio/wsr2/install/kuka_lwr4plus_msgs/include/kuka_lwr4plus_msgs/srv/detail/arm_enable__type_support.c
[1.534s] -- Up-to-date: /home/memonsio/wsr2/install/kuka_lwr4plus_msgs/include/kuka_lwr4plus_msgs/msg
[1.534s] -- Up-to-date: /home/memonsio/wsr2/install/kuka_lwr4plus_msgs/include/kuka_lwr4plus_msgs/msg/detail
[1.534s] -- Up-to-date: /home/memonsio/wsr2/install/kuka_lwr4plus_msgs/include/kuka_lwr4plus_msgs/msg/detail/arm_status__type_support.c
[1.534s] -- Up-to-date: /home/memonsio/wsr2/install/kuka_lwr4plus_msgs/include/kuka_lwr4plus_msgs/msg/detail/arm_ext_torques__type_support.c
[1.534s] -- Up-to-date: /home/memonsio/wsr2/install/kuka_lwr4plus_msgs/include/kuka_lwr4plus_msgs/msg/detail/arm_command__rosidl_typesupport_introspection_c.h
[1.535s] -- Up-to-date: /home/memonsio/wsr2/install/kuka_lwr4plus_msgs/include/kuka_lwr4plus_msgs/msg/detail/arm_ext_torques__rosidl_typesupport_introspection_c.h
[1.535s] -- Up-to-date: /home/memonsio/wsr2/install/kuka_lwr4plus_msgs/include/kuka_lwr4plus_msgs/msg/detail/arm_command__type_support.c
[1.543s] -- Up-to-date: /home/memonsio/wsr2/install/kuka_lwr4plus_msgs/include/kuka_lwr4plus_msgs/msg/detail/arm_status__rosidl_typesupport_introspection_c.h
[1.543s] -- Up-to-date: /home/memonsio/wsr2/install/kuka_lwr4plus_msgs/include/kuka_lwr4plus_msgs/msg/rosidl_typesupport_introspection_c__visibility_control.h
[1.544s] -- Up-to-date: /home/memonsio/wsr2/install/kuka_lwr4plus_msgs/lib/libkuka_lwr4plus_msgs__rosidl_typesupport_introspection_c.so
[1.544s] -- Up-to-date: /home/memonsio/wsr2/install/kuka_lwr4plus_msgs/lib/libkuka_lwr4plus_msgs__rosidl_typesupport_c.so
[1.544s] -- Up-to-date: /home/memonsio/wsr2/install/kuka_lwr4plus_msgs/include/kuka_lwr4plus_msgs
[1.544s] -- Up-to-date: /home/memonsio/wsr2/install/kuka_lwr4plus_msgs/include/kuka_lwr4plus_msgs/srv
[1.545s] -- Up-to-date: /home/memonsio/wsr2/install/kuka_lwr4plus_msgs/include/kuka_lwr4plus_msgs/srv/detail
[1.545s] -- Up-to-date: /home/memonsio/wsr2/install/kuka_lwr4plus_msgs/include/kuka_lwr4plus_msgs/srv/detail/arm_enable__struct.hpp
[1.545s] -- Up-to-date: /home/memonsio/wsr2/install/kuka_lwr4plus_msgs/include/kuka_lwr4plus_msgs/srv/detail/arm_enable__traits.hpp
[1.545s] -- Up-to-date: /home/memonsio/wsr2/install/kuka_lwr4plus_msgs/include/kuka_lwr4plus_msgs/srv/detail/arm_enable__builder.hpp
[1.545s] -- Up-to-date: /home/memonsio/wsr2/install/kuka_lwr4plus_msgs/include/kuka_lwr4plus_msgs/srv/arm_enable.hpp
[1.545s] -- Up-to-date: /home/memonsio/wsr2/install/kuka_lwr4plus_msgs/include/kuka_lwr4plus_msgs/msg
[1.546s] -- Up-to-date: /home/memonsio/wsr2/install/kuka_lwr4plus_msgs/include/kuka_lwr4plus_msgs/msg/detail
[1.546s] -- Up-to-date: /home/memonsio/wsr2/install/kuka_lwr4plus_msgs/include/kuka_lwr4plus_msgs/msg/detail/arm_command__struct.hpp
[1.546s] -- Up-to-date: /home/memonsio/wsr2/install/kuka_lwr4plus_msgs/include/kuka_lwr4plus_msgs/msg/detail/arm_ext_torques__builder.hpp
[1.546s] -- Up-to-date: /home/memonsio/wsr2/install/kuka_lwr4plus_msgs/include/kuka_lwr4plus_msgs/msg/detail/arm_status__struct.hpp
[1.546s] -- Up-to-date: /home/memonsio/wsr2/install/kuka_lwr4plus_msgs/include/kuka_lwr4plus_msgs/msg/detail/arm_command__builder.hpp
[1.546s] -- Up-to-date: /home/memonsio/wsr2/install/kuka_lwr4plus_msgs/include/kuka_lwr4plus_msgs/msg/detail/arm_command__traits.hpp
[1.546s] -- Up-to-date: /home/memonsio/wsr2/install/kuka_lwr4plus_msgs/include/kuka_lwr4plus_msgs/msg/detail/arm_status__builder.hpp
[1.556s] -- Up-to-date: /home/memonsio/wsr2/install/kuka_lwr4plus_msgs/include/kuka_lwr4plus_msgs/msg/detail/arm_ext_torques__struct.hpp
[1.557s] -- Up-to-date: /home/memonsio/wsr2/install/kuka_lwr4plus_msgs/include/kuka_lwr4plus_msgs/msg/detail/arm_ext_torques__traits.hpp
[1.557s] -- Up-to-date: /home/memonsio/wsr2/install/kuka_lwr4plus_msgs/include/kuka_lwr4plus_msgs/msg/detail/arm_status__traits.hpp
[1.557s] -- Up-to-date: /home/memonsio/wsr2/install/kuka_lwr4plus_msgs/include/kuka_lwr4plus_msgs/msg/arm_command.hpp
[1.557s] -- Up-to-date: /home/memonsio/wsr2/install/kuka_lwr4plus_msgs/include/kuka_lwr4plus_msgs/msg/arm_status.hpp
[1.558s] -- Up-to-date: /home/memonsio/wsr2/install/kuka_lwr4plus_msgs/include/kuka_lwr4plus_msgs/msg/arm_ext_torques.hpp
[1.558s] -- Up-to-date: /home/memonsio/wsr2/install/kuka_lwr4plus_msgs/include/kuka_lwr4plus_msgs
[1.558s] -- Up-to-date: /home/memonsio/wsr2/install/kuka_lwr4plus_msgs/include/kuka_lwr4plus_msgs/srv
[1.558s] -- Up-to-date: /home/memonsio/wsr2/install/kuka_lwr4plus_msgs/include/kuka_lwr4plus_msgs/srv/detail
[1.558s] -- Up-to-date: /home/memonsio/wsr2/install/kuka_lwr4plus_msgs/include/kuka_lwr4plus_msgs/srv/detail/arm_enable__type_support.cpp
[1.558s] -- Up-to-date: /home/memonsio/wsr2/install/kuka_lwr4plus_msgs/include/kuka_lwr4plus_msgs/srv/detail/arm_enable__rosidl_typesupport_introspection_cpp.hpp
[1.559s] -- Up-to-date: /home/memonsio/wsr2/install/kuka_lwr4plus_msgs/include/kuka_lwr4plus_msgs/msg
[1.559s] -- Up-to-date: /home/memonsio/wsr2/install/kuka_lwr4plus_msgs/include/kuka_lwr4plus_msgs/msg/detail
[1.559s] -- Up-to-date: /home/memonsio/wsr2/install/kuka_lwr4plus_msgs/include/kuka_lwr4plus_msgs/msg/detail/arm_ext_torques__type_support.cpp
[1.559s] -- Up-to-date: /home/memonsio/wsr2/install/kuka_lwr4plus_msgs/include/kuka_lwr4plus_msgs/msg/detail/arm_status__type_support.cpp
[1.559s] -- Up-to-date: /home/memonsio/wsr2/install/kuka_lwr4plus_msgs/include/kuka_lwr4plus_msgs/msg/detail/arm_status__rosidl_typesupport_introspection_cpp.hpp
[1.559s] -- Up-to-date: /home/memonsio/wsr2/install/kuka_lwr4plus_msgs/include/kuka_lwr4plus_msgs/msg/detail/arm_ext_torques__rosidl_typesupport_introspection_cpp.hpp
[1.560s] -- Up-to-date: /home/memonsio/wsr2/install/kuka_lwr4plus_msgs/include/kuka_lwr4plus_msgs/msg/detail/arm_command__type_support.cpp
[1.560s] -- Up-to-date: /home/memonsio/wsr2/install/kuka_lwr4plus_msgs/include/kuka_lwr4plus_msgs/msg/detail/arm_command__rosidl_typesupport_introspection_cpp.hpp
[1.560s] -- Up-to-date: /home/memonsio/wsr2/install/kuka_lwr4plus_msgs/lib/libkuka_lwr4plus_msgs__rosidl_typesupport_introspection_cpp.so
[1.560s] -- Up-to-date: /home/memonsio/wsr2/install/kuka_lwr4plus_msgs/lib/libkuka_lwr4plus_msgs__rosidl_typesupport_cpp.so
[1.560s] -- Up-to-date: /home/memonsio/wsr2/install/kuka_lwr4plus_msgs/share/kuka_lwr4plus_msgs/environment/pythonpath.sh
[1.560s] -- Up-to-date: /home/memonsio/wsr2/install/kuka_lwr4plus_msgs/share/kuka_lwr4plus_msgs/environment/pythonpath.dsv
[1.561s] -- Up-to-date: /home/memonsio/wsr2/install/kuka_lwr4plus_msgs/lib/python3.8/site-packages/kuka_lwr4plus_msgs/__init__.py
[1.622s] -- Up-to-date: /home/memonsio/wsr2/install/kuka_lwr4plus_msgs/lib/python3.8/site-packages/kuka_lwr4plus_msgs/msg
[1.623s] -- Up-to-date: /home/memonsio/wsr2/install/kuka_lwr4plus_msgs/lib/python3.8/site-packages/kuka_lwr4plus_msgs/msg/_arm_ext_torques_s.c
[1.623s] -- Up-to-date: /home/memonsio/wsr2/install/kuka_lwr4plus_msgs/lib/python3.8/site-packages/kuka_lwr4plus_msgs/msg/_arm_status_s.c
[1.623s] -- Up-to-date: /home/memonsio/wsr2/install/kuka_lwr4plus_msgs/lib/python3.8/site-packages/kuka_lwr4plus_msgs/msg/_arm_ext_torques.py
[1.623s] -- Up-to-date: /home/memonsio/wsr2/install/kuka_lwr4plus_msgs/lib/python3.8/site-packages/kuka_lwr4plus_msgs/msg/_arm_command.py
[1.623s] -- Up-to-date: /home/memonsio/wsr2/install/kuka_lwr4plus_msgs/lib/python3.8/site-packages/kuka_lwr4plus_msgs/msg/_arm_command_s.c
[1.624s] -- Up-to-date: /home/memonsio/wsr2/install/kuka_lwr4plus_msgs/lib/python3.8/site-packages/kuka_lwr4plus_msgs/msg/__init__.py
[1.624s] -- Up-to-date: /home/memonsio/wsr2/install/kuka_lwr4plus_msgs/lib/python3.8/site-packages/kuka_lwr4plus_msgs/msg/_arm_status.py
[1.624s] -- Up-to-date: /home/memonsio/wsr2/install/kuka_lwr4plus_msgs/lib/python3.8/site-packages/kuka_lwr4plus_msgs/srv
[1.624s] -- Up-to-date: /home/memonsio/wsr2/install/kuka_lwr4plus_msgs/lib/python3.8/site-packages/kuka_lwr4plus_msgs/srv/_arm_enable.py
[1.625s] -- Up-to-date: /home/memonsio/wsr2/install/kuka_lwr4plus_msgs/lib/python3.8/site-packages/kuka_lwr4plus_msgs/srv/__init__.py
[1.625s] -- Up-to-date: /home/memonsio/wsr2/install/kuka_lwr4plus_msgs/lib/python3.8/site-packages/kuka_lwr4plus_msgs/srv/_arm_enable_s.c
[1.625s] -- Up-to-date: /home/memonsio/wsr2/install/kuka_lwr4plus_msgs/lib/python3.8/site-packages/kuka_lwr4plus_msgs/kuka_lwr4plus_msgs_s__rosidl_typesupport_fastrtps_c.cpython-38-x86_64-linux-gnu.so
[1.625s] -- Up-to-date: /home/memonsio/wsr2/install/kuka_lwr4plus_msgs/lib/python3.8/site-packages/kuka_lwr4plus_msgs/kuka_lwr4plus_msgs_s__rosidl_typesupport_introspection_c.cpython-38-x86_64-linux-gnu.so
[1.631s] -- Up-to-date: /home/memonsio/wsr2/install/kuka_lwr4plus_msgs/lib/python3.8/site-packages/kuka_lwr4plus_msgs/kuka_lwr4plus_msgs_s__rosidl_typesupport_c.cpython-38-x86_64-linux-gnu.so
[1.632s] -- Up-to-date: /home/memonsio/wsr2/install/kuka_lwr4plus_msgs/lib/libkuka_lwr4plus_msgs__python.so
[1.633s] -- Up-to-date: /home/memonsio/wsr2/install/kuka_lwr4plus_msgs/share/kuka_lwr4plus_msgs/msg/ArmExtTorques.idl
[1.634s] -- Up-to-date: /home/memonsio/wsr2/install/kuka_lwr4plus_msgs/share/kuka_lwr4plus_msgs/msg/ArmCommand.idl
[1.634s] -- Up-to-date: /home/memonsio/wsr2/install/kuka_lwr4plus_msgs/share/kuka_lwr4plus_msgs/msg/ArmStatus.idl
[1.635s] -- Up-to-date: /home/memonsio/wsr2/install/kuka_lwr4plus_msgs/share/kuka_lwr4plus_msgs/srv/ArmEnable.idl
[1.635s] -- Up-to-date: /home/memonsio/wsr2/install/kuka_lwr4plus_msgs/share/kuka_lwr4plus_msgs/msg/ArmExtTorques.msg
[1.636s] -- Up-to-date: /home/memonsio/wsr2/install/kuka_lwr4plus_msgs/share/kuka_lwr4plus_msgs/msg/ArmCommand.msg
[1.636s] -- Up-to-date: /home/memonsio/wsr2/install/kuka_lwr4plus_msgs/share/kuka_lwr4plus_msgs/msg/ArmStatus.msg
[1.636s] -- Up-to-date: /home/memonsio/wsr2/install/kuka_lwr4plus_msgs/share/kuka_lwr4plus_msgs/srv/ArmEnable.srv
[1.637s] -- Up-to-date: /home/memonsio/wsr2/install/kuka_lwr4plus_msgs/share/kuka_lwr4plus_msgs/srv/ArmEnable_Request.msg
[1.637s] -- Up-to-date: /home/memonsio/wsr2/install/kuka_lwr4plus_msgs/share/kuka_lwr4plus_msgs/srv/ArmEnable_Response.msg
[1.637s] -- Up-to-date: /home/memonsio/wsr2/install/kuka_lwr4plus_msgs/share/ament_index/resource_index/package_run_dependencies/kuka_lwr4plus_msgs
[1.638s] -- Up-to-date: /home/memonsio/wsr2/install/kuka_lwr4plus_msgs/share/ament_index/resource_index/parent_prefix_path/kuka_lwr4plus_msgs
[1.638s] -- Up-to-date: /home/memonsio/wsr2/install/kuka_lwr4plus_msgs/share/kuka_lwr4plus_msgs/environment/ament_prefix_path.sh
[1.638s] -- Up-to-date: /home/memonsio/wsr2/install/kuka_lwr4plus_msgs/share/kuka_lwr4plus_msgs/environment/ament_prefix_path.dsv
[1.638s] -- Up-to-date: /home/memonsio/wsr2/install/kuka_lwr4plus_msgs/share/kuka_lwr4plus_msgs/environment/path.sh
[1.639s] -- Up-to-date: /home/memonsio/wsr2/install/kuka_lwr4plus_msgs/share/kuka_lwr4plus_msgs/environment/path.dsv
[1.639s] -- Up-to-date: /home/memonsio/wsr2/install/kuka_lwr4plus_msgs/share/kuka_lwr4plus_msgs/local_setup.bash
[1.639s] -- Up-to-date: /home/memonsio/wsr2/install/kuka_lwr4plus_msgs/share/kuka_lwr4plus_msgs/local_setup.sh
[1.639s] -- Up-to-date: /home/memonsio/wsr2/install/kuka_lwr4plus_msgs/share/kuka_lwr4plus_msgs/local_setup.zsh
[1.639s] -- Up-to-date: /home/memonsio/wsr2/install/kuka_lwr4plus_msgs/share/kuka_lwr4plus_msgs/local_setup.dsv
[1.639s] -- Installing: /home/memonsio/wsr2/install/kuka_lwr4plus_msgs/share/kuka_lwr4plus_msgs/package.dsv
[1.640s] -- Up-to-date: /home/memonsio/wsr2/install/kuka_lwr4plus_msgs/share/ament_index/resource_index/packages/kuka_lwr4plus_msgs
[1.640s] -- Up-to-date: /home/memonsio/wsr2/install/kuka_lwr4plus_msgs/share/kuka_lwr4plus_msgs/cmake/kuka_lwr4plus_msgs__rosidl_generator_cExport.cmake
[1.640s] -- Up-to-date: /home/memonsio/wsr2/install/kuka_lwr4plus_msgs/share/kuka_lwr4plus_msgs/cmake/kuka_lwr4plus_msgs__rosidl_generator_cExport-noconfig.cmake
[1.640s] -- Up-to-date: /home/memonsio/wsr2/install/kuka_lwr4plus_msgs/share/kuka_lwr4plus_msgs/cmake/kuka_lwr4plus_msgs__rosidl_typesupport_introspection_cExport.cmake
[1.640s] -- Up-to-date: /home/memonsio/wsr2/install/kuka_lwr4plus_msgs/share/kuka_lwr4plus_msgs/cmake/kuka_lwr4plus_msgs__rosidl_typesupport_introspection_cExport-noconfig.cmake
[1.640s] -- Up-to-date: /home/memonsio/wsr2/install/kuka_lwr4plus_msgs/share/kuka_lwr4plus_msgs/cmake/kuka_lwr4plus_msgs__rosidl_typesupport_cExport.cmake
[1.641s] -- Up-to-date: /home/memonsio/wsr2/install/kuka_lwr4plus_msgs/share/kuka_lwr4plus_msgs/cmake/kuka_lwr4plus_msgs__rosidl_typesupport_cExport-noconfig.cmake
[1.641s] -- Up-to-date: /home/memonsio/wsr2/install/kuka_lwr4plus_msgs/share/kuka_lwr4plus_msgs/cmake/kuka_lwr4plus_msgs__rosidl_generator_cppExport.cmake
[1.641s] -- Up-to-date: /home/memonsio/wsr2/install/kuka_lwr4plus_msgs/share/kuka_lwr4plus_msgs/cmake/kuka_lwr4plus_msgs__rosidl_typesupport_introspection_cppExport.cmake
[1.641s] -- Up-to-date: /home/memonsio/wsr2/install/kuka_lwr4plus_msgs/share/kuka_lwr4plus_msgs/cmake/kuka_lwr4plus_msgs__rosidl_typesupport_introspection_cppExport-noconfig.cmake
[1.641s] -- Up-to-date: /home/memonsio/wsr2/install/kuka_lwr4plus_msgs/share/kuka_lwr4plus_msgs/cmake/kuka_lwr4plus_msgs__rosidl_typesupport_cppExport.cmake
[1.641s] -- Up-to-date: /home/memonsio/wsr2/install/kuka_lwr4plus_msgs/share/kuka_lwr4plus_msgs/cmake/kuka_lwr4plus_msgs__rosidl_typesupport_cppExport-noconfig.cmake
[1.642s] -- Up-to-date: /home/memonsio/wsr2/install/kuka_lwr4plus_msgs/share/kuka_lwr4plus_msgs/cmake/rosidl_cmake-extras.cmake
[1.642s] -- Up-to-date: /home/memonsio/wsr2/install/kuka_lwr4plus_msgs/share/kuka_lwr4plus_msgs/cmake/ament_cmake_export_dependencies-extras.cmake
[1.642s] -- Up-to-date: /home/memonsio/wsr2/install/kuka_lwr4plus_msgs/share/kuka_lwr4plus_msgs/cmake/ament_cmake_export_libraries-extras.cmake
[1.642s] -- Up-to-date: /home/memonsio/wsr2/install/kuka_lwr4plus_msgs/share/kuka_lwr4plus_msgs/cmake/ament_cmake_export_targets-extras.cmake
[1.642s] -- Up-to-date: /home/memonsio/wsr2/install/kuka_lwr4plus_msgs/share/kuka_lwr4plus_msgs/cmake/ament_cmake_export_include_directories-extras.cmake
[1.642s] -- Up-to-date: /home/memonsio/wsr2/install/kuka_lwr4plus_msgs/share/kuka_lwr4plus_msgs/cmake/rosidl_cmake_export_typesupport_libraries-extras.cmake
[1.643s] -- Up-to-date: /home/memonsio/wsr2/install/kuka_lwr4plus_msgs/share/kuka_lwr4plus_msgs/cmake/rosidl_cmake_export_typesupport_targets-extras.cmake
[1.643s] -- Up-to-date: /home/memonsio/wsr2/install/kuka_lwr4plus_msgs/share/kuka_lwr4plus_msgs/cmake/kuka_lwr4plus_msgsConfig.cmake
[1.643s] -- Up-to-date: /home/memonsio/wsr2/install/kuka_lwr4plus_msgs/share/kuka_lwr4plus_msgs/cmake/kuka_lwr4plus_msgsConfig-version.cmake
[1.643s] -- Up-to-date: /home/memonsio/wsr2/install/kuka_lwr4plus_msgs/share/kuka_lwr4plus_msgs/package.xml
[2.307s] Invoked command in '/home/memonsio/wsr2/build/kuka_lwr4plus_msgs' returned '0': CMAKE_PREFIX_PATH=${CMAKE_PREFIX_PATH}:/home/memonsio/wsr2/install/wessling_hand_urdf:/home/memonsio/wsr2/install/wessling_hand_sim:/home/memonsio/wsr2/install/py_srvcli:/home/memonsio/wsr2/install/robot_example_urdf:/home/memonsio/wsr2/install/robot_example_sim:/home/memonsio/wsr2/install/learning_tf2_py:/home/memonsio/wsr2/install/kuka_lwr4plus_urdf:/home/memonsio/wsr2/install/kuka_lwr4plus_sim:/home/memonsio/wsr2/install/arcos_lab_mobile_platform_urdf:/home/memonsio/wsr2/install/arcos_lab_mobile_platform_sim:/home/memonsio/wsr2/install/arcos-lab-humanoid-startup-sim:/home/memonsio/wsr2/install/arcos-lab-humanoid-robot-descriptions:/opt/ros/foxy /usr/bin/cmake --install /home/memonsio/wsr2/build/kuka_lwr4plus_msgs
