[0.501s] DEBUG:colcon:Command line arguments: ['/usr/bin/colcon', 'build', '--packages-select', 'py_srvcli']
[0.501s] DEBUG:colcon:Parsed command line arguments: Namespace(ament_cmake_args=None, base_paths=['.'], build_base='build', catkin_cmake_args=None, catkin_skip_building_tests=False, cmake_args=None, cmake_clean_cache=False, cmake_clean_first=False, cmake_force_configure=False, cmake_target=None, cmake_target_skip_unavailable=False, continue_on_error=False, event_handlers=None, executor='parallel', ignore_user_meta=False, install_base='install', log_base=None, log_level=None, main=<bound method BuildVerb.main of <colcon_core.verb.build.BuildVerb object at 0x7f863d0b65e0>>, merge_install=False, metas=['./colcon.meta'], packages_above=None, packages_above_and_dependencies=None, packages_above_depth=None, packages_end=None, packages_ignore=None, packages_ignore_regex=None, packages_select=['py_srvcli'], packages_select_build_failed=False, packages_select_by_dep=None, packages_select_regex=None, packages_select_test_failures=False, packages_skip=None, packages_skip_build_finished=False, packages_skip_by_dep=None, packages_skip_regex=None, packages_skip_test_passed=False, packages_skip_up_to=None, packages_start=None, packages_up_to=None, packages_up_to_regex=None, parallel_workers=4, paths=None, symlink_install=False, test_result_base=None, verb_extension=<colcon_core.verb.build.BuildVerb object at 0x7f863d0b65e0>, verb_name='build', verb_parser=<colcon_defaults.argument_parser.defaults.DefaultArgumentsDecorator object at 0x7f863d0b6b20>)
[0.509s] Level 1:colcon.colcon_core.package_discovery:discover_packages(colcon_meta) check parameters
[0.509s] Level 1:colcon.colcon_core.package_discovery:discover_packages(recursive) check parameters
[0.509s] Level 1:colcon.colcon_core.package_discovery:discover_packages(ignore) check parameters
[0.509s] Level 1:colcon.colcon_core.package_discovery:discover_packages(path) check parameters
[0.509s] Level 1:colcon.colcon_core.package_discovery:discover_packages(colcon_meta) discover
[0.509s] Level 1:colcon.colcon_core.package_discovery:discover_packages(recursive) discover
[0.509s] INFO:colcon.colcon_core.package_discovery:Crawling recursively for packages in '/home/memonsio/wsr2'
[0.509s] Level 1:colcon.colcon_core.package_identification:_identify(.) by extensions ['ignore', 'ignore_ament_install']
[0.510s] Level 1:colcon.colcon_core.package_identification:_identify(.) by extension 'ignore'
[0.510s] Level 1:colcon.colcon_core.package_identification:_identify(.) by extension 'ignore_ament_install'
[0.510s] Level 1:colcon.colcon_core.package_identification:_identify(.) by extensions ['colcon_pkg']
[0.510s] Level 1:colcon.colcon_core.package_identification:_identify(.) by extension 'colcon_pkg'
[0.510s] Level 1:colcon.colcon_core.package_identification:_identify(.) by extensions ['colcon_meta']
[0.510s] Level 1:colcon.colcon_core.package_identification:_identify(.) by extension 'colcon_meta'
[0.510s] Level 1:colcon.colcon_core.package_identification:_identify(.) by extensions ['ros']
[0.510s] Level 1:colcon.colcon_core.package_identification:_identify(.) by extension 'ros'
[0.526s] Level 1:colcon.colcon_core.package_identification:_identify(.) by extensions ['cmake', 'python']
[0.526s] Level 1:colcon.colcon_core.package_identification:_identify(.) by extension 'cmake'
[0.526s] Level 1:colcon.colcon_core.package_identification:_identify(.) by extension 'python'
[0.526s] Level 1:colcon.colcon_core.package_identification:_identify(.) by extensions ['python_setup_py']
[0.526s] Level 1:colcon.colcon_core.package_identification:_identify(.) by extension 'python_setup_py'
[0.526s] Level 1:colcon.colcon_core.package_identification:_identify(build) by extensions ['ignore', 'ignore_ament_install']
[0.526s] Level 1:colcon.colcon_core.package_identification:_identify(build) by extension 'ignore'
[0.527s] Level 1:colcon.colcon_core.package_identification:_identify(build) ignored
[0.527s] Level 1:colcon.colcon_core.package_identification:_identify(install) by extensions ['ignore', 'ignore_ament_install']
[0.527s] Level 1:colcon.colcon_core.package_identification:_identify(install) by extension 'ignore'
[0.527s] Level 1:colcon.colcon_core.package_identification:_identify(install) ignored
[0.527s] Level 1:colcon.colcon_core.package_identification:_identify(log) by extensions ['ignore', 'ignore_ament_install']
[0.527s] Level 1:colcon.colcon_core.package_identification:_identify(log) by extension 'ignore'
[0.527s] Level 1:colcon.colcon_core.package_identification:_identify(log) ignored
[0.527s] Level 1:colcon.colcon_core.package_identification:_identify(src) by extensions ['ignore', 'ignore_ament_install']
[0.528s] Level 1:colcon.colcon_core.package_identification:_identify(src) by extension 'ignore'
[0.528s] Level 1:colcon.colcon_core.package_identification:_identify(src) by extension 'ignore_ament_install'
[0.528s] Level 1:colcon.colcon_core.package_identification:_identify(src) by extensions ['colcon_pkg']
[0.528s] Level 1:colcon.colcon_core.package_identification:_identify(src) by extension 'colcon_pkg'
[0.528s] Level 1:colcon.colcon_core.package_identification:_identify(src) by extensions ['colcon_meta']
[0.528s] Level 1:colcon.colcon_core.package_identification:_identify(src) by extension 'colcon_meta'
[0.528s] Level 1:colcon.colcon_core.package_identification:_identify(src) by extensions ['ros']
[0.528s] Level 1:colcon.colcon_core.package_identification:_identify(src) by extension 'ros'
[0.528s] Level 1:colcon.colcon_core.package_identification:_identify(src) by extensions ['cmake', 'python']
[0.528s] Level 1:colcon.colcon_core.package_identification:_identify(src) by extension 'cmake'
[0.528s] Level 1:colcon.colcon_core.package_identification:_identify(src) by extension 'python'
[0.528s] Level 1:colcon.colcon_core.package_identification:_identify(src) by extensions ['python_setup_py']
[0.528s] Level 1:colcon.colcon_core.package_identification:_identify(src) by extension 'python_setup_py'
[0.528s] Level 1:colcon.colcon_core.package_identification:_identify(src/arcos-lab-humanoid-startup) by extensions ['ignore', 'ignore_ament_install']
[0.529s] Level 1:colcon.colcon_core.package_identification:_identify(src/arcos-lab-humanoid-startup) by extension 'ignore'
[0.529s] Level 1:colcon.colcon_core.package_identification:_identify(src/arcos-lab-humanoid-startup) by extension 'ignore_ament_install'
[0.529s] Level 1:colcon.colcon_core.package_identification:_identify(src/arcos-lab-humanoid-startup) by extensions ['colcon_pkg']
[0.529s] Level 1:colcon.colcon_core.package_identification:_identify(src/arcos-lab-humanoid-startup) by extension 'colcon_pkg'
[0.529s] Level 1:colcon.colcon_core.package_identification:_identify(src/arcos-lab-humanoid-startup) by extensions ['colcon_meta']
[0.529s] Level 1:colcon.colcon_core.package_identification:_identify(src/arcos-lab-humanoid-startup) by extension 'colcon_meta'
[0.529s] Level 1:colcon.colcon_core.package_identification:_identify(src/arcos-lab-humanoid-startup) by extensions ['ros']
[0.529s] Level 1:colcon.colcon_core.package_identification:_identify(src/arcos-lab-humanoid-startup) by extension 'ros'
[0.529s] Level 1:colcon.colcon_core.package_identification:_identify(src/arcos-lab-humanoid-startup) by extensions ['cmake', 'python']
[0.529s] Level 1:colcon.colcon_core.package_identification:_identify(src/arcos-lab-humanoid-startup) by extension 'cmake'
[0.529s] Level 1:colcon.colcon_core.package_identification:_identify(src/arcos-lab-humanoid-startup) by extension 'python'
[0.529s] Level 1:colcon.colcon_core.package_identification:_identify(src/arcos-lab-humanoid-startup) by extensions ['python_setup_py']
[0.529s] Level 1:colcon.colcon_core.package_identification:_identify(src/arcos-lab-humanoid-startup) by extension 'python_setup_py'
[0.530s] Level 1:colcon.colcon_core.package_identification:_identify(src/arcos-lab-humanoid-startup/arcos-lab-humanoid-robot-descriptions) by extensions ['ignore', 'ignore_ament_install']
[0.530s] Level 1:colcon.colcon_core.package_identification:_identify(src/arcos-lab-humanoid-startup/arcos-lab-humanoid-robot-descriptions) by extension 'ignore'
[0.530s] Level 1:colcon.colcon_core.package_identification:_identify(src/arcos-lab-humanoid-startup/arcos-lab-humanoid-robot-descriptions) by extension 'ignore_ament_install'
[0.530s] Level 1:colcon.colcon_core.package_identification:_identify(src/arcos-lab-humanoid-startup/arcos-lab-humanoid-robot-descriptions) by extensions ['colcon_pkg']
[0.530s] Level 1:colcon.colcon_core.package_identification:_identify(src/arcos-lab-humanoid-startup/arcos-lab-humanoid-robot-descriptions) by extension 'colcon_pkg'
[0.530s] Level 1:colcon.colcon_core.package_identification:_identify(src/arcos-lab-humanoid-startup/arcos-lab-humanoid-robot-descriptions) by extensions ['colcon_meta']
[0.530s] Level 1:colcon.colcon_core.package_identification:_identify(src/arcos-lab-humanoid-startup/arcos-lab-humanoid-robot-descriptions) by extension 'colcon_meta'
[0.530s] Level 1:colcon.colcon_core.package_identification:_identify(src/arcos-lab-humanoid-startup/arcos-lab-humanoid-robot-descriptions) by extensions ['ros']
[0.530s] Level 1:colcon.colcon_core.package_identification:_identify(src/arcos-lab-humanoid-startup/arcos-lab-humanoid-robot-descriptions) by extension 'ros'
[0.533s] DEBUG:colcon.colcon_core.package_identification:Package 'src/arcos-lab-humanoid-startup/arcos-lab-humanoid-robot-descriptions' with type 'ros.ament_python' and name 'arcos-lab-humanoid-robot-descriptions'
[0.534s] Level 1:colcon.colcon_core.package_identification:_identify(src/arcos-lab-humanoid-startup/arcos-lab-humanoid-startup-sim) by extensions ['ignore', 'ignore_ament_install']
[0.534s] Level 1:colcon.colcon_core.package_identification:_identify(src/arcos-lab-humanoid-startup/arcos-lab-humanoid-startup-sim) by extension 'ignore'
[0.534s] Level 1:colcon.colcon_core.package_identification:_identify(src/arcos-lab-humanoid-startup/arcos-lab-humanoid-startup-sim) by extension 'ignore_ament_install'
[0.534s] Level 1:colcon.colcon_core.package_identification:_identify(src/arcos-lab-humanoid-startup/arcos-lab-humanoid-startup-sim) by extensions ['colcon_pkg']
[0.534s] Level 1:colcon.colcon_core.package_identification:_identify(src/arcos-lab-humanoid-startup/arcos-lab-humanoid-startup-sim) by extension 'colcon_pkg'
[0.534s] Level 1:colcon.colcon_core.package_identification:_identify(src/arcos-lab-humanoid-startup/arcos-lab-humanoid-startup-sim) by extensions ['colcon_meta']
[0.534s] Level 1:colcon.colcon_core.package_identification:_identify(src/arcos-lab-humanoid-startup/arcos-lab-humanoid-startup-sim) by extension 'colcon_meta'
[0.534s] Level 1:colcon.colcon_core.package_identification:_identify(src/arcos-lab-humanoid-startup/arcos-lab-humanoid-startup-sim) by extensions ['ros']
[0.534s] Level 1:colcon.colcon_core.package_identification:_identify(src/arcos-lab-humanoid-startup/arcos-lab-humanoid-startup-sim) by extension 'ros'
[0.535s] DEBUG:colcon.colcon_core.package_identification:Package 'src/arcos-lab-humanoid-startup/arcos-lab-humanoid-startup-sim' with type 'ros.ament_python' and name 'arcos-lab-humanoid-startup-sim'
[0.535s] Level 1:colcon.colcon_core.package_identification:_identify(src/arcos-lab-mobile-platform) by extensions ['ignore', 'ignore_ament_install']
[0.536s] Level 1:colcon.colcon_core.package_identification:_identify(src/arcos-lab-mobile-platform) by extension 'ignore'
[0.536s] Level 1:colcon.colcon_core.package_identification:_identify(src/arcos-lab-mobile-platform) by extension 'ignore_ament_install'
[0.536s] Level 1:colcon.colcon_core.package_identification:_identify(src/arcos-lab-mobile-platform) by extensions ['colcon_pkg']
[0.536s] Level 1:colcon.colcon_core.package_identification:_identify(src/arcos-lab-mobile-platform) by extension 'colcon_pkg'
[0.536s] Level 1:colcon.colcon_core.package_identification:_identify(src/arcos-lab-mobile-platform) by extensions ['colcon_meta']
[0.536s] Level 1:colcon.colcon_core.package_identification:_identify(src/arcos-lab-mobile-platform) by extension 'colcon_meta'
[0.536s] Level 1:colcon.colcon_core.package_identification:_identify(src/arcos-lab-mobile-platform) by extensions ['ros']
[0.536s] Level 1:colcon.colcon_core.package_identification:_identify(src/arcos-lab-mobile-platform) by extension 'ros'
[0.536s] Level 1:colcon.colcon_core.package_identification:_identify(src/arcos-lab-mobile-platform) by extensions ['cmake', 'python']
[0.536s] Level 1:colcon.colcon_core.package_identification:_identify(src/arcos-lab-mobile-platform) by extension 'cmake'
[0.536s] Level 1:colcon.colcon_core.package_identification:_identify(src/arcos-lab-mobile-platform) by extension 'python'
[0.536s] Level 1:colcon.colcon_core.package_identification:_identify(src/arcos-lab-mobile-platform) by extensions ['python_setup_py']
[0.536s] Level 1:colcon.colcon_core.package_identification:_identify(src/arcos-lab-mobile-platform) by extension 'python_setup_py'
[0.536s] Level 1:colcon.colcon_core.package_identification:_identify(src/arcos-lab-mobile-platform/arcos_lab_mobile_platform_msgs) by extensions ['ignore', 'ignore_ament_install']
[0.537s] Level 1:colcon.colcon_core.package_identification:_identify(src/arcos-lab-mobile-platform/arcos_lab_mobile_platform_msgs) by extension 'ignore'
[0.537s] Level 1:colcon.colcon_core.package_identification:_identify(src/arcos-lab-mobile-platform/arcos_lab_mobile_platform_msgs) by extension 'ignore_ament_install'
[0.537s] Level 1:colcon.colcon_core.package_identification:_identify(src/arcos-lab-mobile-platform/arcos_lab_mobile_platform_msgs) by extensions ['colcon_pkg']
[0.537s] Level 1:colcon.colcon_core.package_identification:_identify(src/arcos-lab-mobile-platform/arcos_lab_mobile_platform_msgs) by extension 'colcon_pkg'
[0.537s] Level 1:colcon.colcon_core.package_identification:_identify(src/arcos-lab-mobile-platform/arcos_lab_mobile_platform_msgs) by extensions ['colcon_meta']
[0.537s] Level 1:colcon.colcon_core.package_identification:_identify(src/arcos-lab-mobile-platform/arcos_lab_mobile_platform_msgs) by extension 'colcon_meta'
[0.537s] Level 1:colcon.colcon_core.package_identification:_identify(src/arcos-lab-mobile-platform/arcos_lab_mobile_platform_msgs) by extensions ['ros']
[0.537s] Level 1:colcon.colcon_core.package_identification:_identify(src/arcos-lab-mobile-platform/arcos_lab_mobile_platform_msgs) by extension 'ros'
[0.538s] DEBUG:colcon.colcon_core.package_identification:Package 'src/arcos-lab-mobile-platform/arcos_lab_mobile_platform_msgs' with type 'ros.ament_cmake' and name 'arcos_lab_mobile_platform_msgs'
[0.538s] Level 1:colcon.colcon_core.package_identification:_identify(src/arcos-lab-mobile-platform/arcos_lab_mobile_platform_sim) by extensions ['ignore', 'ignore_ament_install']
[0.538s] Level 1:colcon.colcon_core.package_identification:_identify(src/arcos-lab-mobile-platform/arcos_lab_mobile_platform_sim) by extension 'ignore'
[0.538s] Level 1:colcon.colcon_core.package_identification:_identify(src/arcos-lab-mobile-platform/arcos_lab_mobile_platform_sim) by extension 'ignore_ament_install'
[0.538s] Level 1:colcon.colcon_core.package_identification:_identify(src/arcos-lab-mobile-platform/arcos_lab_mobile_platform_sim) by extensions ['colcon_pkg']
[0.538s] Level 1:colcon.colcon_core.package_identification:_identify(src/arcos-lab-mobile-platform/arcos_lab_mobile_platform_sim) by extension 'colcon_pkg'
[0.538s] Level 1:colcon.colcon_core.package_identification:_identify(src/arcos-lab-mobile-platform/arcos_lab_mobile_platform_sim) by extensions ['colcon_meta']
[0.538s] Level 1:colcon.colcon_core.package_identification:_identify(src/arcos-lab-mobile-platform/arcos_lab_mobile_platform_sim) by extension 'colcon_meta'
[0.538s] Level 1:colcon.colcon_core.package_identification:_identify(src/arcos-lab-mobile-platform/arcos_lab_mobile_platform_sim) by extensions ['ros']
[0.538s] Level 1:colcon.colcon_core.package_identification:_identify(src/arcos-lab-mobile-platform/arcos_lab_mobile_platform_sim) by extension 'ros'
[0.539s] DEBUG:colcon.colcon_core.package_identification:Package 'src/arcos-lab-mobile-platform/arcos_lab_mobile_platform_sim' with type 'ros.ament_python' and name 'arcos_lab_mobile_platform_sim'
[0.539s] Level 1:colcon.colcon_core.package_identification:_identify(src/arcos-lab-mobile-platform/arcos_lab_mobile_platform_urdf) by extensions ['ignore', 'ignore_ament_install']
[0.540s] Level 1:colcon.colcon_core.package_identification:_identify(src/arcos-lab-mobile-platform/arcos_lab_mobile_platform_urdf) by extension 'ignore'
[0.540s] Level 1:colcon.colcon_core.package_identification:_identify(src/arcos-lab-mobile-platform/arcos_lab_mobile_platform_urdf) by extension 'ignore_ament_install'
[0.540s] Level 1:colcon.colcon_core.package_identification:_identify(src/arcos-lab-mobile-platform/arcos_lab_mobile_platform_urdf) by extensions ['colcon_pkg']
[0.540s] Level 1:colcon.colcon_core.package_identification:_identify(src/arcos-lab-mobile-platform/arcos_lab_mobile_platform_urdf) by extension 'colcon_pkg'
[0.540s] Level 1:colcon.colcon_core.package_identification:_identify(src/arcos-lab-mobile-platform/arcos_lab_mobile_platform_urdf) by extensions ['colcon_meta']
[0.540s] Level 1:colcon.colcon_core.package_identification:_identify(src/arcos-lab-mobile-platform/arcos_lab_mobile_platform_urdf) by extension 'colcon_meta'
[0.540s] Level 1:colcon.colcon_core.package_identification:_identify(src/arcos-lab-mobile-platform/arcos_lab_mobile_platform_urdf) by extensions ['ros']
[0.540s] Level 1:colcon.colcon_core.package_identification:_identify(src/arcos-lab-mobile-platform/arcos_lab_mobile_platform_urdf) by extension 'ros'
[0.541s] DEBUG:colcon.colcon_core.package_identification:Package 'src/arcos-lab-mobile-platform/arcos_lab_mobile_platform_urdf' with type 'ros.ament_python' and name 'arcos_lab_mobile_platform_urdf'
[0.541s] Level 1:colcon.colcon_core.package_identification:_identify(src/kuka-lwr4plus) by extensions ['ignore', 'ignore_ament_install']
[0.541s] Level 1:colcon.colcon_core.package_identification:_identify(src/kuka-lwr4plus) by extension 'ignore'
[0.541s] Level 1:colcon.colcon_core.package_identification:_identify(src/kuka-lwr4plus) by extension 'ignore_ament_install'
[0.541s] Level 1:colcon.colcon_core.package_identification:_identify(src/kuka-lwr4plus) by extensions ['colcon_pkg']
[0.541s] Level 1:colcon.colcon_core.package_identification:_identify(src/kuka-lwr4plus) by extension 'colcon_pkg'
[0.542s] Level 1:colcon.colcon_core.package_identification:_identify(src/kuka-lwr4plus) by extensions ['colcon_meta']
[0.542s] Level 1:colcon.colcon_core.package_identification:_identify(src/kuka-lwr4plus) by extension 'colcon_meta'
[0.542s] Level 1:colcon.colcon_core.package_identification:_identify(src/kuka-lwr4plus) by extensions ['ros']
[0.542s] Level 1:colcon.colcon_core.package_identification:_identify(src/kuka-lwr4plus) by extension 'ros'
[0.542s] Level 1:colcon.colcon_core.package_identification:_identify(src/kuka-lwr4plus) by extensions ['cmake', 'python']
[0.543s] Level 1:colcon.colcon_core.package_identification:_identify(src/kuka-lwr4plus) by extension 'cmake'
[0.543s] Level 1:colcon.colcon_core.package_identification:_identify(src/kuka-lwr4plus) by extension 'python'
[0.543s] Level 1:colcon.colcon_core.package_identification:_identify(src/kuka-lwr4plus) by extensions ['python_setup_py']
[0.543s] Level 1:colcon.colcon_core.package_identification:_identify(src/kuka-lwr4plus) by extension 'python_setup_py'
[0.544s] Level 1:colcon.colcon_core.package_identification:_identify(src/kuka-lwr4plus/kuka_lwr4plus_msgs) by extensions ['ignore', 'ignore_ament_install']
[0.544s] Level 1:colcon.colcon_core.package_identification:_identify(src/kuka-lwr4plus/kuka_lwr4plus_msgs) by extension 'ignore'
[0.544s] Level 1:colcon.colcon_core.package_identification:_identify(src/kuka-lwr4plus/kuka_lwr4plus_msgs) by extension 'ignore_ament_install'
[0.545s] Level 1:colcon.colcon_core.package_identification:_identify(src/kuka-lwr4plus/kuka_lwr4plus_msgs) by extensions ['colcon_pkg']
[0.545s] Level 1:colcon.colcon_core.package_identification:_identify(src/kuka-lwr4plus/kuka_lwr4plus_msgs) by extension 'colcon_pkg'
[0.545s] Level 1:colcon.colcon_core.package_identification:_identify(src/kuka-lwr4plus/kuka_lwr4plus_msgs) by extensions ['colcon_meta']
[0.545s] Level 1:colcon.colcon_core.package_identification:_identify(src/kuka-lwr4plus/kuka_lwr4plus_msgs) by extension 'colcon_meta'
[0.546s] Level 1:colcon.colcon_core.package_identification:_identify(src/kuka-lwr4plus/kuka_lwr4plus_msgs) by extensions ['ros']
[0.546s] Level 1:colcon.colcon_core.package_identification:_identify(src/kuka-lwr4plus/kuka_lwr4plus_msgs) by extension 'ros'
[0.547s] DEBUG:colcon.colcon_core.package_identification:Package 'src/kuka-lwr4plus/kuka_lwr4plus_msgs' with type 'ros.ament_cmake' and name 'kuka_lwr4plus_msgs'
[0.547s] Level 1:colcon.colcon_core.package_identification:_identify(src/kuka-lwr4plus/kuka_lwr4plus_robot) by extensions ['ignore', 'ignore_ament_install']
[0.547s] Level 1:colcon.colcon_core.package_identification:_identify(src/kuka-lwr4plus/kuka_lwr4plus_robot) by extension 'ignore'
[0.547s] Level 1:colcon.colcon_core.package_identification:_identify(src/kuka-lwr4plus/kuka_lwr4plus_robot) by extension 'ignore_ament_install'
[0.548s] Level 1:colcon.colcon_core.package_identification:_identify(src/kuka-lwr4plus/kuka_lwr4plus_robot) by extensions ['colcon_pkg']
[0.548s] Level 1:colcon.colcon_core.package_identification:_identify(src/kuka-lwr4plus/kuka_lwr4plus_robot) by extension 'colcon_pkg'
[0.548s] Level 1:colcon.colcon_core.package_identification:_identify(src/kuka-lwr4plus/kuka_lwr4plus_robot) by extensions ['colcon_meta']
[0.548s] Level 1:colcon.colcon_core.package_identification:_identify(src/kuka-lwr4plus/kuka_lwr4plus_robot) by extension 'colcon_meta'
[0.548s] Level 1:colcon.colcon_core.package_identification:_identify(src/kuka-lwr4plus/kuka_lwr4plus_robot) by extensions ['ros']
[0.548s] Level 1:colcon.colcon_core.package_identification:_identify(src/kuka-lwr4plus/kuka_lwr4plus_robot) by extension 'ros'
[0.549s] DEBUG:colcon.colcon_core.package_identification:Package 'src/kuka-lwr4plus/kuka_lwr4plus_robot' with type 'ros.ament_cmake' and name 'fri_ros2'
[0.550s] Level 1:colcon.colcon_core.package_identification:_identify(src/kuka-lwr4plus/kuka_lwr4plus_sim) by extensions ['ignore', 'ignore_ament_install']
[0.550s] Level 1:colcon.colcon_core.package_identification:_identify(src/kuka-lwr4plus/kuka_lwr4plus_sim) by extension 'ignore'
[0.550s] Level 1:colcon.colcon_core.package_identification:_identify(src/kuka-lwr4plus/kuka_lwr4plus_sim) by extension 'ignore_ament_install'
[0.550s] Level 1:colcon.colcon_core.package_identification:_identify(src/kuka-lwr4plus/kuka_lwr4plus_sim) by extensions ['colcon_pkg']
[0.550s] Level 1:colcon.colcon_core.package_identification:_identify(src/kuka-lwr4plus/kuka_lwr4plus_sim) by extension 'colcon_pkg'
[0.550s] Level 1:colcon.colcon_core.package_identification:_identify(src/kuka-lwr4plus/kuka_lwr4plus_sim) by extensions ['colcon_meta']
[0.550s] Level 1:colcon.colcon_core.package_identification:_identify(src/kuka-lwr4plus/kuka_lwr4plus_sim) by extension 'colcon_meta'
[0.550s] Level 1:colcon.colcon_core.package_identification:_identify(src/kuka-lwr4plus/kuka_lwr4plus_sim) by extensions ['ros']
[0.550s] Level 1:colcon.colcon_core.package_identification:_identify(src/kuka-lwr4plus/kuka_lwr4plus_sim) by extension 'ros'
[0.552s] DEBUG:colcon.colcon_core.package_identification:Package 'src/kuka-lwr4plus/kuka_lwr4plus_sim' with type 'ros.ament_python' and name 'kuka_lwr4plus_sim'
[0.552s] Level 1:colcon.colcon_core.package_identification:_identify(src/kuka-lwr4plus/kuka_lwr4plus_urdf) by extensions ['ignore', 'ignore_ament_install']
[0.552s] Level 1:colcon.colcon_core.package_identification:_identify(src/kuka-lwr4plus/kuka_lwr4plus_urdf) by extension 'ignore'
[0.553s] Level 1:colcon.colcon_core.package_identification:_identify(src/kuka-lwr4plus/kuka_lwr4plus_urdf) by extension 'ignore_ament_install'
[0.553s] Level 1:colcon.colcon_core.package_identification:_identify(src/kuka-lwr4plus/kuka_lwr4plus_urdf) by extensions ['colcon_pkg']
[0.553s] Level 1:colcon.colcon_core.package_identification:_identify(src/kuka-lwr4plus/kuka_lwr4plus_urdf) by extension 'colcon_pkg'
[0.553s] Level 1:colcon.colcon_core.package_identification:_identify(src/kuka-lwr4plus/kuka_lwr4plus_urdf) by extensions ['colcon_meta']
[0.553s] Level 1:colcon.colcon_core.package_identification:_identify(src/kuka-lwr4plus/kuka_lwr4plus_urdf) by extension 'colcon_meta'
[0.553s] Level 1:colcon.colcon_core.package_identification:_identify(src/kuka-lwr4plus/kuka_lwr4plus_urdf) by extensions ['ros']
[0.553s] Level 1:colcon.colcon_core.package_identification:_identify(src/kuka-lwr4plus/kuka_lwr4plus_urdf) by extension 'ros'
[0.554s] DEBUG:colcon.colcon_core.package_identification:Package 'src/kuka-lwr4plus/kuka_lwr4plus_urdf' with type 'ros.ament_python' and name 'kuka_lwr4plus_urdf'
[0.554s] Level 1:colcon.colcon_core.package_identification:_identify(src/py_srvcli) by extensions ['ignore', 'ignore_ament_install']
[0.554s] Level 1:colcon.colcon_core.package_identification:_identify(src/py_srvcli) by extension 'ignore'
[0.554s] Level 1:colcon.colcon_core.package_identification:_identify(src/py_srvcli) by extension 'ignore_ament_install'
[0.555s] Level 1:colcon.colcon_core.package_identification:_identify(src/py_srvcli) by extensions ['colcon_pkg']
[0.555s] Level 1:colcon.colcon_core.package_identification:_identify(src/py_srvcli) by extension 'colcon_pkg'
[0.555s] Level 1:colcon.colcon_core.package_identification:_identify(src/py_srvcli) by extensions ['colcon_meta']
[0.555s] Level 1:colcon.colcon_core.package_identification:_identify(src/py_srvcli) by extension 'colcon_meta'
[0.555s] Level 1:colcon.colcon_core.package_identification:_identify(src/py_srvcli) by extensions ['ros']
[0.555s] Level 1:colcon.colcon_core.package_identification:_identify(src/py_srvcli) by extension 'ros'
[0.556s] DEBUG:colcon.colcon_core.package_identification:Package 'src/py_srvcli' with type 'ros.ament_python' and name 'py_srvcli'
[0.556s] Level 1:colcon.colcon_core.package_identification:_identify(src/tutorial_interfaces) by extensions ['ignore', 'ignore_ament_install']
[0.556s] Level 1:colcon.colcon_core.package_identification:_identify(src/tutorial_interfaces) by extension 'ignore'
[0.556s] Level 1:colcon.colcon_core.package_identification:_identify(src/tutorial_interfaces) by extension 'ignore_ament_install'
[0.556s] Level 1:colcon.colcon_core.package_identification:_identify(src/tutorial_interfaces) by extensions ['colcon_pkg']
[0.557s] Level 1:colcon.colcon_core.package_identification:_identify(src/tutorial_interfaces) by extension 'colcon_pkg'
[0.557s] Level 1:colcon.colcon_core.package_identification:_identify(src/tutorial_interfaces) by extensions ['colcon_meta']
[0.557s] Level 1:colcon.colcon_core.package_identification:_identify(src/tutorial_interfaces) by extension 'colcon_meta'
[0.557s] Level 1:colcon.colcon_core.package_identification:_identify(src/tutorial_interfaces) by extensions ['ros']
[0.557s] Level 1:colcon.colcon_core.package_identification:_identify(src/tutorial_interfaces) by extension 'ros'
[0.557s] DEBUG:colcon.colcon_core.package_identification:Package 'src/tutorial_interfaces' with type 'ros.ament_cmake' and name 'tutorial_interfaces'
[0.558s] Level 1:colcon.colcon_core.package_identification:_identify(src/wessling_hand_driver) by extensions ['ignore', 'ignore_ament_install']
[0.558s] Level 1:colcon.colcon_core.package_identification:_identify(src/wessling_hand_driver) by extension 'ignore'
[0.558s] Level 1:colcon.colcon_core.package_identification:_identify(src/wessling_hand_driver) by extension 'ignore_ament_install'
[0.558s] Level 1:colcon.colcon_core.package_identification:_identify(src/wessling_hand_driver) by extensions ['colcon_pkg']
[0.558s] Level 1:colcon.colcon_core.package_identification:_identify(src/wessling_hand_driver) by extension 'colcon_pkg'
[0.558s] Level 1:colcon.colcon_core.package_identification:_identify(src/wessling_hand_driver) by extensions ['colcon_meta']
[0.558s] Level 1:colcon.colcon_core.package_identification:_identify(src/wessling_hand_driver) by extension 'colcon_meta'
[0.558s] Level 1:colcon.colcon_core.package_identification:_identify(src/wessling_hand_driver) by extensions ['ros']
[0.558s] Level 1:colcon.colcon_core.package_identification:_identify(src/wessling_hand_driver) by extension 'ros'
[0.558s] Level 1:colcon.colcon_core.package_identification:_identify(src/wessling_hand_driver) by extensions ['cmake', 'python']
[0.558s] Level 1:colcon.colcon_core.package_identification:_identify(src/wessling_hand_driver) by extension 'cmake'
[0.558s] Level 1:colcon.colcon_core.package_identification:_identify(src/wessling_hand_driver) by extension 'python'
[0.559s] Level 1:colcon.colcon_core.package_identification:_identify(src/wessling_hand_driver) by extensions ['python_setup_py']
[0.559s] Level 1:colcon.colcon_core.package_identification:_identify(src/wessling_hand_driver) by extension 'python_setup_py'
[0.559s] Level 1:colcon.colcon_core.package_identification:_identify(src/wessling_hand_driver/hand_yarp) by extensions ['ignore', 'ignore_ament_install']
[0.559s] Level 1:colcon.colcon_core.package_identification:_identify(src/wessling_hand_driver/hand_yarp) by extension 'ignore'
[0.559s] Level 1:colcon.colcon_core.package_identification:_identify(src/wessling_hand_driver/hand_yarp) by extension 'ignore_ament_install'
[0.559s] Level 1:colcon.colcon_core.package_identification:_identify(src/wessling_hand_driver/hand_yarp) by extensions ['colcon_pkg']
[0.559s] Level 1:colcon.colcon_core.package_identification:_identify(src/wessling_hand_driver/hand_yarp) by extension 'colcon_pkg'
[0.559s] Level 1:colcon.colcon_core.package_identification:_identify(src/wessling_hand_driver/hand_yarp) by extensions ['colcon_meta']
[0.559s] Level 1:colcon.colcon_core.package_identification:_identify(src/wessling_hand_driver/hand_yarp) by extension 'colcon_meta'
[0.559s] Level 1:colcon.colcon_core.package_identification:_identify(src/wessling_hand_driver/hand_yarp) by extensions ['ros']
[0.559s] Level 1:colcon.colcon_core.package_identification:_identify(src/wessling_hand_driver/hand_yarp) by extension 'ros'
[0.559s] Level 1:colcon.colcon_core.package_identification:_identify(src/wessling_hand_driver/hand_yarp) by extensions ['cmake', 'python']
[0.560s] Level 1:colcon.colcon_core.package_identification:_identify(src/wessling_hand_driver/hand_yarp) by extension 'cmake'
[0.560s] Level 1:colcon.colcon_core.package_identification:_identify(src/wessling_hand_driver/hand_yarp) by extension 'python'
[0.560s] Level 1:colcon.colcon_core.package_identification:_identify(src/wessling_hand_driver/hand_yarp) by extensions ['python_setup_py']
[0.560s] Level 1:colcon.colcon_core.package_identification:_identify(src/wessling_hand_driver/hand_yarp) by extension 'python_setup_py'
[0.560s] Level 1:colcon.colcon_core.package_identification:_identify(src/wessling_hand_driver/tools) by extensions ['ignore', 'ignore_ament_install']
[0.560s] Level 1:colcon.colcon_core.package_identification:_identify(src/wessling_hand_driver/tools) by extension 'ignore'
[0.560s] Level 1:colcon.colcon_core.package_identification:_identify(src/wessling_hand_driver/tools) by extension 'ignore_ament_install'
[0.560s] Level 1:colcon.colcon_core.package_identification:_identify(src/wessling_hand_driver/tools) by extensions ['colcon_pkg']
[0.560s] Level 1:colcon.colcon_core.package_identification:_identify(src/wessling_hand_driver/tools) by extension 'colcon_pkg'
[0.560s] Level 1:colcon.colcon_core.package_identification:_identify(src/wessling_hand_driver/tools) by extensions ['colcon_meta']
[0.560s] Level 1:colcon.colcon_core.package_identification:_identify(src/wessling_hand_driver/tools) by extension 'colcon_meta'
[0.560s] Level 1:colcon.colcon_core.package_identification:_identify(src/wessling_hand_driver/tools) by extensions ['ros']
[0.560s] Level 1:colcon.colcon_core.package_identification:_identify(src/wessling_hand_driver/tools) by extension 'ros'
[0.561s] Level 1:colcon.colcon_core.package_identification:_identify(src/wessling_hand_driver/tools) by extensions ['cmake', 'python']
[0.561s] Level 1:colcon.colcon_core.package_identification:_identify(src/wessling_hand_driver/tools) by extension 'cmake'
[0.561s] Level 1:colcon.colcon_core.package_identification:_identify(src/wessling_hand_driver/tools) by extension 'python'
[0.561s] Level 1:colcon.colcon_core.package_identification:_identify(src/wessling_hand_driver/tools) by extensions ['python_setup_py']
[0.561s] Level 1:colcon.colcon_core.package_identification:_identify(src/wessling_hand_driver/tools) by extension 'python_setup_py'
[0.561s] Level 1:colcon.colcon_core.package_identification:_identify(src/wessling_hand_driver/wessling_hand_driver) by extensions ['ignore', 'ignore_ament_install']
[0.561s] Level 1:colcon.colcon_core.package_identification:_identify(src/wessling_hand_driver/wessling_hand_driver) by extension 'ignore'
[0.561s] Level 1:colcon.colcon_core.package_identification:_identify(src/wessling_hand_driver/wessling_hand_driver) ignored
[0.562s] Level 1:colcon.colcon_core.package_identification:_identify(src/wessling_hand_driver/wessling_hand_examples) by extensions ['ignore', 'ignore_ament_install']
[0.562s] Level 1:colcon.colcon_core.package_identification:_identify(src/wessling_hand_driver/wessling_hand_examples) by extension 'ignore'
[0.562s] Level 1:colcon.colcon_core.package_identification:_identify(src/wessling_hand_driver/wessling_hand_examples) ignored
[0.562s] Level 1:colcon.colcon_core.package_identification:_identify(src/wessling_hand_driver/wessling_hand_msgs) by extensions ['ignore', 'ignore_ament_install']
[0.562s] Level 1:colcon.colcon_core.package_identification:_identify(src/wessling_hand_driver/wessling_hand_msgs) by extension 'ignore'
[0.562s] Level 1:colcon.colcon_core.package_identification:_identify(src/wessling_hand_driver/wessling_hand_msgs) by extension 'ignore_ament_install'
[0.562s] Level 1:colcon.colcon_core.package_identification:_identify(src/wessling_hand_driver/wessling_hand_msgs) by extensions ['colcon_pkg']
[0.562s] Level 1:colcon.colcon_core.package_identification:_identify(src/wessling_hand_driver/wessling_hand_msgs) by extension 'colcon_pkg'
[0.562s] Level 1:colcon.colcon_core.package_identification:_identify(src/wessling_hand_driver/wessling_hand_msgs) by extensions ['colcon_meta']
[0.562s] Level 1:colcon.colcon_core.package_identification:_identify(src/wessling_hand_driver/wessling_hand_msgs) by extension 'colcon_meta'
[0.562s] Level 1:colcon.colcon_core.package_identification:_identify(src/wessling_hand_driver/wessling_hand_msgs) by extensions ['ros']
[0.562s] Level 1:colcon.colcon_core.package_identification:_identify(src/wessling_hand_driver/wessling_hand_msgs) by extension 'ros'
[0.563s] DEBUG:colcon.colcon_core.package_identification:Package 'src/wessling_hand_driver/wessling_hand_msgs' with type 'ros.ament_cmake' and name 'wessling_hand_msgs'
[0.563s] Level 1:colcon.colcon_core.package_identification:_identify(src/wessling_hand_driver/wessling_hand_sim) by extensions ['ignore', 'ignore_ament_install']
[0.563s] Level 1:colcon.colcon_core.package_identification:_identify(src/wessling_hand_driver/wessling_hand_sim) by extension 'ignore'
[0.563s] Level 1:colcon.colcon_core.package_identification:_identify(src/wessling_hand_driver/wessling_hand_sim) by extension 'ignore_ament_install'
[0.564s] Level 1:colcon.colcon_core.package_identification:_identify(src/wessling_hand_driver/wessling_hand_sim) by extensions ['colcon_pkg']
[0.564s] Level 1:colcon.colcon_core.package_identification:_identify(src/wessling_hand_driver/wessling_hand_sim) by extension 'colcon_pkg'
[0.564s] Level 1:colcon.colcon_core.package_identification:_identify(src/wessling_hand_driver/wessling_hand_sim) by extensions ['colcon_meta']
[0.564s] Level 1:colcon.colcon_core.package_identification:_identify(src/wessling_hand_driver/wessling_hand_sim) by extension 'colcon_meta'
[0.564s] Level 1:colcon.colcon_core.package_identification:_identify(src/wessling_hand_driver/wessling_hand_sim) by extensions ['ros']
[0.564s] Level 1:colcon.colcon_core.package_identification:_identify(src/wessling_hand_driver/wessling_hand_sim) by extension 'ros'
[0.565s] DEBUG:colcon.colcon_core.package_identification:Package 'src/wessling_hand_driver/wessling_hand_sim' with type 'ros.ament_python' and name 'wessling_hand_sim'
[0.565s] Level 1:colcon.colcon_core.package_identification:_identify(src/wessling_hand_driver/wessling_hand_urdf) by extensions ['ignore', 'ignore_ament_install']
[0.565s] Level 1:colcon.colcon_core.package_identification:_identify(src/wessling_hand_driver/wessling_hand_urdf) by extension 'ignore'
[0.565s] Level 1:colcon.colcon_core.package_identification:_identify(src/wessling_hand_driver/wessling_hand_urdf) by extension 'ignore_ament_install'
[0.565s] Level 1:colcon.colcon_core.package_identification:_identify(src/wessling_hand_driver/wessling_hand_urdf) by extensions ['colcon_pkg']
[0.565s] Level 1:colcon.colcon_core.package_identification:_identify(src/wessling_hand_driver/wessling_hand_urdf) by extension 'colcon_pkg'
[0.566s] Level 1:colcon.colcon_core.package_identification:_identify(src/wessling_hand_driver/wessling_hand_urdf) by extensions ['colcon_meta']
[0.566s] Level 1:colcon.colcon_core.package_identification:_identify(src/wessling_hand_driver/wessling_hand_urdf) by extension 'colcon_meta'
[0.566s] Level 1:colcon.colcon_core.package_identification:_identify(src/wessling_hand_driver/wessling_hand_urdf) by extensions ['ros']
[0.566s] Level 1:colcon.colcon_core.package_identification:_identify(src/wessling_hand_driver/wessling_hand_urdf) by extension 'ros'
[0.566s] DEBUG:colcon.colcon_core.package_identification:Package 'src/wessling_hand_driver/wessling_hand_urdf' with type 'ros.ament_python' and name 'wessling_hand_urdf'
[0.566s] Level 1:colcon.colcon_core.package_discovery:discover_packages(recursive) using defaults
[0.567s] Level 1:colcon.colcon_core.package_discovery:discover_packages(ignore) discover
[0.567s] Level 1:colcon.colcon_core.package_discovery:discover_packages(ignore) using defaults
[0.567s] Level 1:colcon.colcon_core.package_discovery:discover_packages(path) discover
[0.567s] Level 1:colcon.colcon_core.package_discovery:discover_packages(path) using defaults
[0.595s] INFO:colcon.colcon_core.package_selection:Skipping not selected package 'arcos-lab-humanoid-robot-descriptions' in 'src/arcos-lab-humanoid-startup/arcos-lab-humanoid-robot-descriptions'
[0.595s] INFO:colcon.colcon_core.package_selection:Skipping not selected package 'arcos-lab-humanoid-startup-sim' in 'src/arcos-lab-humanoid-startup/arcos-lab-humanoid-startup-sim'
[0.595s] INFO:colcon.colcon_core.package_selection:Skipping not selected package 'arcos_lab_mobile_platform_msgs' in 'src/arcos-lab-mobile-platform/arcos_lab_mobile_platform_msgs'
[0.595s] INFO:colcon.colcon_core.package_selection:Skipping not selected package 'arcos_lab_mobile_platform_sim' in 'src/arcos-lab-mobile-platform/arcos_lab_mobile_platform_sim'
[0.595s] INFO:colcon.colcon_core.package_selection:Skipping not selected package 'arcos_lab_mobile_platform_urdf' in 'src/arcos-lab-mobile-platform/arcos_lab_mobile_platform_urdf'
[0.595s] INFO:colcon.colcon_core.package_selection:Skipping not selected package 'fri_ros2' in 'src/kuka-lwr4plus/kuka_lwr4plus_robot'
[0.595s] INFO:colcon.colcon_core.package_selection:Skipping not selected package 'kuka_lwr4plus_msgs' in 'src/kuka-lwr4plus/kuka_lwr4plus_msgs'
[0.595s] INFO:colcon.colcon_core.package_selection:Skipping not selected package 'kuka_lwr4plus_sim' in 'src/kuka-lwr4plus/kuka_lwr4plus_sim'
[0.595s] INFO:colcon.colcon_core.package_selection:Skipping not selected package 'kuka_lwr4plus_urdf' in 'src/kuka-lwr4plus/kuka_lwr4plus_urdf'
[0.595s] INFO:colcon.colcon_core.package_selection:Skipping not selected package 'tutorial_interfaces' in 'src/tutorial_interfaces'
[0.595s] INFO:colcon.colcon_core.package_selection:Skipping not selected package 'wessling_hand_msgs' in 'src/wessling_hand_driver/wessling_hand_msgs'
[0.596s] INFO:colcon.colcon_core.package_selection:Skipping not selected package 'wessling_hand_sim' in 'src/wessling_hand_driver/wessling_hand_sim'
[0.596s] INFO:colcon.colcon_core.package_selection:Skipping not selected package 'wessling_hand_urdf' in 'src/wessling_hand_driver/wessling_hand_urdf'
[0.599s] Level 5:colcon.colcon_core.verb:set package 'py_srvcli' build argument 'cmake_args' from command line to 'None'
[0.599s] Level 5:colcon.colcon_core.verb:set package 'py_srvcli' build argument 'cmake_target' from command line to 'None'
[0.599s] Level 5:colcon.colcon_core.verb:set package 'py_srvcli' build argument 'cmake_target_skip_unavailable' from command line to 'False'
[0.599s] Level 5:colcon.colcon_core.verb:set package 'py_srvcli' build argument 'cmake_clean_cache' from command line to 'False'
[0.599s] Level 5:colcon.colcon_core.verb:set package 'py_srvcli' build argument 'cmake_clean_first' from command line to 'False'
[0.599s] Level 5:colcon.colcon_core.verb:set package 'py_srvcli' build argument 'cmake_force_configure' from command line to 'False'
[0.599s] Level 5:colcon.colcon_core.verb:set package 'py_srvcli' build argument 'ament_cmake_args' from command line to 'None'
[0.599s] Level 5:colcon.colcon_core.verb:set package 'py_srvcli' build argument 'catkin_cmake_args' from command line to 'None'
[0.599s] Level 5:colcon.colcon_core.verb:set package 'py_srvcli' build argument 'catkin_skip_building_tests' from command line to 'False'
[0.599s] DEBUG:colcon.colcon_core.verb:Building package 'py_srvcli' with the following arguments: {'ament_cmake_args': None, 'build_base': '/home/memonsio/wsr2/build/py_srvcli', 'catkin_cmake_args': None, 'catkin_skip_building_tests': False, 'cmake_args': None, 'cmake_clean_cache': False, 'cmake_clean_first': False, 'cmake_force_configure': False, 'cmake_target': None, 'cmake_target_skip_unavailable': False, 'install_base': '/home/memonsio/wsr2/install/py_srvcli', 'merge_install': False, 'path': '/home/memonsio/wsr2/src/py_srvcli', 'symlink_install': False, 'test_result_base': None}
[0.600s] INFO:colcon.colcon_core.executor:Executing jobs using 'parallel' executor
[0.603s] DEBUG:colcon.colcon_parallel_executor.executor.parallel:run_until_complete
[0.603s] INFO:colcon.colcon_ros.task.ament_python.build:Building ROS package in '/home/memonsio/wsr2/src/py_srvcli' with build type 'ament_python'
[0.603s] Level 1:colcon.colcon_core.shell:create_environment_hook('py_srvcli', 'ament_prefix_path')
[0.609s] INFO:colcon.colcon_core.plugin_system:Skipping extension 'colcon_core.shell.bat': Not used on non-Windows systems
[0.609s] INFO:colcon.colcon_core.shell:Creating environment hook '/home/memonsio/wsr2/install/py_srvcli/share/py_srvcli/hook/ament_prefix_path.ps1'
[0.610s] INFO:colcon.colcon_core.shell:Creating environment descriptor '/home/memonsio/wsr2/install/py_srvcli/share/py_srvcli/hook/ament_prefix_path.dsv'
[0.611s] INFO:colcon.colcon_core.shell:Creating environment hook '/home/memonsio/wsr2/install/py_srvcli/share/py_srvcli/hook/ament_prefix_path.sh'
[0.612s] INFO:colcon.colcon_core.shell:Skip shell extension 'powershell' for command environment: Not usable outside of PowerShell
[0.613s] DEBUG:colcon.colcon_core.shell:Skip shell extension 'dsv' for command environment
[0.617s] DEBUG:colcon.colcon_core.shell:Ignoring prefix path '/opt/ros/foxy'
[1.033s] INFO:colcon.colcon_core.task.python.build:Building Python package in '/home/memonsio/wsr2/src/py_srvcli'
[1.034s] INFO:colcon.colcon_core.shell:Skip shell extension 'powershell' for command environment: Not usable outside of PowerShell
[1.035s] DEBUG:colcon.colcon_core.shell:Skip shell extension 'dsv' for command environment
[1.038s] DEBUG:colcon.colcon_core.shell:Ignoring prefix path '/opt/ros/foxy'
[1.050s] DEBUG:colcon.colcon_core.event_handler.log_command:Invoking command in '/home/memonsio/wsr2/src/py_srvcli': CMAKE_PREFIX_PATH=/home/memonsio/wsr2/install/tutorial_interfaces:/home/memonsio/wsr2/install/wessling_hand_msgs:/home/memonsio/wsr2/install/kuka_lwr4plus_msgs:/home/memonsio/wsr2/install/fri_ros2:/home/memonsio/wsr2/install/arcos_lab_mobile_platform_msgs LD_LIBRARY_PATH=/home/memonsio/wsr2/install/tutorial_interfaces/lib:/home/memonsio/wsr2/install/wessling_hand_msgs/lib:/home/memonsio/wsr2/install/kuka_lwr4plus_msgs/lib:/home/memonsio/wsr2/install/arcos_lab_mobile_platform_msgs/lib:/opt/ros/foxy/opt/yaml_cpp_vendor/lib:/opt/ros/foxy/opt/rviz_ogre_vendor/lib:/opt/ros/foxy/lib/x86_64-linux-gnu:/opt/ros/foxy/lib PYTHONPATH=/home/memonsio/wsr2/install/py_srvcli/lib/python3.8/site-packages:/home/memonsio/wsr2/install/tutorial_interfaces/lib/python3.8/site-packages:/home/memonsio/wsr2/install/wessling_hand_urdf/lib/python3.8/site-packages:/home/memonsio/wsr2/install/wessling_hand_sim/lib/python3.8/site-packages:/home/memonsio/wsr2/install/wessling_hand_msgs/lib/python3.8/site-packages:/home/memonsio/wsr2/install/py_srvcli/lib/python3.8/site-packages:/home/memonsio/wsr2/install/kuka_lwr4plus_urdf/lib/python3.8/site-packages:/home/memonsio/wsr2/install/kuka_lwr4plus_sim/lib/python3.8/site-packages:/home/memonsio/wsr2/install/kuka_lwr4plus_msgs/lib/python3.8/site-packages:/home/memonsio/wsr2/install/arcos_lab_mobile_platform_urdf/lib/python3.8/site-packages:/home/memonsio/wsr2/install/arcos_lab_mobile_platform_sim/lib/python3.8/site-packages:/home/memonsio/wsr2/install/arcos_lab_mobile_platform_msgs/lib/python3.8/site-packages:/home/memonsio/wsr2/install/arcos-lab-humanoid-startup-sim/lib/python3.8/site-packages:/home/memonsio/wsr2/install/arcos-lab-humanoid-robot-descriptions/lib/python3.8/site-packages:/opt/ros/foxy/lib/python3.8/site-packages /usr/bin/python3 setup.py egg_info --egg-base ../../build/py_srvcli build --build-base /home/memonsio/wsr2/build/py_srvcli/build install --prefix /home/memonsio/wsr2/install/py_srvcli --record /home/memonsio/wsr2/build/py_srvcli/install.log --single-version-externally-managed
[1.558s] DEBUG:colcon.colcon_core.event_handler.log_command:Invoked command in '/home/memonsio/wsr2/src/py_srvcli' returned '0': CMAKE_PREFIX_PATH=/home/memonsio/wsr2/install/tutorial_interfaces:/home/memonsio/wsr2/install/wessling_hand_msgs:/home/memonsio/wsr2/install/kuka_lwr4plus_msgs:/home/memonsio/wsr2/install/fri_ros2:/home/memonsio/wsr2/install/arcos_lab_mobile_platform_msgs LD_LIBRARY_PATH=/home/memonsio/wsr2/install/tutorial_interfaces/lib:/home/memonsio/wsr2/install/wessling_hand_msgs/lib:/home/memonsio/wsr2/install/kuka_lwr4plus_msgs/lib:/home/memonsio/wsr2/install/arcos_lab_mobile_platform_msgs/lib:/opt/ros/foxy/opt/yaml_cpp_vendor/lib:/opt/ros/foxy/opt/rviz_ogre_vendor/lib:/opt/ros/foxy/lib/x86_64-linux-gnu:/opt/ros/foxy/lib PYTHONPATH=/home/memonsio/wsr2/install/py_srvcli/lib/python3.8/site-packages:/home/memonsio/wsr2/install/tutorial_interfaces/lib/python3.8/site-packages:/home/memonsio/wsr2/install/wessling_hand_urdf/lib/python3.8/site-packages:/home/memonsio/wsr2/install/wessling_hand_sim/lib/python3.8/site-packages:/home/memonsio/wsr2/install/wessling_hand_msgs/lib/python3.8/site-packages:/home/memonsio/wsr2/install/py_srvcli/lib/python3.8/site-packages:/home/memonsio/wsr2/install/kuka_lwr4plus_urdf/lib/python3.8/site-packages:/home/memonsio/wsr2/install/kuka_lwr4plus_sim/lib/python3.8/site-packages:/home/memonsio/wsr2/install/kuka_lwr4plus_msgs/lib/python3.8/site-packages:/home/memonsio/wsr2/install/arcos_lab_mobile_platform_urdf/lib/python3.8/site-packages:/home/memonsio/wsr2/install/arcos_lab_mobile_platform_sim/lib/python3.8/site-packages:/home/memonsio/wsr2/install/arcos_lab_mobile_platform_msgs/lib/python3.8/site-packages:/home/memonsio/wsr2/install/arcos-lab-humanoid-startup-sim/lib/python3.8/site-packages:/home/memonsio/wsr2/install/arcos-lab-humanoid-robot-descriptions/lib/python3.8/site-packages:/opt/ros/foxy/lib/python3.8/site-packages /usr/bin/python3 setup.py egg_info --egg-base ../../build/py_srvcli build --build-base /home/memonsio/wsr2/build/py_srvcli/build install --prefix /home/memonsio/wsr2/install/py_srvcli --record /home/memonsio/wsr2/build/py_srvcli/install.log --single-version-externally-managed
[1.562s] Level 1:colcon.colcon_core.environment:checking '/home/memonsio/wsr2/install/py_srvcli' for CMake module files
[1.563s] Level 1:colcon.colcon_core.environment:checking '/home/memonsio/wsr2/install/py_srvcli' for CMake config files
[1.564s] Level 1:colcon.colcon_core.environment:checking '/home/memonsio/wsr2/install/py_srvcli/lib'
[1.564s] Level 1:colcon.colcon_core.environment:checking '/home/memonsio/wsr2/install/py_srvcli/bin'
[1.564s] Level 1:colcon.colcon_core.environment:checking '/home/memonsio/wsr2/install/py_srvcli/lib/pkgconfig/py_srvcli.pc'
[1.564s] Level 1:colcon.colcon_core.environment:checking '/home/memonsio/wsr2/install/py_srvcli/lib/python3.8/site-packages'
[1.564s] Level 1:colcon.colcon_core.shell:create_environment_hook('py_srvcli', 'pythonpath')
[1.565s] INFO:colcon.colcon_core.shell:Creating environment hook '/home/memonsio/wsr2/install/py_srvcli/share/py_srvcli/hook/pythonpath.ps1'
[1.566s] INFO:colcon.colcon_core.shell:Creating environment descriptor '/home/memonsio/wsr2/install/py_srvcli/share/py_srvcli/hook/pythonpath.dsv'
[1.567s] INFO:colcon.colcon_core.shell:Creating environment hook '/home/memonsio/wsr2/install/py_srvcli/share/py_srvcli/hook/pythonpath.sh'
[1.568s] Level 1:colcon.colcon_core.environment:create_environment_scripts_only(py_srvcli)
[1.569s] INFO:colcon.colcon_core.shell:Creating package script '/home/memonsio/wsr2/install/py_srvcli/share/py_srvcli/package.ps1'
[1.570s] INFO:colcon.colcon_core.shell:Creating package descriptor '/home/memonsio/wsr2/install/py_srvcli/share/py_srvcli/package.dsv'
[1.571s] INFO:colcon.colcon_core.shell:Creating package script '/home/memonsio/wsr2/install/py_srvcli/share/py_srvcli/package.sh'
[1.572s] INFO:colcon.colcon_core.shell:Creating package script '/home/memonsio/wsr2/install/py_srvcli/share/py_srvcli/package.bash'
[1.573s] INFO:colcon.colcon_core.shell:Creating package script '/home/memonsio/wsr2/install/py_srvcli/share/py_srvcli/package.zsh'
[1.574s] Level 1:colcon.colcon_core.environment:create_file_with_runtime_dependencies(/home/memonsio/wsr2/install/py_srvcli/share/colcon-core/packages/py_srvcli)
[1.574s] DEBUG:colcon.colcon_parallel_executor.executor.parallel:closing loop
[1.575s] DEBUG:colcon.colcon_parallel_executor.executor.parallel:loop closed
[1.575s] DEBUG:colcon.colcon_parallel_executor.executor.parallel:run_until_complete finished with '0'
[1.575s] DEBUG:colcon.colcon_core.event_reactor:joining thread
[1.585s] INFO:colcon.colcon_core.plugin_system:Skipping extension 'colcon_notification.desktop_notification.terminal_notifier': Not used on non-Darwin systems
[1.585s] INFO:colcon.colcon_core.plugin_system:Skipping extension 'colcon_notification.desktop_notification.win32': Not used on non-Windows systems
[1.585s] INFO:colcon.colcon_notification.desktop_notification:Sending desktop notification using 'notify2'
[1.607s] DEBUG:colcon.colcon_core.event_reactor:joined thread
[1.609s] INFO:colcon.colcon_core.shell:Creating prefix script '/home/memonsio/wsr2/install/local_setup.ps1'
[1.611s] INFO:colcon.colcon_core.shell:Creating prefix util module '/home/memonsio/wsr2/install/_local_setup_util_ps1.py'
[1.614s] INFO:colcon.colcon_core.shell:Creating prefix chain script '/home/memonsio/wsr2/install/setup.ps1'
[1.619s] INFO:colcon.colcon_core.shell:Creating prefix script '/home/memonsio/wsr2/install/local_setup.sh'
[1.620s] INFO:colcon.colcon_core.shell:Creating prefix util module '/home/memonsio/wsr2/install/_local_setup_util_sh.py'
[1.621s] INFO:colcon.colcon_core.shell:Creating prefix chain script '/home/memonsio/wsr2/install/setup.sh'
[1.624s] INFO:colcon.colcon_core.shell:Creating prefix script '/home/memonsio/wsr2/install/local_setup.bash'
[1.625s] INFO:colcon.colcon_core.shell:Creating prefix chain script '/home/memonsio/wsr2/install/setup.bash'
[1.629s] INFO:colcon.colcon_core.shell:Creating prefix script '/home/memonsio/wsr2/install/local_setup.zsh'
[1.630s] INFO:colcon.colcon_core.shell:Creating prefix chain script '/home/memonsio/wsr2/install/setup.zsh'
