[1.219s] Invoking command in '/home/memonsio/wsr2/src/robot_example/robot_example_sim': PYTHONPATH=/home/memonsio/wsr2/install/robot_example_sim/lib/python3.8/site-packages:${PYTHONPATH} /usr/bin/python3 setup.py egg_info --egg-base ../../../build/robot_example_sim build --build-base /home/memonsio/wsr2/build/robot_example_sim/build install --prefix /home/memonsio/wsr2/install/robot_example_sim --record /home/memonsio/wsr2/build/robot_example_sim/install.log --single-version-externally-managed
[2.008s] running egg_info
[2.010s] writing ../../../build/robot_example_sim/robot_example_sim.egg-info/PKG-INFO
[2.011s] writing dependency_links to ../../../build/robot_example_sim/robot_example_sim.egg-info/dependency_links.txt
[2.011s] writing entry points to ../../../build/robot_example_sim/robot_example_sim.egg-info/entry_points.txt
[2.012s] writing requirements to ../../../build/robot_example_sim/robot_example_sim.egg-info/requires.txt
[2.014s] writing top-level names to ../../../build/robot_example_sim/robot_example_sim.egg-info/top_level.txt
[2.099s] reading manifest file '../../../build/robot_example_sim/robot_example_sim.egg-info/SOURCES.txt'
[2.102s] writing manifest file '../../../build/robot_example_sim/robot_example_sim.egg-info/SOURCES.txt'
[2.102s] running build
[2.107s] running build_py
[2.109s] running install
[2.110s] running install_lib
[2.110s] running install_data
[2.110s] running install_egg_info
[2.116s] removing '/home/memonsio/wsr2/install/robot_example_sim/lib/python3.8/site-packages/robot_example_sim-0.1.0-py3.8.egg-info' (and everything under it)
[2.117s] Copying ../../../build/robot_example_sim/robot_example_sim.egg-info to /home/memonsio/wsr2/install/robot_example_sim/lib/python3.8/site-packages/robot_example_sim-0.1.0-py3.8.egg-info
[2.120s] running install_scripts
[2.162s] Installing robot_example_sim script to /home/memonsio/wsr2/install/robot_example_sim/lib/robot_example_sim
[2.163s] Installing send_ext_torques script to /home/memonsio/wsr2/install/robot_example_sim/lib/robot_example_sim
[2.176s] writing list of installed files to '/home/memonsio/wsr2/build/robot_example_sim/install.log'
[2.292s] Invoked command in '/home/memonsio/wsr2/src/robot_example/robot_example_sim' returned '0': PYTHONPATH=/home/memonsio/wsr2/install/robot_example_sim/lib/python3.8/site-packages:${PYTHONPATH} /usr/bin/python3 setup.py egg_info --egg-base ../../../build/robot_example_sim build --build-base /home/memonsio/wsr2/build/robot_example_sim/build install --prefix /home/memonsio/wsr2/install/robot_example_sim --record /home/memonsio/wsr2/build/robot_example_sim/install.log --single-version-externally-managed
