[  1%] Built target robot_example_msgs__cpp
[ 12%] Built target robot_example_msgs__rosidl_generator_c
[ 34%] Built target robot_example_msgs__rosidl_typesupport_fastrtps_cpp
[ 34%] Built target robot_example_msgs__rosidl_typesupport_cpp
[ 45%] Built target robot_example_msgs__rosidl_typesupport_introspection_cpp
[ 56%] Built target robot_example_msgs__rosidl_typesupport_introspection_c
[ 67%] Built target robot_example_msgs__rosidl_typesupport_fastrtps_c
[ 78%] Built target robot_example_msgs__rosidl_typesupport_c
[ 78%] Built target robot_example_msgs
[ 80%] Built target robot_example_msgs__py
[ 89%] Built target robot_example_msgs__python
[ 92%] Built target robot_example_msgs__rosidl_typesupport_c__pyext
[ 96%] Built target robot_example_msgs__rosidl_typesupport_introspection_c__pyext
[100%] Built target robot_example_msgs__rosidl_typesupport_fastrtps_c__pyext
-- Install configuration: ""
-- Up-to-date: /home/memonsio/wsr2/install/robot_example_msgs/share/ament_index/resource_index/rosidl_interfaces/robot_example_msgs
-- Up-to-date: /home/memonsio/wsr2/install/robot_example_msgs/include/robot_example_msgs
-- Up-to-date: /home/memonsio/wsr2/install/robot_example_msgs/include/robot_example_msgs/srv
-- Up-to-date: /home/memonsio/wsr2/install/robot_example_msgs/include/robot_example_msgs/srv/detail
-- Up-to-date: /home/memonsio/wsr2/install/robot_example_msgs/include/robot_example_msgs/srv/detail/arm_enable__struct.h
-- Up-to-date: /home/memonsio/wsr2/install/robot_example_msgs/include/robot_example_msgs/srv/detail/arm_enable__functions.c
-- Up-to-date: /home/memonsio/wsr2/install/robot_example_msgs/include/robot_example_msgs/srv/detail/arm_enable__functions.h
-- Up-to-date: /home/memonsio/wsr2/install/robot_example_msgs/include/robot_example_msgs/srv/detail/arm_enable__type_support.h
-- Up-to-date: /home/memonsio/wsr2/install/robot_example_msgs/include/robot_example_msgs/srv/arm_enable.h
-- Up-to-date: /home/memonsio/wsr2/install/robot_example_msgs/include/robot_example_msgs/msg
-- Up-to-date: /home/memonsio/wsr2/install/robot_example_msgs/include/robot_example_msgs/msg/arm_status.h
-- Up-to-date: /home/memonsio/wsr2/install/robot_example_msgs/include/robot_example_msgs/msg/arm_command.h
-- Up-to-date: /home/memonsio/wsr2/install/robot_example_msgs/include/robot_example_msgs/msg/rosidl_generator_c__visibility_control.h
-- Up-to-date: /home/memonsio/wsr2/install/robot_example_msgs/include/robot_example_msgs/msg/detail
-- Up-to-date: /home/memonsio/wsr2/install/robot_example_msgs/include/robot_example_msgs/msg/detail/arm_ext_torques__struct.h
-- Up-to-date: /home/memonsio/wsr2/install/robot_example_msgs/include/robot_example_msgs/msg/detail/arm_ext_torques__functions.c
-- Up-to-date: /home/memonsio/wsr2/install/robot_example_msgs/include/robot_example_msgs/msg/detail/arm_command__type_support.h
-- Up-to-date: /home/memonsio/wsr2/install/robot_example_msgs/include/robot_example_msgs/msg/detail/arm_status__type_support.h
-- Up-to-date: /home/memonsio/wsr2/install/robot_example_msgs/include/robot_example_msgs/msg/detail/arm_status__functions.c
-- Up-to-date: /home/memonsio/wsr2/install/robot_example_msgs/include/robot_example_msgs/msg/detail/arm_ext_torques__functions.h
-- Up-to-date: /home/memonsio/wsr2/install/robot_example_msgs/include/robot_example_msgs/msg/detail/arm_ext_torques__type_support.h
-- Up-to-date: /home/memonsio/wsr2/install/robot_example_msgs/include/robot_example_msgs/msg/detail/arm_command__struct.h
-- Up-to-date: /home/memonsio/wsr2/install/robot_example_msgs/include/robot_example_msgs/msg/detail/arm_command__functions.c
-- Up-to-date: /home/memonsio/wsr2/install/robot_example_msgs/include/robot_example_msgs/msg/detail/arm_status__struct.h
-- Up-to-date: /home/memonsio/wsr2/install/robot_example_msgs/include/robot_example_msgs/msg/detail/arm_status__functions.h
-- Up-to-date: /home/memonsio/wsr2/install/robot_example_msgs/include/robot_example_msgs/msg/detail/arm_command__functions.h
-- Up-to-date: /home/memonsio/wsr2/install/robot_example_msgs/include/robot_example_msgs/msg/arm_ext_torques.h
-- Up-to-date: /home/memonsio/wsr2/install/robot_example_msgs/share/robot_example_msgs/environment/library_path.sh
-- Up-to-date: /home/memonsio/wsr2/install/robot_example_msgs/share/robot_example_msgs/environment/library_path.dsv
-- Up-to-date: /home/memonsio/wsr2/install/robot_example_msgs/lib/librobot_example_msgs__rosidl_generator_c.so
-- Up-to-date: /home/memonsio/wsr2/install/robot_example_msgs/include/robot_example_msgs
-- Up-to-date: /home/memonsio/wsr2/install/robot_example_msgs/include/robot_example_msgs/srv
-- Up-to-date: /home/memonsio/wsr2/install/robot_example_msgs/include/robot_example_msgs/srv/detail
-- Up-to-date: /home/memonsio/wsr2/install/robot_example_msgs/include/robot_example_msgs/srv/detail/arm_enable__rosidl_typesupport_fastrtps_c.h
-- Up-to-date: /home/memonsio/wsr2/install/robot_example_msgs/include/robot_example_msgs/msg
-- Up-to-date: /home/memonsio/wsr2/install/robot_example_msgs/include/robot_example_msgs/msg/detail
-- Up-to-date: /home/memonsio/wsr2/install/robot_example_msgs/include/robot_example_msgs/msg/detail/arm_command__rosidl_typesupport_fastrtps_c.h
-- Up-to-date: /home/memonsio/wsr2/install/robot_example_msgs/include/robot_example_msgs/msg/detail/arm_ext_torques__rosidl_typesupport_fastrtps_c.h
-- Up-to-date: /home/memonsio/wsr2/install/robot_example_msgs/include/robot_example_msgs/msg/detail/arm_status__rosidl_typesupport_fastrtps_c.h
-- Up-to-date: /home/memonsio/wsr2/install/robot_example_msgs/include/robot_example_msgs/msg/rosidl_typesupport_fastrtps_c__visibility_control.h
-- Up-to-date: /home/memonsio/wsr2/install/robot_example_msgs/lib/librobot_example_msgs__rosidl_typesupport_fastrtps_c.so
-- Up-to-date: /home/memonsio/wsr2/install/robot_example_msgs/include/robot_example_msgs
-- Up-to-date: /home/memonsio/wsr2/install/robot_example_msgs/include/robot_example_msgs/srv
-- Up-to-date: /home/memonsio/wsr2/install/robot_example_msgs/include/robot_example_msgs/srv/detail
-- Up-to-date: /home/memonsio/wsr2/install/robot_example_msgs/include/robot_example_msgs/srv/detail/arm_enable__rosidl_typesupport_fastrtps_cpp.hpp
-- Up-to-date: /home/memonsio/wsr2/install/robot_example_msgs/include/robot_example_msgs/srv/detail/dds_fastrtps
-- Up-to-date: /home/memonsio/wsr2/install/robot_example_msgs/include/robot_example_msgs/msg
-- Up-to-date: /home/memonsio/wsr2/install/robot_example_msgs/include/robot_example_msgs/msg/detail
-- Up-to-date: /home/memonsio/wsr2/install/robot_example_msgs/include/robot_example_msgs/msg/detail/arm_status__rosidl_typesupport_fastrtps_cpp.hpp
-- Up-to-date: /home/memonsio/wsr2/install/robot_example_msgs/include/robot_example_msgs/msg/detail/arm_command__rosidl_typesupport_fastrtps_cpp.hpp
-- Up-to-date: /home/memonsio/wsr2/install/robot_example_msgs/include/robot_example_msgs/msg/detail/dds_fastrtps
-- Up-to-date: /home/memonsio/wsr2/install/robot_example_msgs/include/robot_example_msgs/msg/detail/arm_ext_torques__rosidl_typesupport_fastrtps_cpp.hpp
-- Up-to-date: /home/memonsio/wsr2/install/robot_example_msgs/include/robot_example_msgs/msg/rosidl_typesupport_fastrtps_cpp__visibility_control.h
-- Up-to-date: /home/memonsio/wsr2/install/robot_example_msgs/lib/librobot_example_msgs__rosidl_typesupport_fastrtps_cpp.so
-- Up-to-date: /home/memonsio/wsr2/install/robot_example_msgs/include/robot_example_msgs
-- Up-to-date: /home/memonsio/wsr2/install/robot_example_msgs/include/robot_example_msgs/srv
-- Up-to-date: /home/memonsio/wsr2/install/robot_example_msgs/include/robot_example_msgs/srv/detail
-- Up-to-date: /home/memonsio/wsr2/install/robot_example_msgs/include/robot_example_msgs/srv/detail/arm_enable__rosidl_typesupport_introspection_c.h
-- Up-to-date: /home/memonsio/wsr2/install/robot_example_msgs/include/robot_example_msgs/srv/detail/arm_enable__type_support.c
-- Up-to-date: /home/memonsio/wsr2/install/robot_example_msgs/include/robot_example_msgs/msg
-- Up-to-date: /home/memonsio/wsr2/install/robot_example_msgs/include/robot_example_msgs/msg/detail
-- Up-to-date: /home/memonsio/wsr2/install/robot_example_msgs/include/robot_example_msgs/msg/detail/arm_status__type_support.c
-- Up-to-date: /home/memonsio/wsr2/install/robot_example_msgs/include/robot_example_msgs/msg/detail/arm_ext_torques__type_support.c
-- Up-to-date: /home/memonsio/wsr2/install/robot_example_msgs/include/robot_example_msgs/msg/detail/arm_command__rosidl_typesupport_introspection_c.h
-- Up-to-date: /home/memonsio/wsr2/install/robot_example_msgs/include/robot_example_msgs/msg/detail/arm_ext_torques__rosidl_typesupport_introspection_c.h
-- Up-to-date: /home/memonsio/wsr2/install/robot_example_msgs/include/robot_example_msgs/msg/detail/arm_command__type_support.c
-- Up-to-date: /home/memonsio/wsr2/install/robot_example_msgs/include/robot_example_msgs/msg/detail/arm_status__rosidl_typesupport_introspection_c.h
-- Up-to-date: /home/memonsio/wsr2/install/robot_example_msgs/include/robot_example_msgs/msg/rosidl_typesupport_introspection_c__visibility_control.h
-- Up-to-date: /home/memonsio/wsr2/install/robot_example_msgs/lib/librobot_example_msgs__rosidl_typesupport_introspection_c.so
-- Up-to-date: /home/memonsio/wsr2/install/robot_example_msgs/lib/librobot_example_msgs__rosidl_typesupport_c.so
-- Up-to-date: /home/memonsio/wsr2/install/robot_example_msgs/include/robot_example_msgs
-- Up-to-date: /home/memonsio/wsr2/install/robot_example_msgs/include/robot_example_msgs/srv
-- Up-to-date: /home/memonsio/wsr2/install/robot_example_msgs/include/robot_example_msgs/srv/detail
-- Up-to-date: /home/memonsio/wsr2/install/robot_example_msgs/include/robot_example_msgs/srv/detail/arm_enable__struct.hpp
-- Up-to-date: /home/memonsio/wsr2/install/robot_example_msgs/include/robot_example_msgs/srv/detail/arm_enable__traits.hpp
-- Up-to-date: /home/memonsio/wsr2/install/robot_example_msgs/include/robot_example_msgs/srv/detail/arm_enable__builder.hpp
-- Up-to-date: /home/memonsio/wsr2/install/robot_example_msgs/include/robot_example_msgs/srv/arm_enable.hpp
-- Up-to-date: /home/memonsio/wsr2/install/robot_example_msgs/include/robot_example_msgs/msg
-- Up-to-date: /home/memonsio/wsr2/install/robot_example_msgs/include/robot_example_msgs/msg/detail
-- Up-to-date: /home/memonsio/wsr2/install/robot_example_msgs/include/robot_example_msgs/msg/detail/arm_command__struct.hpp
-- Up-to-date: /home/memonsio/wsr2/install/robot_example_msgs/include/robot_example_msgs/msg/detail/arm_ext_torques__builder.hpp
-- Up-to-date: /home/memonsio/wsr2/install/robot_example_msgs/include/robot_example_msgs/msg/detail/arm_status__struct.hpp
-- Up-to-date: /home/memonsio/wsr2/install/robot_example_msgs/include/robot_example_msgs/msg/detail/arm_command__builder.hpp
-- Up-to-date: /home/memonsio/wsr2/install/robot_example_msgs/include/robot_example_msgs/msg/detail/arm_command__traits.hpp
-- Up-to-date: /home/memonsio/wsr2/install/robot_example_msgs/include/robot_example_msgs/msg/detail/arm_status__builder.hpp
-- Up-to-date: /home/memonsio/wsr2/install/robot_example_msgs/include/robot_example_msgs/msg/detail/arm_ext_torques__struct.hpp
-- Up-to-date: /home/memonsio/wsr2/install/robot_example_msgs/include/robot_example_msgs/msg/detail/arm_ext_torques__traits.hpp
-- Up-to-date: /home/memonsio/wsr2/install/robot_example_msgs/include/robot_example_msgs/msg/detail/arm_status__traits.hpp
-- Up-to-date: /home/memonsio/wsr2/install/robot_example_msgs/include/robot_example_msgs/msg/arm_command.hpp
-- Up-to-date: /home/memonsio/wsr2/install/robot_example_msgs/include/robot_example_msgs/msg/arm_status.hpp
-- Up-to-date: /home/memonsio/wsr2/install/robot_example_msgs/include/robot_example_msgs/msg/arm_ext_torques.hpp
-- Up-to-date: /home/memonsio/wsr2/install/robot_example_msgs/include/robot_example_msgs
-- Up-to-date: /home/memonsio/wsr2/install/robot_example_msgs/include/robot_example_msgs/srv
-- Up-to-date: /home/memonsio/wsr2/install/robot_example_msgs/include/robot_example_msgs/srv/detail
-- Up-to-date: /home/memonsio/wsr2/install/robot_example_msgs/include/robot_example_msgs/srv/detail/arm_enable__type_support.cpp
-- Up-to-date: /home/memonsio/wsr2/install/robot_example_msgs/include/robot_example_msgs/srv/detail/arm_enable__rosidl_typesupport_introspection_cpp.hpp
-- Up-to-date: /home/memonsio/wsr2/install/robot_example_msgs/include/robot_example_msgs/msg
-- Up-to-date: /home/memonsio/wsr2/install/robot_example_msgs/include/robot_example_msgs/msg/detail
-- Up-to-date: /home/memonsio/wsr2/install/robot_example_msgs/include/robot_example_msgs/msg/detail/arm_ext_torques__type_support.cpp
-- Up-to-date: /home/memonsio/wsr2/install/robot_example_msgs/include/robot_example_msgs/msg/detail/arm_status__type_support.cpp
-- Up-to-date: /home/memonsio/wsr2/install/robot_example_msgs/include/robot_example_msgs/msg/detail/arm_status__rosidl_typesupport_introspection_cpp.hpp
-- Up-to-date: /home/memonsio/wsr2/install/robot_example_msgs/include/robot_example_msgs/msg/detail/arm_ext_torques__rosidl_typesupport_introspection_cpp.hpp
-- Up-to-date: /home/memonsio/wsr2/install/robot_example_msgs/include/robot_example_msgs/msg/detail/arm_command__type_support.cpp
-- Up-to-date: /home/memonsio/wsr2/install/robot_example_msgs/include/robot_example_msgs/msg/detail/arm_command__rosidl_typesupport_introspection_cpp.hpp
-- Up-to-date: /home/memonsio/wsr2/install/robot_example_msgs/lib/librobot_example_msgs__rosidl_typesupport_introspection_cpp.so
-- Up-to-date: /home/memonsio/wsr2/install/robot_example_msgs/lib/librobot_example_msgs__rosidl_typesupport_cpp.so
-- Up-to-date: /home/memonsio/wsr2/install/robot_example_msgs/share/robot_example_msgs/environment/pythonpath.sh
-- Up-to-date: /home/memonsio/wsr2/install/robot_example_msgs/share/robot_example_msgs/environment/pythonpath.dsv
-- Up-to-date: /home/memonsio/wsr2/install/robot_example_msgs/lib/python3.8/site-packages/robot_example_msgs/__init__.py
-- Up-to-date: /home/memonsio/wsr2/install/robot_example_msgs/lib/python3.8/site-packages/robot_example_msgs/msg
-- Up-to-date: /home/memonsio/wsr2/install/robot_example_msgs/lib/python3.8/site-packages/robot_example_msgs/msg/_arm_ext_torques_s.c
-- Up-to-date: /home/memonsio/wsr2/install/robot_example_msgs/lib/python3.8/site-packages/robot_example_msgs/msg/_arm_status_s.c
-- Up-to-date: /home/memonsio/wsr2/install/robot_example_msgs/lib/python3.8/site-packages/robot_example_msgs/msg/_arm_ext_torques.py
-- Up-to-date: /home/memonsio/wsr2/install/robot_example_msgs/lib/python3.8/site-packages/robot_example_msgs/msg/_arm_command.py
-- Up-to-date: /home/memonsio/wsr2/install/robot_example_msgs/lib/python3.8/site-packages/robot_example_msgs/msg/_arm_command_s.c
-- Up-to-date: /home/memonsio/wsr2/install/robot_example_msgs/lib/python3.8/site-packages/robot_example_msgs/msg/__init__.py
-- Up-to-date: /home/memonsio/wsr2/install/robot_example_msgs/lib/python3.8/site-packages/robot_example_msgs/msg/_arm_status.py
-- Up-to-date: /home/memonsio/wsr2/install/robot_example_msgs/lib/python3.8/site-packages/robot_example_msgs/srv
-- Up-to-date: /home/memonsio/wsr2/install/robot_example_msgs/lib/python3.8/site-packages/robot_example_msgs/srv/_arm_enable.py
-- Up-to-date: /home/memonsio/wsr2/install/robot_example_msgs/lib/python3.8/site-packages/robot_example_msgs/srv/__init__.py
-- Up-to-date: /home/memonsio/wsr2/install/robot_example_msgs/lib/python3.8/site-packages/robot_example_msgs/srv/_arm_enable_s.c
-- Up-to-date: /home/memonsio/wsr2/install/robot_example_msgs/lib/python3.8/site-packages/robot_example_msgs/robot_example_msgs_s__rosidl_typesupport_fastrtps_c.cpython-38-x86_64-linux-gnu.so
-- Up-to-date: /home/memonsio/wsr2/install/robot_example_msgs/lib/python3.8/site-packages/robot_example_msgs/robot_example_msgs_s__rosidl_typesupport_introspection_c.cpython-38-x86_64-linux-gnu.so
-- Up-to-date: /home/memonsio/wsr2/install/robot_example_msgs/lib/python3.8/site-packages/robot_example_msgs/robot_example_msgs_s__rosidl_typesupport_c.cpython-38-x86_64-linux-gnu.so
-- Up-to-date: /home/memonsio/wsr2/install/robot_example_msgs/lib/librobot_example_msgs__python.so
-- Up-to-date: /home/memonsio/wsr2/install/robot_example_msgs/share/robot_example_msgs/msg/ArmExtTorques.idl
-- Up-to-date: /home/memonsio/wsr2/install/robot_example_msgs/share/robot_example_msgs/msg/ArmCommand.idl
-- Up-to-date: /home/memonsio/wsr2/install/robot_example_msgs/share/robot_example_msgs/msg/ArmStatus.idl
-- Up-to-date: /home/memonsio/wsr2/install/robot_example_msgs/share/robot_example_msgs/srv/ArmEnable.idl
-- Up-to-date: /home/memonsio/wsr2/install/robot_example_msgs/share/robot_example_msgs/msg/ArmExtTorques.msg
-- Up-to-date: /home/memonsio/wsr2/install/robot_example_msgs/share/robot_example_msgs/msg/ArmCommand.msg
-- Up-to-date: /home/memonsio/wsr2/install/robot_example_msgs/share/robot_example_msgs/msg/ArmStatus.msg
-- Up-to-date: /home/memonsio/wsr2/install/robot_example_msgs/share/robot_example_msgs/srv/ArmEnable.srv
-- Up-to-date: /home/memonsio/wsr2/install/robot_example_msgs/share/robot_example_msgs/srv/ArmEnable_Request.msg
-- Up-to-date: /home/memonsio/wsr2/install/robot_example_msgs/share/robot_example_msgs/srv/ArmEnable_Response.msg
-- Up-to-date: /home/memonsio/wsr2/install/robot_example_msgs/share/ament_index/resource_index/package_run_dependencies/robot_example_msgs
-- Up-to-date: /home/memonsio/wsr2/install/robot_example_msgs/share/ament_index/resource_index/parent_prefix_path/robot_example_msgs
-- Up-to-date: /home/memonsio/wsr2/install/robot_example_msgs/share/robot_example_msgs/environment/ament_prefix_path.sh
-- Up-to-date: /home/memonsio/wsr2/install/robot_example_msgs/share/robot_example_msgs/environment/ament_prefix_path.dsv
-- Up-to-date: /home/memonsio/wsr2/install/robot_example_msgs/share/robot_example_msgs/environment/path.sh
-- Up-to-date: /home/memonsio/wsr2/install/robot_example_msgs/share/robot_example_msgs/environment/path.dsv
-- Up-to-date: /home/memonsio/wsr2/install/robot_example_msgs/share/robot_example_msgs/local_setup.bash
-- Up-to-date: /home/memonsio/wsr2/install/robot_example_msgs/share/robot_example_msgs/local_setup.sh
-- Up-to-date: /home/memonsio/wsr2/install/robot_example_msgs/share/robot_example_msgs/local_setup.zsh
-- Up-to-date: /home/memonsio/wsr2/install/robot_example_msgs/share/robot_example_msgs/local_setup.dsv
-- Installing: /home/memonsio/wsr2/install/robot_example_msgs/share/robot_example_msgs/package.dsv
-- Up-to-date: /home/memonsio/wsr2/install/robot_example_msgs/share/ament_index/resource_index/packages/robot_example_msgs
-- Up-to-date: /home/memonsio/wsr2/install/robot_example_msgs/share/robot_example_msgs/cmake/robot_example_msgs__rosidl_generator_cExport.cmake
-- Up-to-date: /home/memonsio/wsr2/install/robot_example_msgs/share/robot_example_msgs/cmake/robot_example_msgs__rosidl_generator_cExport-noconfig.cmake
-- Up-to-date: /home/memonsio/wsr2/install/robot_example_msgs/share/robot_example_msgs/cmake/robot_example_msgs__rosidl_typesupport_introspection_cExport.cmake
-- Up-to-date: /home/memonsio/wsr2/install/robot_example_msgs/share/robot_example_msgs/cmake/robot_example_msgs__rosidl_typesupport_introspection_cExport-noconfig.cmake
-- Up-to-date: /home/memonsio/wsr2/install/robot_example_msgs/share/robot_example_msgs/cmake/robot_example_msgs__rosidl_typesupport_cExport.cmake
-- Up-to-date: /home/memonsio/wsr2/install/robot_example_msgs/share/robot_example_msgs/cmake/robot_example_msgs__rosidl_typesupport_cExport-noconfig.cmake
-- Up-to-date: /home/memonsio/wsr2/install/robot_example_msgs/share/robot_example_msgs/cmake/robot_example_msgs__rosidl_generator_cppExport.cmake
-- Up-to-date: /home/memonsio/wsr2/install/robot_example_msgs/share/robot_example_msgs/cmake/robot_example_msgs__rosidl_typesupport_introspection_cppExport.cmake
-- Up-to-date: /home/memonsio/wsr2/install/robot_example_msgs/share/robot_example_msgs/cmake/robot_example_msgs__rosidl_typesupport_introspection_cppExport-noconfig.cmake
-- Up-to-date: /home/memonsio/wsr2/install/robot_example_msgs/share/robot_example_msgs/cmake/robot_example_msgs__rosidl_typesupport_cppExport.cmake
-- Up-to-date: /home/memonsio/wsr2/install/robot_example_msgs/share/robot_example_msgs/cmake/robot_example_msgs__rosidl_typesupport_cppExport-noconfig.cmake
-- Up-to-date: /home/memonsio/wsr2/install/robot_example_msgs/share/robot_example_msgs/cmake/rosidl_cmake-extras.cmake
-- Up-to-date: /home/memonsio/wsr2/install/robot_example_msgs/share/robot_example_msgs/cmake/ament_cmake_export_dependencies-extras.cmake
-- Up-to-date: /home/memonsio/wsr2/install/robot_example_msgs/share/robot_example_msgs/cmake/ament_cmake_export_libraries-extras.cmake
-- Up-to-date: /home/memonsio/wsr2/install/robot_example_msgs/share/robot_example_msgs/cmake/ament_cmake_export_targets-extras.cmake
-- Up-to-date: /home/memonsio/wsr2/install/robot_example_msgs/share/robot_example_msgs/cmake/ament_cmake_export_include_directories-extras.cmake
-- Up-to-date: /home/memonsio/wsr2/install/robot_example_msgs/share/robot_example_msgs/cmake/rosidl_cmake_export_typesupport_libraries-extras.cmake
-- Up-to-date: /home/memonsio/wsr2/install/robot_example_msgs/share/robot_example_msgs/cmake/rosidl_cmake_export_typesupport_targets-extras.cmake
-- Up-to-date: /home/memonsio/wsr2/install/robot_example_msgs/share/robot_example_msgs/cmake/robot_example_msgsConfig.cmake
-- Up-to-date: /home/memonsio/wsr2/install/robot_example_msgs/share/robot_example_msgs/cmake/robot_example_msgsConfig-version.cmake
-- Up-to-date: /home/memonsio/wsr2/install/robot_example_msgs/share/robot_example_msgs/package.xml
