[0.959s] Invoking command in '/home/memonsio/wsr2/src/kuka-lwr4plus/kuka_lwr4plus_urdf': PYTHONPATH=/home/memonsio/wsr2/install/kuka_lwr4plus_urdf/lib/python3.8/site-packages:${PYTHONPATH} /usr/bin/python3 setup.py egg_info --egg-base ../../../build/kuka_lwr4plus_urdf build --build-base /home/memonsio/wsr2/build/kuka_lwr4plus_urdf/build install --prefix /home/memonsio/wsr2/install/kuka_lwr4plus_urdf --record /home/memonsio/wsr2/build/kuka_lwr4plus_urdf/install.log --single-version-externally-managed
[1.934s] running egg_info
[1.935s] writing ../../../build/kuka_lwr4plus_urdf/kuka_lwr4plus_urdf.egg-info/PKG-INFO
[1.936s] writing dependency_links to ../../../build/kuka_lwr4plus_urdf/kuka_lwr4plus_urdf.egg-info/dependency_links.txt
[1.936s] writing entry points to ../../../build/kuka_lwr4plus_urdf/kuka_lwr4plus_urdf.egg-info/entry_points.txt
[1.937s] writing requirements to ../../../build/kuka_lwr4plus_urdf/kuka_lwr4plus_urdf.egg-info/requires.txt
[1.937s] writing top-level names to ../../../build/kuka_lwr4plus_urdf/kuka_lwr4plus_urdf.egg-info/top_level.txt
[2.027s] reading manifest file '../../../build/kuka_lwr4plus_urdf/kuka_lwr4plus_urdf.egg-info/SOURCES.txt'
[2.032s] writing manifest file '../../../build/kuka_lwr4plus_urdf/kuka_lwr4plus_urdf.egg-info/SOURCES.txt'
[2.033s] running build
[2.033s] running build_py
[2.033s] running install
[2.038s] running install_lib
[2.044s] running install_data
[2.050s] running install_egg_info
[2.056s] removing '/home/memonsio/wsr2/install/kuka_lwr4plus_urdf/lib/python3.8/site-packages/kuka_lwr4plus_urdf-0.1.0-py3.8.egg-info' (and everything under it)
[2.057s] Copying ../../../build/kuka_lwr4plus_urdf/kuka_lwr4plus_urdf.egg-info to /home/memonsio/wsr2/install/kuka_lwr4plus_urdf/lib/python3.8/site-packages/kuka_lwr4plus_urdf-0.1.0-py3.8.egg-info
[2.059s] running install_scripts
[2.120s] writing list of installed files to '/home/memonsio/wsr2/build/kuka_lwr4plus_urdf/install.log'
[2.231s] Invoked command in '/home/memonsio/wsr2/src/kuka-lwr4plus/kuka_lwr4plus_urdf' returned '0': PYTHONPATH=/home/memonsio/wsr2/install/kuka_lwr4plus_urdf/lib/python3.8/site-packages:${PYTHONPATH} /usr/bin/python3 setup.py egg_info --egg-base ../../../build/kuka_lwr4plus_urdf build --build-base /home/memonsio/wsr2/build/kuka_lwr4plus_urdf/build install --prefix /home/memonsio/wsr2/install/kuka_lwr4plus_urdf --record /home/memonsio/wsr2/build/kuka_lwr4plus_urdf/install.log --single-version-externally-managed
