[  1%] Built target arcos_lab_mobile_platform_msgs__cpp
[ 12%] Built target arcos_lab_mobile_platform_msgs__rosidl_generator_c
[ 23%] Built target arcos_lab_mobile_platform_msgs__rosidl_typesupport_introspection_cpp
[ 34%] Built target arcos_lab_mobile_platform_msgs__rosidl_typesupport_fastrtps_cpp
[ 45%] Built target arcos_lab_mobile_platform_msgs__rosidl_typesupport_cpp
[ 56%] Built target arcos_lab_mobile_platform_msgs__rosidl_typesupport_c
[ 67%] Built target arcos_lab_mobile_platform_msgs__rosidl_typesupport_introspection_c
[ 78%] Built target arcos_lab_mobile_platform_msgs__rosidl_typesupport_fastrtps_c
[ 78%] Built target arcos_lab_mobile_platform_msgs
[ 80%] Built target arcos_lab_mobile_platform_msgs__py
[ 89%] Built target arcos_lab_mobile_platform_msgs__python
[ 92%] Built target arcos_lab_mobile_platform_msgs__rosidl_typesupport_fastrtps_c__pyext
[ 96%] Built target arcos_lab_mobile_platform_msgs__rosidl_typesupport_introspection_c__pyext
[100%] Built target arcos_lab_mobile_platform_msgs__rosidl_typesupport_c__pyext
-- Install configuration: ""
-- Up-to-date: /home/memonsio/wsr2/install/arcos_lab_mobile_platform_msgs/share/ament_index/resource_index/rosidl_interfaces/arcos_lab_mobile_platform_msgs
-- Up-to-date: /home/memonsio/wsr2/install/arcos_lab_mobile_platform_msgs/include/arcos_lab_mobile_platform_msgs
-- Up-to-date: /home/memonsio/wsr2/install/arcos_lab_mobile_platform_msgs/include/arcos_lab_mobile_platform_msgs/srv
-- Up-to-date: /home/memonsio/wsr2/install/arcos_lab_mobile_platform_msgs/include/arcos_lab_mobile_platform_msgs/srv/mob_enable.h
-- Up-to-date: /home/memonsio/wsr2/install/arcos_lab_mobile_platform_msgs/include/arcos_lab_mobile_platform_msgs/srv/detail
-- Up-to-date: /home/memonsio/wsr2/install/arcos_lab_mobile_platform_msgs/include/arcos_lab_mobile_platform_msgs/srv/detail/mob_enable__functions.c
-- Up-to-date: /home/memonsio/wsr2/install/arcos_lab_mobile_platform_msgs/include/arcos_lab_mobile_platform_msgs/srv/detail/mob_enable__functions.h
-- Up-to-date: /home/memonsio/wsr2/install/arcos_lab_mobile_platform_msgs/include/arcos_lab_mobile_platform_msgs/srv/detail/mob_enable__struct.h
-- Up-to-date: /home/memonsio/wsr2/install/arcos_lab_mobile_platform_msgs/include/arcos_lab_mobile_platform_msgs/srv/detail/mob_enable__type_support.h
-- Up-to-date: /home/memonsio/wsr2/install/arcos_lab_mobile_platform_msgs/include/arcos_lab_mobile_platform_msgs/msg
-- Up-to-date: /home/memonsio/wsr2/install/arcos_lab_mobile_platform_msgs/include/arcos_lab_mobile_platform_msgs/msg/mob_ext_torques.h
-- Up-to-date: /home/memonsio/wsr2/install/arcos_lab_mobile_platform_msgs/include/arcos_lab_mobile_platform_msgs/msg/rosidl_generator_c__visibility_control.h
-- Up-to-date: /home/memonsio/wsr2/install/arcos_lab_mobile_platform_msgs/include/arcos_lab_mobile_platform_msgs/msg/detail
-- Up-to-date: /home/memonsio/wsr2/install/arcos_lab_mobile_platform_msgs/include/arcos_lab_mobile_platform_msgs/msg/detail/mob_ext_torques__functions.h
-- Up-to-date: /home/memonsio/wsr2/install/arcos_lab_mobile_platform_msgs/include/arcos_lab_mobile_platform_msgs/msg/detail/mob_ext_torques__struct.h
-- Up-to-date: /home/memonsio/wsr2/install/arcos_lab_mobile_platform_msgs/include/arcos_lab_mobile_platform_msgs/msg/detail/mob_status__type_support.h
-- Up-to-date: /home/memonsio/wsr2/install/arcos_lab_mobile_platform_msgs/include/arcos_lab_mobile_platform_msgs/msg/detail/mob_status__struct.h
-- Up-to-date: /home/memonsio/wsr2/install/arcos_lab_mobile_platform_msgs/include/arcos_lab_mobile_platform_msgs/msg/detail/mob_command__functions.c
-- Up-to-date: /home/memonsio/wsr2/install/arcos_lab_mobile_platform_msgs/include/arcos_lab_mobile_platform_msgs/msg/detail/mob_command__struct.h
-- Up-to-date: /home/memonsio/wsr2/install/arcos_lab_mobile_platform_msgs/include/arcos_lab_mobile_platform_msgs/msg/detail/mob_status__functions.c
-- Up-to-date: /home/memonsio/wsr2/install/arcos_lab_mobile_platform_msgs/include/arcos_lab_mobile_platform_msgs/msg/detail/mob_ext_torques__functions.c
-- Up-to-date: /home/memonsio/wsr2/install/arcos_lab_mobile_platform_msgs/include/arcos_lab_mobile_platform_msgs/msg/detail/mob_command__type_support.h
-- Up-to-date: /home/memonsio/wsr2/install/arcos_lab_mobile_platform_msgs/include/arcos_lab_mobile_platform_msgs/msg/detail/mob_ext_torques__type_support.h
-- Up-to-date: /home/memonsio/wsr2/install/arcos_lab_mobile_platform_msgs/include/arcos_lab_mobile_platform_msgs/msg/detail/mob_status__functions.h
-- Up-to-date: /home/memonsio/wsr2/install/arcos_lab_mobile_platform_msgs/include/arcos_lab_mobile_platform_msgs/msg/detail/mob_command__functions.h
-- Up-to-date: /home/memonsio/wsr2/install/arcos_lab_mobile_platform_msgs/include/arcos_lab_mobile_platform_msgs/msg/mob_status.h
-- Up-to-date: /home/memonsio/wsr2/install/arcos_lab_mobile_platform_msgs/include/arcos_lab_mobile_platform_msgs/msg/mob_command.h
-- Up-to-date: /home/memonsio/wsr2/install/arcos_lab_mobile_platform_msgs/share/arcos_lab_mobile_platform_msgs/environment/library_path.sh
-- Up-to-date: /home/memonsio/wsr2/install/arcos_lab_mobile_platform_msgs/share/arcos_lab_mobile_platform_msgs/environment/library_path.dsv
-- Up-to-date: /home/memonsio/wsr2/install/arcos_lab_mobile_platform_msgs/lib/libarcos_lab_mobile_platform_msgs__rosidl_generator_c.so
-- Up-to-date: /home/memonsio/wsr2/install/arcos_lab_mobile_platform_msgs/include/arcos_lab_mobile_platform_msgs
-- Up-to-date: /home/memonsio/wsr2/install/arcos_lab_mobile_platform_msgs/include/arcos_lab_mobile_platform_msgs/srv
-- Up-to-date: /home/memonsio/wsr2/install/arcos_lab_mobile_platform_msgs/include/arcos_lab_mobile_platform_msgs/srv/detail
-- Up-to-date: /home/memonsio/wsr2/install/arcos_lab_mobile_platform_msgs/include/arcos_lab_mobile_platform_msgs/srv/detail/mob_enable__rosidl_typesupport_fastrtps_c.h
-- Up-to-date: /home/memonsio/wsr2/install/arcos_lab_mobile_platform_msgs/include/arcos_lab_mobile_platform_msgs/msg
-- Up-to-date: /home/memonsio/wsr2/install/arcos_lab_mobile_platform_msgs/include/arcos_lab_mobile_platform_msgs/msg/detail
-- Up-to-date: /home/memonsio/wsr2/install/arcos_lab_mobile_platform_msgs/include/arcos_lab_mobile_platform_msgs/msg/detail/mob_status__rosidl_typesupport_fastrtps_c.h
-- Up-to-date: /home/memonsio/wsr2/install/arcos_lab_mobile_platform_msgs/include/arcos_lab_mobile_platform_msgs/msg/detail/mob_command__rosidl_typesupport_fastrtps_c.h
-- Up-to-date: /home/memonsio/wsr2/install/arcos_lab_mobile_platform_msgs/include/arcos_lab_mobile_platform_msgs/msg/detail/mob_ext_torques__rosidl_typesupport_fastrtps_c.h
-- Up-to-date: /home/memonsio/wsr2/install/arcos_lab_mobile_platform_msgs/include/arcos_lab_mobile_platform_msgs/msg/rosidl_typesupport_fastrtps_c__visibility_control.h
-- Up-to-date: /home/memonsio/wsr2/install/arcos_lab_mobile_platform_msgs/lib/libarcos_lab_mobile_platform_msgs__rosidl_typesupport_fastrtps_c.so
-- Up-to-date: /home/memonsio/wsr2/install/arcos_lab_mobile_platform_msgs/include/arcos_lab_mobile_platform_msgs
-- Up-to-date: /home/memonsio/wsr2/install/arcos_lab_mobile_platform_msgs/include/arcos_lab_mobile_platform_msgs/srv
-- Up-to-date: /home/memonsio/wsr2/install/arcos_lab_mobile_platform_msgs/include/arcos_lab_mobile_platform_msgs/srv/detail
-- Up-to-date: /home/memonsio/wsr2/install/arcos_lab_mobile_platform_msgs/include/arcos_lab_mobile_platform_msgs/srv/detail/mob_enable__rosidl_typesupport_fastrtps_cpp.hpp
-- Up-to-date: /home/memonsio/wsr2/install/arcos_lab_mobile_platform_msgs/include/arcos_lab_mobile_platform_msgs/srv/detail/dds_fastrtps
-- Up-to-date: /home/memonsio/wsr2/install/arcos_lab_mobile_platform_msgs/include/arcos_lab_mobile_platform_msgs/msg
-- Up-to-date: /home/memonsio/wsr2/install/arcos_lab_mobile_platform_msgs/include/arcos_lab_mobile_platform_msgs/msg/detail
-- Up-to-date: /home/memonsio/wsr2/install/arcos_lab_mobile_platform_msgs/include/arcos_lab_mobile_platform_msgs/msg/detail/mob_status__rosidl_typesupport_fastrtps_cpp.hpp
-- Up-to-date: /home/memonsio/wsr2/install/arcos_lab_mobile_platform_msgs/include/arcos_lab_mobile_platform_msgs/msg/detail/dds_fastrtps
-- Up-to-date: /home/memonsio/wsr2/install/arcos_lab_mobile_platform_msgs/include/arcos_lab_mobile_platform_msgs/msg/detail/mob_command__rosidl_typesupport_fastrtps_cpp.hpp
-- Up-to-date: /home/memonsio/wsr2/install/arcos_lab_mobile_platform_msgs/include/arcos_lab_mobile_platform_msgs/msg/detail/mob_ext_torques__rosidl_typesupport_fastrtps_cpp.hpp
-- Up-to-date: /home/memonsio/wsr2/install/arcos_lab_mobile_platform_msgs/include/arcos_lab_mobile_platform_msgs/msg/rosidl_typesupport_fastrtps_cpp__visibility_control.h
-- Up-to-date: /home/memonsio/wsr2/install/arcos_lab_mobile_platform_msgs/lib/libarcos_lab_mobile_platform_msgs__rosidl_typesupport_fastrtps_cpp.so
-- Up-to-date: /home/memonsio/wsr2/install/arcos_lab_mobile_platform_msgs/include/arcos_lab_mobile_platform_msgs
-- Up-to-date: /home/memonsio/wsr2/install/arcos_lab_mobile_platform_msgs/include/arcos_lab_mobile_platform_msgs/srv
-- Up-to-date: /home/memonsio/wsr2/install/arcos_lab_mobile_platform_msgs/include/arcos_lab_mobile_platform_msgs/srv/detail
-- Up-to-date: /home/memonsio/wsr2/install/arcos_lab_mobile_platform_msgs/include/arcos_lab_mobile_platform_msgs/srv/detail/mob_enable__type_support.c
-- Up-to-date: /home/memonsio/wsr2/install/arcos_lab_mobile_platform_msgs/include/arcos_lab_mobile_platform_msgs/srv/detail/mob_enable__rosidl_typesupport_introspection_c.h
-- Up-to-date: /home/memonsio/wsr2/install/arcos_lab_mobile_platform_msgs/include/arcos_lab_mobile_platform_msgs/msg
-- Up-to-date: /home/memonsio/wsr2/install/arcos_lab_mobile_platform_msgs/include/arcos_lab_mobile_platform_msgs/msg/detail
-- Up-to-date: /home/memonsio/wsr2/install/arcos_lab_mobile_platform_msgs/include/arcos_lab_mobile_platform_msgs/msg/detail/mob_ext_torques__rosidl_typesupport_introspection_c.h
-- Up-to-date: /home/memonsio/wsr2/install/arcos_lab_mobile_platform_msgs/include/arcos_lab_mobile_platform_msgs/msg/detail/mob_status__type_support.c
-- Up-to-date: /home/memonsio/wsr2/install/arcos_lab_mobile_platform_msgs/include/arcos_lab_mobile_platform_msgs/msg/detail/mob_command__rosidl_typesupport_introspection_c.h
-- Up-to-date: /home/memonsio/wsr2/install/arcos_lab_mobile_platform_msgs/include/arcos_lab_mobile_platform_msgs/msg/detail/mob_ext_torques__type_support.c
-- Up-to-date: /home/memonsio/wsr2/install/arcos_lab_mobile_platform_msgs/include/arcos_lab_mobile_platform_msgs/msg/detail/mob_command__type_support.c
-- Up-to-date: /home/memonsio/wsr2/install/arcos_lab_mobile_platform_msgs/include/arcos_lab_mobile_platform_msgs/msg/detail/mob_status__rosidl_typesupport_introspection_c.h
-- Up-to-date: /home/memonsio/wsr2/install/arcos_lab_mobile_platform_msgs/include/arcos_lab_mobile_platform_msgs/msg/rosidl_typesupport_introspection_c__visibility_control.h
-- Up-to-date: /home/memonsio/wsr2/install/arcos_lab_mobile_platform_msgs/lib/libarcos_lab_mobile_platform_msgs__rosidl_typesupport_introspection_c.so
-- Up-to-date: /home/memonsio/wsr2/install/arcos_lab_mobile_platform_msgs/lib/libarcos_lab_mobile_platform_msgs__rosidl_typesupport_c.so
-- Up-to-date: /home/memonsio/wsr2/install/arcos_lab_mobile_platform_msgs/include/arcos_lab_mobile_platform_msgs
-- Up-to-date: /home/memonsio/wsr2/install/arcos_lab_mobile_platform_msgs/include/arcos_lab_mobile_platform_msgs/srv
-- Up-to-date: /home/memonsio/wsr2/install/arcos_lab_mobile_platform_msgs/include/arcos_lab_mobile_platform_msgs/srv/detail
-- Up-to-date: /home/memonsio/wsr2/install/arcos_lab_mobile_platform_msgs/include/arcos_lab_mobile_platform_msgs/srv/detail/mob_enable__struct.hpp
-- Up-to-date: /home/memonsio/wsr2/install/arcos_lab_mobile_platform_msgs/include/arcos_lab_mobile_platform_msgs/srv/detail/mob_enable__traits.hpp
-- Up-to-date: /home/memonsio/wsr2/install/arcos_lab_mobile_platform_msgs/include/arcos_lab_mobile_platform_msgs/srv/detail/mob_enable__builder.hpp
-- Up-to-date: /home/memonsio/wsr2/install/arcos_lab_mobile_platform_msgs/include/arcos_lab_mobile_platform_msgs/srv/mob_enable.hpp
-- Up-to-date: /home/memonsio/wsr2/install/arcos_lab_mobile_platform_msgs/include/arcos_lab_mobile_platform_msgs/msg
-- Up-to-date: /home/memonsio/wsr2/install/arcos_lab_mobile_platform_msgs/include/arcos_lab_mobile_platform_msgs/msg/mob_status.hpp
-- Up-to-date: /home/memonsio/wsr2/install/arcos_lab_mobile_platform_msgs/include/arcos_lab_mobile_platform_msgs/msg/detail
-- Up-to-date: /home/memonsio/wsr2/install/arcos_lab_mobile_platform_msgs/include/arcos_lab_mobile_platform_msgs/msg/detail/mob_status__builder.hpp
-- Up-to-date: /home/memonsio/wsr2/install/arcos_lab_mobile_platform_msgs/include/arcos_lab_mobile_platform_msgs/msg/detail/mob_ext_torques__struct.hpp
-- Up-to-date: /home/memonsio/wsr2/install/arcos_lab_mobile_platform_msgs/include/arcos_lab_mobile_platform_msgs/msg/detail/mob_ext_torques__builder.hpp
-- Up-to-date: /home/memonsio/wsr2/install/arcos_lab_mobile_platform_msgs/include/arcos_lab_mobile_platform_msgs/msg/detail/mob_command__struct.hpp
-- Up-to-date: /home/memonsio/wsr2/install/arcos_lab_mobile_platform_msgs/include/arcos_lab_mobile_platform_msgs/msg/detail/mob_status__traits.hpp
-- Up-to-date: /home/memonsio/wsr2/install/arcos_lab_mobile_platform_msgs/include/arcos_lab_mobile_platform_msgs/msg/detail/mob_command__traits.hpp
-- Up-to-date: /home/memonsio/wsr2/install/arcos_lab_mobile_platform_msgs/include/arcos_lab_mobile_platform_msgs/msg/detail/mob_status__struct.hpp
-- Up-to-date: /home/memonsio/wsr2/install/arcos_lab_mobile_platform_msgs/include/arcos_lab_mobile_platform_msgs/msg/detail/mob_command__builder.hpp
-- Up-to-date: /home/memonsio/wsr2/install/arcos_lab_mobile_platform_msgs/include/arcos_lab_mobile_platform_msgs/msg/detail/mob_ext_torques__traits.hpp
-- Up-to-date: /home/memonsio/wsr2/install/arcos_lab_mobile_platform_msgs/include/arcos_lab_mobile_platform_msgs/msg/mob_ext_torques.hpp
-- Up-to-date: /home/memonsio/wsr2/install/arcos_lab_mobile_platform_msgs/include/arcos_lab_mobile_platform_msgs/msg/mob_command.hpp
-- Up-to-date: /home/memonsio/wsr2/install/arcos_lab_mobile_platform_msgs/include/arcos_lab_mobile_platform_msgs
-- Up-to-date: /home/memonsio/wsr2/install/arcos_lab_mobile_platform_msgs/include/arcos_lab_mobile_platform_msgs/srv
-- Up-to-date: /home/memonsio/wsr2/install/arcos_lab_mobile_platform_msgs/include/arcos_lab_mobile_platform_msgs/srv/detail
-- Up-to-date: /home/memonsio/wsr2/install/arcos_lab_mobile_platform_msgs/include/arcos_lab_mobile_platform_msgs/srv/detail/mob_enable__type_support.cpp
-- Up-to-date: /home/memonsio/wsr2/install/arcos_lab_mobile_platform_msgs/include/arcos_lab_mobile_platform_msgs/srv/detail/mob_enable__rosidl_typesupport_introspection_cpp.hpp
-- Up-to-date: /home/memonsio/wsr2/install/arcos_lab_mobile_platform_msgs/include/arcos_lab_mobile_platform_msgs/msg
-- Up-to-date: /home/memonsio/wsr2/install/arcos_lab_mobile_platform_msgs/include/arcos_lab_mobile_platform_msgs/msg/detail
-- Up-to-date: /home/memonsio/wsr2/install/arcos_lab_mobile_platform_msgs/include/arcos_lab_mobile_platform_msgs/msg/detail/mob_ext_torques__rosidl_typesupport_introspection_cpp.hpp
-- Up-to-date: /home/memonsio/wsr2/install/arcos_lab_mobile_platform_msgs/include/arcos_lab_mobile_platform_msgs/msg/detail/mob_status__rosidl_typesupport_introspection_cpp.hpp
-- Up-to-date: /home/memonsio/wsr2/install/arcos_lab_mobile_platform_msgs/include/arcos_lab_mobile_platform_msgs/msg/detail/mob_command__rosidl_typesupport_introspection_cpp.hpp
-- Up-to-date: /home/memonsio/wsr2/install/arcos_lab_mobile_platform_msgs/include/arcos_lab_mobile_platform_msgs/msg/detail/mob_command__type_support.cpp
-- Up-to-date: /home/memonsio/wsr2/install/arcos_lab_mobile_platform_msgs/include/arcos_lab_mobile_platform_msgs/msg/detail/mob_ext_torques__type_support.cpp
-- Up-to-date: /home/memonsio/wsr2/install/arcos_lab_mobile_platform_msgs/include/arcos_lab_mobile_platform_msgs/msg/detail/mob_status__type_support.cpp
-- Up-to-date: /home/memonsio/wsr2/install/arcos_lab_mobile_platform_msgs/lib/libarcos_lab_mobile_platform_msgs__rosidl_typesupport_introspection_cpp.so
-- Up-to-date: /home/memonsio/wsr2/install/arcos_lab_mobile_platform_msgs/lib/libarcos_lab_mobile_platform_msgs__rosidl_typesupport_cpp.so
-- Up-to-date: /home/memonsio/wsr2/install/arcos_lab_mobile_platform_msgs/share/arcos_lab_mobile_platform_msgs/environment/pythonpath.sh
-- Up-to-date: /home/memonsio/wsr2/install/arcos_lab_mobile_platform_msgs/share/arcos_lab_mobile_platform_msgs/environment/pythonpath.dsv
-- Up-to-date: /home/memonsio/wsr2/install/arcos_lab_mobile_platform_msgs/lib/python3.8/site-packages/arcos_lab_mobile_platform_msgs/__init__.py
-- Up-to-date: /home/memonsio/wsr2/install/arcos_lab_mobile_platform_msgs/lib/python3.8/site-packages/arcos_lab_mobile_platform_msgs/msg
-- Up-to-date: /home/memonsio/wsr2/install/arcos_lab_mobile_platform_msgs/lib/python3.8/site-packages/arcos_lab_mobile_platform_msgs/msg/_mob_status_s.c
-- Up-to-date: /home/memonsio/wsr2/install/arcos_lab_mobile_platform_msgs/lib/python3.8/site-packages/arcos_lab_mobile_platform_msgs/msg/_mob_ext_torques.py
-- Up-to-date: /home/memonsio/wsr2/install/arcos_lab_mobile_platform_msgs/lib/python3.8/site-packages/arcos_lab_mobile_platform_msgs/msg/_mob_command.py
-- Up-to-date: /home/memonsio/wsr2/install/arcos_lab_mobile_platform_msgs/lib/python3.8/site-packages/arcos_lab_mobile_platform_msgs/msg/_mob_command_s.c
-- Up-to-date: /home/memonsio/wsr2/install/arcos_lab_mobile_platform_msgs/lib/python3.8/site-packages/arcos_lab_mobile_platform_msgs/msg/__init__.py
-- Up-to-date: /home/memonsio/wsr2/install/arcos_lab_mobile_platform_msgs/lib/python3.8/site-packages/arcos_lab_mobile_platform_msgs/msg/_mob_status.py
-- Up-to-date: /home/memonsio/wsr2/install/arcos_lab_mobile_platform_msgs/lib/python3.8/site-packages/arcos_lab_mobile_platform_msgs/msg/_mob_ext_torques_s.c
-- Up-to-date: /home/memonsio/wsr2/install/arcos_lab_mobile_platform_msgs/lib/python3.8/site-packages/arcos_lab_mobile_platform_msgs/srv
-- Up-to-date: /home/memonsio/wsr2/install/arcos_lab_mobile_platform_msgs/lib/python3.8/site-packages/arcos_lab_mobile_platform_msgs/srv/__init__.py
-- Up-to-date: /home/memonsio/wsr2/install/arcos_lab_mobile_platform_msgs/lib/python3.8/site-packages/arcos_lab_mobile_platform_msgs/srv/_mob_enable.py
-- Up-to-date: /home/memonsio/wsr2/install/arcos_lab_mobile_platform_msgs/lib/python3.8/site-packages/arcos_lab_mobile_platform_msgs/srv/_mob_enable_s.c
-- Up-to-date: /home/memonsio/wsr2/install/arcos_lab_mobile_platform_msgs/lib/python3.8/site-packages/arcos_lab_mobile_platform_msgs/arcos_lab_mobile_platform_msgs_s__rosidl_typesupport_fastrtps_c.cpython-38-x86_64-linux-gnu.so
-- Up-to-date: /home/memonsio/wsr2/install/arcos_lab_mobile_platform_msgs/lib/python3.8/site-packages/arcos_lab_mobile_platform_msgs/arcos_lab_mobile_platform_msgs_s__rosidl_typesupport_introspection_c.cpython-38-x86_64-linux-gnu.so
-- Up-to-date: /home/memonsio/wsr2/install/arcos_lab_mobile_platform_msgs/lib/python3.8/site-packages/arcos_lab_mobile_platform_msgs/arcos_lab_mobile_platform_msgs_s__rosidl_typesupport_c.cpython-38-x86_64-linux-gnu.so
-- Up-to-date: /home/memonsio/wsr2/install/arcos_lab_mobile_platform_msgs/lib/libarcos_lab_mobile_platform_msgs__python.so
-- Up-to-date: /home/memonsio/wsr2/install/arcos_lab_mobile_platform_msgs/share/arcos_lab_mobile_platform_msgs/msg/MobExtTorques.idl
-- Up-to-date: /home/memonsio/wsr2/install/arcos_lab_mobile_platform_msgs/share/arcos_lab_mobile_platform_msgs/msg/MobCommand.idl
-- Up-to-date: /home/memonsio/wsr2/install/arcos_lab_mobile_platform_msgs/share/arcos_lab_mobile_platform_msgs/msg/MobStatus.idl
-- Up-to-date: /home/memonsio/wsr2/install/arcos_lab_mobile_platform_msgs/share/arcos_lab_mobile_platform_msgs/srv/MobEnable.idl
-- Up-to-date: /home/memonsio/wsr2/install/arcos_lab_mobile_platform_msgs/share/arcos_lab_mobile_platform_msgs/msg/MobExtTorques.msg
-- Up-to-date: /home/memonsio/wsr2/install/arcos_lab_mobile_platform_msgs/share/arcos_lab_mobile_platform_msgs/msg/MobCommand.msg
-- Up-to-date: /home/memonsio/wsr2/install/arcos_lab_mobile_platform_msgs/share/arcos_lab_mobile_platform_msgs/msg/MobStatus.msg
-- Up-to-date: /home/memonsio/wsr2/install/arcos_lab_mobile_platform_msgs/share/arcos_lab_mobile_platform_msgs/srv/MobEnable.srv
-- Up-to-date: /home/memonsio/wsr2/install/arcos_lab_mobile_platform_msgs/share/arcos_lab_mobile_platform_msgs/srv/MobEnable_Request.msg
-- Up-to-date: /home/memonsio/wsr2/install/arcos_lab_mobile_platform_msgs/share/arcos_lab_mobile_platform_msgs/srv/MobEnable_Response.msg
-- Up-to-date: /home/memonsio/wsr2/install/arcos_lab_mobile_platform_msgs/share/ament_index/resource_index/package_run_dependencies/arcos_lab_mobile_platform_msgs
-- Up-to-date: /home/memonsio/wsr2/install/arcos_lab_mobile_platform_msgs/share/ament_index/resource_index/parent_prefix_path/arcos_lab_mobile_platform_msgs
-- Up-to-date: /home/memonsio/wsr2/install/arcos_lab_mobile_platform_msgs/share/arcos_lab_mobile_platform_msgs/environment/ament_prefix_path.sh
-- Up-to-date: /home/memonsio/wsr2/install/arcos_lab_mobile_platform_msgs/share/arcos_lab_mobile_platform_msgs/environment/ament_prefix_path.dsv
-- Up-to-date: /home/memonsio/wsr2/install/arcos_lab_mobile_platform_msgs/share/arcos_lab_mobile_platform_msgs/environment/path.sh
-- Up-to-date: /home/memonsio/wsr2/install/arcos_lab_mobile_platform_msgs/share/arcos_lab_mobile_platform_msgs/environment/path.dsv
-- Up-to-date: /home/memonsio/wsr2/install/arcos_lab_mobile_platform_msgs/share/arcos_lab_mobile_platform_msgs/local_setup.bash
-- Up-to-date: /home/memonsio/wsr2/install/arcos_lab_mobile_platform_msgs/share/arcos_lab_mobile_platform_msgs/local_setup.sh
-- Up-to-date: /home/memonsio/wsr2/install/arcos_lab_mobile_platform_msgs/share/arcos_lab_mobile_platform_msgs/local_setup.zsh
-- Up-to-date: /home/memonsio/wsr2/install/arcos_lab_mobile_platform_msgs/share/arcos_lab_mobile_platform_msgs/local_setup.dsv
-- Installing: /home/memonsio/wsr2/install/arcos_lab_mobile_platform_msgs/share/arcos_lab_mobile_platform_msgs/package.dsv
-- Up-to-date: /home/memonsio/wsr2/install/arcos_lab_mobile_platform_msgs/share/ament_index/resource_index/packages/arcos_lab_mobile_platform_msgs
-- Up-to-date: /home/memonsio/wsr2/install/arcos_lab_mobile_platform_msgs/share/arcos_lab_mobile_platform_msgs/cmake/arcos_lab_mobile_platform_msgs__rosidl_generator_cExport.cmake
-- Up-to-date: /home/memonsio/wsr2/install/arcos_lab_mobile_platform_msgs/share/arcos_lab_mobile_platform_msgs/cmake/arcos_lab_mobile_platform_msgs__rosidl_generator_cExport-noconfig.cmake
-- Up-to-date: /home/memonsio/wsr2/install/arcos_lab_mobile_platform_msgs/share/arcos_lab_mobile_platform_msgs/cmake/arcos_lab_mobile_platform_msgs__rosidl_typesupport_introspection_cExport.cmake
-- Up-to-date: /home/memonsio/wsr2/install/arcos_lab_mobile_platform_msgs/share/arcos_lab_mobile_platform_msgs/cmake/arcos_lab_mobile_platform_msgs__rosidl_typesupport_introspection_cExport-noconfig.cmake
-- Up-to-date: /home/memonsio/wsr2/install/arcos_lab_mobile_platform_msgs/share/arcos_lab_mobile_platform_msgs/cmake/arcos_lab_mobile_platform_msgs__rosidl_typesupport_cExport.cmake
-- Up-to-date: /home/memonsio/wsr2/install/arcos_lab_mobile_platform_msgs/share/arcos_lab_mobile_platform_msgs/cmake/arcos_lab_mobile_platform_msgs__rosidl_typesupport_cExport-noconfig.cmake
-- Up-to-date: /home/memonsio/wsr2/install/arcos_lab_mobile_platform_msgs/share/arcos_lab_mobile_platform_msgs/cmake/arcos_lab_mobile_platform_msgs__rosidl_generator_cppExport.cmake
-- Up-to-date: /home/memonsio/wsr2/install/arcos_lab_mobile_platform_msgs/share/arcos_lab_mobile_platform_msgs/cmake/arcos_lab_mobile_platform_msgs__rosidl_typesupport_introspection_cppExport.cmake
-- Up-to-date: /home/memonsio/wsr2/install/arcos_lab_mobile_platform_msgs/share/arcos_lab_mobile_platform_msgs/cmake/arcos_lab_mobile_platform_msgs__rosidl_typesupport_introspection_cppExport-noconfig.cmake
-- Up-to-date: /home/memonsio/wsr2/install/arcos_lab_mobile_platform_msgs/share/arcos_lab_mobile_platform_msgs/cmake/arcos_lab_mobile_platform_msgs__rosidl_typesupport_cppExport.cmake
-- Up-to-date: /home/memonsio/wsr2/install/arcos_lab_mobile_platform_msgs/share/arcos_lab_mobile_platform_msgs/cmake/arcos_lab_mobile_platform_msgs__rosidl_typesupport_cppExport-noconfig.cmake
-- Up-to-date: /home/memonsio/wsr2/install/arcos_lab_mobile_platform_msgs/share/arcos_lab_mobile_platform_msgs/cmake/rosidl_cmake-extras.cmake
-- Up-to-date: /home/memonsio/wsr2/install/arcos_lab_mobile_platform_msgs/share/arcos_lab_mobile_platform_msgs/cmake/ament_cmake_export_dependencies-extras.cmake
-- Up-to-date: /home/memonsio/wsr2/install/arcos_lab_mobile_platform_msgs/share/arcos_lab_mobile_platform_msgs/cmake/ament_cmake_export_libraries-extras.cmake
-- Up-to-date: /home/memonsio/wsr2/install/arcos_lab_mobile_platform_msgs/share/arcos_lab_mobile_platform_msgs/cmake/ament_cmake_export_targets-extras.cmake
-- Up-to-date: /home/memonsio/wsr2/install/arcos_lab_mobile_platform_msgs/share/arcos_lab_mobile_platform_msgs/cmake/ament_cmake_export_include_directories-extras.cmake
-- Up-to-date: /home/memonsio/wsr2/install/arcos_lab_mobile_platform_msgs/share/arcos_lab_mobile_platform_msgs/cmake/rosidl_cmake_export_typesupport_libraries-extras.cmake
-- Up-to-date: /home/memonsio/wsr2/install/arcos_lab_mobile_platform_msgs/share/arcos_lab_mobile_platform_msgs/cmake/rosidl_cmake_export_typesupport_targets-extras.cmake
-- Up-to-date: /home/memonsio/wsr2/install/arcos_lab_mobile_platform_msgs/share/arcos_lab_mobile_platform_msgs/cmake/arcos_lab_mobile_platform_msgsConfig.cmake
-- Up-to-date: /home/memonsio/wsr2/install/arcos_lab_mobile_platform_msgs/share/arcos_lab_mobile_platform_msgs/cmake/arcos_lab_mobile_platform_msgsConfig-version.cmake
-- Up-to-date: /home/memonsio/wsr2/install/arcos_lab_mobile_platform_msgs/share/arcos_lab_mobile_platform_msgs/package.xml
