[1.403s] Invoking command in '/home/memonsio/wsr2/build/fri_ros2': CMAKE_PREFIX_PATH=/opt/ros/foxy /usr/bin/cmake --build /home/memonsio/wsr2/build/fri_ros2 -- -j4 -l4
[1.663s] [100%] Built target fri_interface
[1.707s] Invoked command in '/home/memonsio/wsr2/build/fri_ros2' returned '0': CMAKE_PREFIX_PATH=/opt/ros/foxy /usr/bin/cmake --build /home/memonsio/wsr2/build/fri_ros2 -- -j4 -l4
[1.892s] Invoking command in '/home/memonsio/wsr2/build/fri_ros2': CMAKE_PREFIX_PATH=/opt/ros/foxy /usr/bin/cmake --install /home/memonsio/wsr2/build/fri_ros2
[1.935s] -- Install configuration: ""
[1.936s] -- Up-to-date: /home/memonsio/wsr2/install/fri_ros2/share/ament_index/resource_index/package_run_dependencies/fri_ros2
[1.937s] -- Up-to-date: /home/memonsio/wsr2/install/fri_ros2/share/ament_index/resource_index/parent_prefix_path/fri_ros2
[1.938s] -- Up-to-date: /home/memonsio/wsr2/install/fri_ros2/share/fri_ros2/environment/ament_prefix_path.sh
[1.938s] -- Up-to-date: /home/memonsio/wsr2/install/fri_ros2/share/fri_ros2/environment/ament_prefix_path.dsv
[1.939s] -- Up-to-date: /home/memonsio/wsr2/install/fri_ros2/share/fri_ros2/environment/path.sh
[1.939s] -- Up-to-date: /home/memonsio/wsr2/install/fri_ros2/share/fri_ros2/environment/path.dsv
[1.941s] -- Up-to-date: /home/memonsio/wsr2/install/fri_ros2/share/fri_ros2/local_setup.bash
[1.942s] -- Up-to-date: /home/memonsio/wsr2/install/fri_ros2/share/fri_ros2/local_setup.sh
[1.943s] -- Up-to-date: /home/memonsio/wsr2/install/fri_ros2/share/fri_ros2/local_setup.zsh
[1.944s] -- Up-to-date: /home/memonsio/wsr2/install/fri_ros2/share/fri_ros2/local_setup.dsv
[1.945s] -- Installing: /home/memonsio/wsr2/install/fri_ros2/share/fri_ros2/package.dsv
[1.950s] -- Up-to-date: /home/memonsio/wsr2/install/fri_ros2/share/ament_index/resource_index/packages/fri_ros2
[1.951s] -- Up-to-date: /home/memonsio/wsr2/install/fri_ros2/share/fri_ros2/cmake/fri_ros2Config.cmake
[1.952s] -- Up-to-date: /home/memonsio/wsr2/install/fri_ros2/share/fri_ros2/cmake/fri_ros2Config-version.cmake
[1.953s] -- Up-to-date: /home/memonsio/wsr2/install/fri_ros2/share/fri_ros2/package.xml
[1.954s] -- Up-to-date: /home/memonsio/wsr2/install/fri_ros2/lib/fri_ros2/fri_interface
[1.968s] Invoked command in '/home/memonsio/wsr2/build/fri_ros2' returned '0': CMAKE_PREFIX_PATH=/opt/ros/foxy /usr/bin/cmake --install /home/memonsio/wsr2/build/fri_ros2
