-- Found ament_cmake: 0.9.9 (/opt/ros/foxy/share/ament_cmake/cmake)
-- Using PYTHON_EXECUTABLE: /usr/bin/python3
-- Configuring incomplete, errors occurred!
See also "/home/memonsio/wsr2/build/tutorial_interfaces/CMakeFiles/CMakeOutput.log".
