[100%] Built target fri_interface
-- Install configuration: ""
-- Up-to-date: /home/memonsio/wsr2/install/fri_ros2/share/ament_index/resource_index/package_run_dependencies/fri_ros2
-- Up-to-date: /home/memonsio/wsr2/install/fri_ros2/share/ament_index/resource_index/parent_prefix_path/fri_ros2
-- Up-to-date: /home/memonsio/wsr2/install/fri_ros2/share/fri_ros2/environment/ament_prefix_path.sh
-- Up-to-date: /home/memonsio/wsr2/install/fri_ros2/share/fri_ros2/environment/ament_prefix_path.dsv
-- Up-to-date: /home/memonsio/wsr2/install/fri_ros2/share/fri_ros2/environment/path.sh
-- Up-to-date: /home/memonsio/wsr2/install/fri_ros2/share/fri_ros2/environment/path.dsv
-- Up-to-date: /home/memonsio/wsr2/install/fri_ros2/share/fri_ros2/local_setup.bash
-- Up-to-date: /home/memonsio/wsr2/install/fri_ros2/share/fri_ros2/local_setup.sh
-- Up-to-date: /home/memonsio/wsr2/install/fri_ros2/share/fri_ros2/local_setup.zsh
-- Up-to-date: /home/memonsio/wsr2/install/fri_ros2/share/fri_ros2/local_setup.dsv
-- Installing: /home/memonsio/wsr2/install/fri_ros2/share/fri_ros2/package.dsv
-- Up-to-date: /home/memonsio/wsr2/install/fri_ros2/share/ament_index/resource_index/packages/fri_ros2
-- Up-to-date: /home/memonsio/wsr2/install/fri_ros2/share/fri_ros2/cmake/fri_ros2Config.cmake
-- Up-to-date: /home/memonsio/wsr2/install/fri_ros2/share/fri_ros2/cmake/fri_ros2Config-version.cmake
-- Up-to-date: /home/memonsio/wsr2/install/fri_ros2/share/fri_ros2/package.xml
-- Up-to-date: /home/memonsio/wsr2/install/fri_ros2/lib/fri_ros2/fri_interface
