[0.642s] Invoking command in '/home/memonsio/wsr2/src/arcos-lab-mobile-platform/arcos_lab_mobile_platform_sim': PYTHONPATH=/home/memonsio/wsr2/install/arcos_lab_mobile_platform_sim/lib/python3.8/site-packages:${PYTHONPATH} /usr/bin/python3 setup.py egg_info --egg-base ../../../build/arcos_lab_mobile_platform_sim build --build-base /home/memonsio/wsr2/build/arcos_lab_mobile_platform_sim/build install --prefix /home/memonsio/wsr2/install/arcos_lab_mobile_platform_sim --record /home/memonsio/wsr2/build/arcos_lab_mobile_platform_sim/install.log --single-version-externally-managed
[1.129s] running egg_info
[1.130s] writing ../../../build/arcos_lab_mobile_platform_sim/arcos_lab_mobile_platform_sim.egg-info/PKG-INFO
[1.130s] writing dependency_links to ../../../build/arcos_lab_mobile_platform_sim/arcos_lab_mobile_platform_sim.egg-info/dependency_links.txt
[1.131s] writing entry points to ../../../build/arcos_lab_mobile_platform_sim/arcos_lab_mobile_platform_sim.egg-info/entry_points.txt
[1.131s] writing requirements to ../../../build/arcos_lab_mobile_platform_sim/arcos_lab_mobile_platform_sim.egg-info/requires.txt
[1.131s] writing top-level names to ../../../build/arcos_lab_mobile_platform_sim/arcos_lab_mobile_platform_sim.egg-info/top_level.txt
[1.189s] reading manifest file '../../../build/arcos_lab_mobile_platform_sim/arcos_lab_mobile_platform_sim.egg-info/SOURCES.txt'
[1.190s] writing manifest file '../../../build/arcos_lab_mobile_platform_sim/arcos_lab_mobile_platform_sim.egg-info/SOURCES.txt'
[1.191s] running build
[1.192s] running build_py
[1.193s] running install
[1.193s] running install_lib
[1.194s] running install_data
[1.197s] running install_egg_info
[1.199s] removing '/home/memonsio/wsr2/install/arcos_lab_mobile_platform_sim/lib/python3.8/site-packages/arcos_lab_mobile_platform_sim-0.1.0-py3.8.egg-info' (and everything under it)
[1.200s] Copying ../../../build/arcos_lab_mobile_platform_sim/arcos_lab_mobile_platform_sim.egg-info to /home/memonsio/wsr2/install/arcos_lab_mobile_platform_sim/lib/python3.8/site-packages/arcos_lab_mobile_platform_sim-0.1.0-py3.8.egg-info
[1.203s] running install_scripts
[1.242s] Installing arcos_lab_mobile_platform_sim script to /home/memonsio/wsr2/install/arcos_lab_mobile_platform_sim/lib/arcos_lab_mobile_platform_sim
[1.242s] Installing inclination_sim script to /home/memonsio/wsr2/install/arcos_lab_mobile_platform_sim/lib/arcos_lab_mobile_platform_sim
[1.242s] Installing send_ext_torques script to /home/memonsio/wsr2/install/arcos_lab_mobile_platform_sim/lib/arcos_lab_mobile_platform_sim
[1.243s] writing list of installed files to '/home/memonsio/wsr2/build/arcos_lab_mobile_platform_sim/install.log'
[1.296s] Invoked command in '/home/memonsio/wsr2/src/arcos-lab-mobile-platform/arcos_lab_mobile_platform_sim' returned '0': PYTHONPATH=/home/memonsio/wsr2/install/arcos_lab_mobile_platform_sim/lib/python3.8/site-packages:${PYTHONPATH} /usr/bin/python3 setup.py egg_info --egg-base ../../../build/arcos_lab_mobile_platform_sim build --build-base /home/memonsio/wsr2/build/arcos_lab_mobile_platform_sim/build install --prefix /home/memonsio/wsr2/install/arcos_lab_mobile_platform_sim --record /home/memonsio/wsr2/build/arcos_lab_mobile_platform_sim/install.log --single-version-externally-managed
