[0.751s] Invoking command in '/home/memonsio/wsr2/src/kuka-lwr4plus/kuka_lwr4plus_sim': PYTHONPATH=/home/memonsio/wsr2/install/kuka_lwr4plus_sim/lib/python3.8/site-packages:${PYTHONPATH} /usr/bin/python3 setup.py egg_info --egg-base ../../../build/kuka_lwr4plus_sim build --build-base /home/memonsio/wsr2/build/kuka_lwr4plus_sim/build install --prefix /home/memonsio/wsr2/install/kuka_lwr4plus_sim --record /home/memonsio/wsr2/build/kuka_lwr4plus_sim/install.log --single-version-externally-managed
[1.247s] running egg_info
[1.248s] writing ../../../build/kuka_lwr4plus_sim/kuka_lwr4plus_sim.egg-info/PKG-INFO
[1.249s] writing dependency_links to ../../../build/kuka_lwr4plus_sim/kuka_lwr4plus_sim.egg-info/dependency_links.txt
[1.249s] writing entry points to ../../../build/kuka_lwr4plus_sim/kuka_lwr4plus_sim.egg-info/entry_points.txt
[1.249s] writing requirements to ../../../build/kuka_lwr4plus_sim/kuka_lwr4plus_sim.egg-info/requires.txt
[1.250s] writing top-level names to ../../../build/kuka_lwr4plus_sim/kuka_lwr4plus_sim.egg-info/top_level.txt
[1.307s] reading manifest file '../../../build/kuka_lwr4plus_sim/kuka_lwr4plus_sim.egg-info/SOURCES.txt'
[1.308s] writing manifest file '../../../build/kuka_lwr4plus_sim/kuka_lwr4plus_sim.egg-info/SOURCES.txt'
[1.308s] running build
[1.308s] running build_py
[1.308s] running install
[1.308s] running install_lib
[1.309s] running install_data
[1.309s] running install_egg_info
[1.314s] removing '/home/memonsio/wsr2/install/kuka_lwr4plus_sim/lib/python3.8/site-packages/kuka_lwr4plus_sim-0.1.0-py3.8.egg-info' (and everything under it)
[1.314s] Copying ../../../build/kuka_lwr4plus_sim/kuka_lwr4plus_sim.egg-info to /home/memonsio/wsr2/install/kuka_lwr4plus_sim/lib/python3.8/site-packages/kuka_lwr4plus_sim-0.1.0-py3.8.egg-info
[1.314s] running install_scripts
[1.346s] Installing kuka_lwr4plus_sim script to /home/memonsio/wsr2/install/kuka_lwr4plus_sim/lib/kuka_lwr4plus_sim
[1.346s] Installing send_ext_torques script to /home/memonsio/wsr2/install/kuka_lwr4plus_sim/lib/kuka_lwr4plus_sim
[1.346s] writing list of installed files to '/home/memonsio/wsr2/build/kuka_lwr4plus_sim/install.log'
[1.406s] Invoked command in '/home/memonsio/wsr2/src/kuka-lwr4plus/kuka_lwr4plus_sim' returned '0': PYTHONPATH=/home/memonsio/wsr2/install/kuka_lwr4plus_sim/lib/python3.8/site-packages:${PYTHONPATH} /usr/bin/python3 setup.py egg_info --egg-base ../../../build/kuka_lwr4plus_sim build --build-base /home/memonsio/wsr2/build/kuka_lwr4plus_sim/build install --prefix /home/memonsio/wsr2/install/kuka_lwr4plus_sim --record /home/memonsio/wsr2/build/kuka_lwr4plus_sim/install.log --single-version-externally-managed
