[0.582s] Invoking command in '/home/memonsio/wsr2/src/kuka-lwr4plus/kuka_lwr4plus_urdf': PYTHONPATH=/home/memonsio/wsr2/install/kuka_lwr4plus_urdf/lib/python3.8/site-packages:${PYTHONPATH} /usr/bin/python3 setup.py egg_info --egg-base ../../../build/kuka_lwr4plus_urdf build --build-base /home/memonsio/wsr2/build/kuka_lwr4plus_urdf/build install --prefix /home/memonsio/wsr2/install/kuka_lwr4plus_urdf --record /home/memonsio/wsr2/build/kuka_lwr4plus_urdf/install.log --single-version-externally-managed
[1.292s] running egg_info
[1.293s] writing ../../../build/kuka_lwr4plus_urdf/kuka_lwr4plus_urdf.egg-info/PKG-INFO
[1.293s] writing dependency_links to ../../../build/kuka_lwr4plus_urdf/kuka_lwr4plus_urdf.egg-info/dependency_links.txt
[1.294s] writing entry points to ../../../build/kuka_lwr4plus_urdf/kuka_lwr4plus_urdf.egg-info/entry_points.txt
[1.294s] writing requirements to ../../../build/kuka_lwr4plus_urdf/kuka_lwr4plus_urdf.egg-info/requires.txt
[1.294s] writing top-level names to ../../../build/kuka_lwr4plus_urdf/kuka_lwr4plus_urdf.egg-info/top_level.txt
[1.346s] reading manifest file '../../../build/kuka_lwr4plus_urdf/kuka_lwr4plus_urdf.egg-info/SOURCES.txt'
[1.349s] writing manifest file '../../../build/kuka_lwr4plus_urdf/kuka_lwr4plus_urdf.egg-info/SOURCES.txt'
[1.349s] running build
[1.349s] running build_py
[1.349s] running install
[1.351s] running install_lib
[1.353s] running install_data
[1.355s] running install_egg_info
[1.357s] removing '/home/memonsio/wsr2/install/kuka_lwr4plus_urdf/lib/python3.8/site-packages/kuka_lwr4plus_urdf-0.1.0-py3.8.egg-info' (and everything under it)
[1.358s] Copying ../../../build/kuka_lwr4plus_urdf/kuka_lwr4plus_urdf.egg-info to /home/memonsio/wsr2/install/kuka_lwr4plus_urdf/lib/python3.8/site-packages/kuka_lwr4plus_urdf-0.1.0-py3.8.egg-info
[1.359s] running install_scripts
[1.384s] writing list of installed files to '/home/memonsio/wsr2/build/kuka_lwr4plus_urdf/install.log'
[1.490s] Invoked command in '/home/memonsio/wsr2/src/kuka-lwr4plus/kuka_lwr4plus_urdf' returned '0': PYTHONPATH=/home/memonsio/wsr2/install/kuka_lwr4plus_urdf/lib/python3.8/site-packages:${PYTHONPATH} /usr/bin/python3 setup.py egg_info --egg-base ../../../build/kuka_lwr4plus_urdf build --build-base /home/memonsio/wsr2/build/kuka_lwr4plus_urdf/build install --prefix /home/memonsio/wsr2/install/kuka_lwr4plus_urdf --record /home/memonsio/wsr2/build/kuka_lwr4plus_urdf/install.log --single-version-externally-managed
