running egg_info
writing ../../../build/robot_example_sim/robot_example_sim.egg-info/PKG-INFO
writing dependency_links to ../../../build/robot_example_sim/robot_example_sim.egg-info/dependency_links.txt
writing entry points to ../../../build/robot_example_sim/robot_example_sim.egg-info/entry_points.txt
writing requirements to ../../../build/robot_example_sim/robot_example_sim.egg-info/requires.txt
writing top-level names to ../../../build/robot_example_sim/robot_example_sim.egg-info/top_level.txt
reading manifest file '../../../build/robot_example_sim/robot_example_sim.egg-info/SOURCES.txt'
writing manifest file '../../../build/robot_example_sim/robot_example_sim.egg-info/SOURCES.txt'
running build
running build_py
copying robot_example_sim/robot_example_sim.py -> /home/memonsio/wsr2/build/robot_example_sim/build/lib/robot_example_sim
running install
running install_lib
copying /home/memonsio/wsr2/build/robot_example_sim/build/lib/robot_example_sim/robot_example_sim.py -> /home/memonsio/wsr2/install/robot_example_sim/lib/python3.8/site-packages/robot_example_sim
byte-compiling /home/memonsio/wsr2/install/robot_example_sim/lib/python3.8/site-packages/robot_example_sim/robot_example_sim.py to robot_example_sim.cpython-38.pyc
running install_data
running install_egg_info
removing '/home/memonsio/wsr2/install/robot_example_sim/lib/python3.8/site-packages/robot_example_sim-0.1.0-py3.8.egg-info' (and everything under it)
Copying ../../../build/robot_example_sim/robot_example_sim.egg-info to /home/memonsio/wsr2/install/robot_example_sim/lib/python3.8/site-packages/robot_example_sim-0.1.0-py3.8.egg-info
running install_scripts
Installing robot_example_sim script to /home/memonsio/wsr2/install/robot_example_sim/lib/robot_example_sim
Installing send_ext_torques script to /home/memonsio/wsr2/install/robot_example_sim/lib/robot_example_sim
writing list of installed files to '/home/memonsio/wsr2/build/robot_example_sim/install.log'
