[0.000000] (-) TimerEvent: {}
[0.000245] (-) JobUnselected: {'identifier': 'arcos-lab-humanoid-robot-descriptions'}
[0.000321] (-) JobUnselected: {'identifier': 'arcos-lab-humanoid-startup-sim'}
[0.000407] (-) JobUnselected: {'identifier': 'arcos_lab_mobile_platform_msgs'}
[0.001391] (-) JobUnselected: {'identifier': 'arcos_lab_mobile_platform_sim'}
[0.001477] (-) JobUnselected: {'identifier': 'arcos_lab_mobile_platform_urdf'}
[0.001531] (-) JobUnselected: {'identifier': 'fri_ros2'}
[0.001581] (-) JobUnselected: {'identifier': 'kuka_lwr4plus_msgs'}
[0.001629] (-) JobUnselected: {'identifier': 'kuka_lwr4plus_sim'}
[0.001676] (-) JobUnselected: {'identifier': 'kuka_lwr4plus_urdf'}
[0.001722] (-) JobUnselected: {'identifier': 'tutorial_interfaces'}
[0.001769] (-) JobUnselected: {'identifier': 'wessling_hand_msgs'}
[0.001814] (-) JobUnselected: {'identifier': 'wessling_hand_sim'}
[0.001860] (-) JobUnselected: {'identifier': 'wessling_hand_urdf'}
[0.001911] (py_srvcli) JobQueued: {'identifier': 'py_srvcli', 'dependencies': OrderedDict([('tutorial_interfaces', '/home/memonsio/wsr2/install/tutorial_interfaces')])}
[0.001970] (py_srvcli) JobStarted: {'identifier': 'py_srvcli'}
[0.098322] (-) TimerEvent: {}
[0.198840] (-) TimerEvent: {}
[0.299450] (-) TimerEvent: {}
[0.399750] (-) TimerEvent: {}
[0.441979] (py_srvcli) Command: {'cmd': ['/usr/bin/python3', 'setup.py', 'egg_info', '--egg-base', '../../build/py_srvcli', 'build', '--build-base', '/home/memonsio/wsr2/build/py_srvcli/build', 'install', '--prefix', '/home/memonsio/wsr2/install/py_srvcli', '--record', '/home/memonsio/wsr2/build/py_srvcli/install.log', '--single-version-externally-managed'], 'cwd': '/home/memonsio/wsr2/src/py_srvcli', 'env': {'GJS_DEBUG_TOPICS': 'JS ERROR;JS LOG', 'LESSOPEN': '| /usr/bin/lesspipe %s', 'LANGUAGE': 'en', 'USER': 'memonsio', 'LC_TIME': 'es_CR.UTF-8', 'SSH_AGENT_PID': '2678', 'XDG_SESSION_TYPE': 'x11', 'SHLVL': '1', 'LD_LIBRARY_PATH': '/home/memonsio/wsr2/install/tutorial_interfaces/lib:/home/memonsio/wsr2/install/wessling_hand_msgs/lib:/home/memonsio/wsr2/install/kuka_lwr4plus_msgs/lib:/home/memonsio/wsr2/install/arcos_lab_mobile_platform_msgs/lib:/opt/ros/foxy/opt/yaml_cpp_vendor/lib:/opt/ros/foxy/opt/rviz_ogre_vendor/lib:/opt/ros/foxy/lib/x86_64-linux-gnu:/opt/ros/foxy/lib', 'HOME': '/home/memonsio', 'OLDPWD': '/home/memonsio', 'DESKTOP_SESSION': 'ubuntu', 'ROS_PYTHON_VERSION': '3', 'GNOME_SHELL_SESSION_MODE': 'ubuntu', 'GTK_MODULES': 'gail:atk-bridge', 'LC_MONETARY': 'es_CR.UTF-8', 'MANAGERPID': '2526', 'DBUS_SESSION_BUS_ADDRESS': 'unix:path=/run/user/1001/bus', 'COLORTERM': 'truecolor', 'IM_CONFIG_PHASE': '1', 'COLCON_PREFIX_PATH': '/home/memonsio/wsr2/install', 'ROS_DISTRO': 'foxy', 'LOGNAME': 'memonsio', 'JOURNAL_STREAM': '8:57780', '_': '/usr/bin/colcon', 'ROS_VERSION': '2', 'XDG_SESSION_CLASS': 'user', 'USERNAME': 'memonsio', 'TERM': 'xterm-256color', 'GNOME_DESKTOP_SESSION_ID': 'this-is-deprecated', 'ROS_LOCALHOST_ONLY': '0', 'WINDOWPATH': '3', 'PATH': '/opt/ros/foxy/bin:/home/memonsio/.local/bin:/usr/local/sbin:/usr/local/bin:/usr/sbin:/usr/bin:/sbin:/bin:/usr/games:/usr/local/games:/snap/bin', 'SESSION_MANAGER': 'local/luisonsio:@/tmp/.ICE-unix/2722,unix/luisonsio:/tmp/.ICE-unix/2722', 'INVOCATION_ID': '7e519ce8164e41fc8611e45567102a05', 'PAPERSIZE': 'letter', 'XDG_MENU_PREFIX': 'gnome-', 'LC_ADDRESS': 'es_CR.UTF-8', 'GNOME_TERMINAL_SCREEN': '/org/gnome/Terminal/screen/836c667e_04a4_4098_9f0e_5286c85dfa1b', 'XDG_RUNTIME_DIR': '/run/user/1001', 'DISPLAY': ':2', 'LANG': 'en_US.UTF-8', 'XDG_CURRENT_DESKTOP': 'ubuntu:GNOME', 'LC_TELEPHONE': 'es_CR.UTF-8', 'XMODIFIERS': '@im=ibus', 'XDG_SESSION_DESKTOP': 'ubuntu', 'XAUTHORITY': '/run/user/1001/gdm/Xauthority', 'LS_COLORS': 'rs=0:di=01;34:ln=01;36:mh=00:pi=40;33:so=01;35:do=01;35:bd=40;33;01:cd=40;33;01:or=40;31;01:mi=00:su=37;41:sg=30;43:ca=30;41:tw=30;42:ow=34;42:st=37;44:ex=01;32:*.tar=01;31:*.tgz=01;31:*.arc=01;31:*.arj=01;31:*.taz=01;31:*.lha=01;31:*.lz4=01;31:*.lzh=01;31:*.lzma=01;31:*.tlz=01;31:*.txz=01;31:*.tzo=01;31:*.t7z=01;31:*.zip=01;31:*.z=01;31:*.dz=01;31:*.gz=01;31:*.lrz=01;31:*.lz=01;31:*.lzo=01;31:*.xz=01;31:*.zst=01;31:*.tzst=01;31:*.bz2=01;31:*.bz=01;31:*.tbz=01;31:*.tbz2=01;31:*.tz=01;31:*.deb=01;31:*.rpm=01;31:*.jar=01;31:*.war=01;31:*.ear=01;31:*.sar=01;31:*.rar=01;31:*.alz=01;31:*.ace=01;31:*.zoo=01;31:*.cpio=01;31:*.7z=01;31:*.rz=01;31:*.cab=01;31:*.wim=01;31:*.swm=01;31:*.dwm=01;31:*.esd=01;31:*.jpg=01;35:*.jpeg=01;35:*.mjpg=01;35:*.mjpeg=01;35:*.gif=01;35:*.bmp=01;35:*.pbm=01;35:*.pgm=01;35:*.ppm=01;35:*.tga=01;35:*.xbm=01;35:*.xpm=01;35:*.tif=01;35:*.tiff=01;35:*.png=01;35:*.svg=01;35:*.svgz=01;35:*.mng=01;35:*.pcx=01;35:*.mov=01;35:*.mpg=01;35:*.mpeg=01;35:*.m2v=01;35:*.mkv=01;35:*.webm=01;35:*.ogm=01;35:*.mp4=01;35:*.m4v=01;35:*.mp4v=01;35:*.vob=01;35:*.qt=01;35:*.nuv=01;35:*.wmv=01;35:*.asf=01;35:*.rm=01;35:*.rmvb=01;35:*.flc=01;35:*.avi=01;35:*.fli=01;35:*.flv=01;35:*.gl=01;35:*.dl=01;35:*.xcf=01;35:*.xwd=01;35:*.yuv=01;35:*.cgm=01;35:*.emf=01;35:*.ogv=01;35:*.ogx=01;35:*.aac=00;36:*.au=00;36:*.flac=00;36:*.m4a=00;36:*.mid=00;36:*.midi=00;36:*.mka=00;36:*.mp3=00;36:*.mpc=00;36:*.ogg=00;36:*.ra=00;36:*.wav=00;36:*.oga=00;36:*.opus=00;36:*.spx=00;36:*.xspf=00;36:', 'GNOME_TERMINAL_SERVICE': ':1.207', 'SSH_AUTH_SOCK': '/run/user/1001/keyring/ssh', 'AMENT_PREFIX_PATH': '/home/memonsio/wsr2/install/wessling_hand_urdf:/home/memonsio/wsr2/install/wessling_hand_sim:/home/memonsio/wsr2/install/wessling_hand_msgs:/home/memonsio/wsr2/install/py_srvcli:/home/memonsio/wsr2/install/tutorial_interfaces:/home/memonsio/wsr2/install/kuka_lwr4plus_urdf:/home/memonsio/wsr2/install/kuka_lwr4plus_sim:/home/memonsio/wsr2/install/kuka_lwr4plus_msgs:/home/memonsio/wsr2/install/fri_ros2:/home/memonsio/wsr2/install/arcos_lab_mobile_platform_urdf:/home/memonsio/wsr2/install/arcos_lab_mobile_platform_sim:/home/memonsio/wsr2/install/arcos_lab_mobile_platform_msgs:/home/memonsio/wsr2/install/arcos-lab-humanoid-startup-sim:/home/memonsio/wsr2/install/arcos-lab-humanoid-robot-descriptions:/opt/ros/foxy', 'SHELL': '/bin/bash', 'LC_NAME': 'es_CR.UTF-8', 'QT_ACCESSIBILITY': '1', 'GDMSESSION': 'ubuntu', 'LESSCLOSE': '/usr/bin/lesspipe %s %s', 'LC_MEASUREMENT': 'es_CR.UTF-8', 'GPG_AGENT_INFO': '/run/user/1001/gnupg/S.gpg-agent:0:1', 'GJS_DEBUG_OUTPUT': 'stderr', 'LC_IDENTIFICATION': 'es_CR.UTF-8', 'QT_IM_MODULE': 'ibus', 'PWD': '/home/memonsio/wsr2/build/py_srvcli', 'LC_ALL': 'en_US.UTF-8', 'XDG_CONFIG_DIRS': '/etc/xdg/xdg-ubuntu:/etc/xdg', 'XDG_DATA_DIRS': '/usr/share/ubuntu:/usr/local/share/:/usr/share/:/var/lib/snapd/desktop', 'PYTHONPATH': '/home/memonsio/wsr2/install/py_srvcli/lib/python3.8/site-packages:/home/memonsio/wsr2/install/tutorial_interfaces/lib/python3.8/site-packages:/home/memonsio/wsr2/install/wessling_hand_urdf/lib/python3.8/site-packages:/home/memonsio/wsr2/install/wessling_hand_sim/lib/python3.8/site-packages:/home/memonsio/wsr2/install/wessling_hand_msgs/lib/python3.8/site-packages:/home/memonsio/wsr2/install/py_srvcli/lib/python3.8/site-packages:/home/memonsio/wsr2/install/kuka_lwr4plus_urdf/lib/python3.8/site-packages:/home/memonsio/wsr2/install/kuka_lwr4plus_sim/lib/python3.8/site-packages:/home/memonsio/wsr2/install/kuka_lwr4plus_msgs/lib/python3.8/site-packages:/home/memonsio/wsr2/install/arcos_lab_mobile_platform_urdf/lib/python3.8/site-packages:/home/memonsio/wsr2/install/arcos_lab_mobile_platform_sim/lib/python3.8/site-packages:/home/memonsio/wsr2/install/arcos_lab_mobile_platform_msgs/lib/python3.8/site-packages:/home/memonsio/wsr2/install/arcos-lab-humanoid-startup-sim/lib/python3.8/site-packages:/home/memonsio/wsr2/install/arcos-lab-humanoid-robot-descriptions/lib/python3.8/site-packages:/opt/ros/foxy/lib/python3.8/site-packages', 'LC_NUMERIC': 'es_CR.UTF-8', 'LC_PAPER': 'es_CR.UTF-8', 'COLCON': '1', 'VTE_VERSION': '6003', 'CMAKE_PREFIX_PATH': '/home/memonsio/wsr2/install/tutorial_interfaces:/home/memonsio/wsr2/install/wessling_hand_msgs:/home/memonsio/wsr2/install/kuka_lwr4plus_msgs:/home/memonsio/wsr2/install/fri_ros2:/home/memonsio/wsr2/install/arcos_lab_mobile_platform_msgs'}, 'shell': False}
[0.499926] (-) TimerEvent: {}
[0.600405] (-) TimerEvent: {}
[0.700825] (-) TimerEvent: {}
[0.801178] (-) TimerEvent: {}
[0.840807] (py_srvcli) StdoutLine: {'line': b'running egg_info\n'}
[0.841720] (py_srvcli) StdoutLine: {'line': b'writing ../../build/py_srvcli/py_srvcli.egg-info/PKG-INFO\n'}
[0.842093] (py_srvcli) StdoutLine: {'line': b'writing dependency_links to ../../build/py_srvcli/py_srvcli.egg-info/dependency_links.txt\n'}
[0.842443] (py_srvcli) StdoutLine: {'line': b'writing entry points to ../../build/py_srvcli/py_srvcli.egg-info/entry_points.txt\n'}
[0.842649] (py_srvcli) StdoutLine: {'line': b'writing requirements to ../../build/py_srvcli/py_srvcli.egg-info/requires.txt\n'}
[0.842868] (py_srvcli) StdoutLine: {'line': b'writing top-level names to ../../build/py_srvcli/py_srvcli.egg-info/top_level.txt\n'}
[0.889391] (py_srvcli) StdoutLine: {'line': b"reading manifest file '../../build/py_srvcli/py_srvcli.egg-info/SOURCES.txt'\n"}
[0.890454] (py_srvcli) StdoutLine: {'line': b"writing manifest file '../../build/py_srvcli/py_srvcli.egg-info/SOURCES.txt'\n"}
[0.890767] (py_srvcli) StdoutLine: {'line': b'running build\n'}
[0.890946] (py_srvcli) StdoutLine: {'line': b'running build_py\n'}
[0.891072] (py_srvcli) StdoutLine: {'line': b'copying py_srvcli/service_member_function.py -> /home/memonsio/wsr2/build/py_srvcli/build/lib/py_srvcli\n'}
[0.891238] (py_srvcli) StdoutLine: {'line': b'running install\n'}
[0.892397] (py_srvcli) StdoutLine: {'line': b'running install_lib\n'}
[0.893844] (py_srvcli) StdoutLine: {'line': b'copying /home/memonsio/wsr2/build/py_srvcli/build/lib/py_srvcli/service_member_function.py -> /home/memonsio/wsr2/install/py_srvcli/lib/python3.8/site-packages/py_srvcli\n'}
[0.894725] (py_srvcli) StdoutLine: {'line': b'byte-compiling /home/memonsio/wsr2/install/py_srvcli/lib/python3.8/site-packages/py_srvcli/service_member_function.py to service_member_function.cpython-38.pyc\n'}
[0.896596] (py_srvcli) StdoutLine: {'line': b'running install_data\n'}
[0.897373] (py_srvcli) StdoutLine: {'line': b'running install_egg_info\n'}
[0.899522] (py_srvcli) StdoutLine: {'line': b"removing '/home/memonsio/wsr2/install/py_srvcli/lib/python3.8/site-packages/py_srvcli-0.0.0-py3.8.egg-info' (and everything under it)\n"}
[0.899862] (py_srvcli) StdoutLine: {'line': b'Copying ../../build/py_srvcli/py_srvcli.egg-info to /home/memonsio/wsr2/install/py_srvcli/lib/python3.8/site-packages/py_srvcli-0.0.0-py3.8.egg-info\n'}
[0.900894] (py_srvcli) StdoutLine: {'line': b'running install_scripts\n'}
[0.901241] (-) TimerEvent: {}
[0.922588] (py_srvcli) StdoutLine: {'line': b'Installing client script to /home/memonsio/wsr2/install/py_srvcli/lib/py_srvcli\n'}
[0.923144] (py_srvcli) StdoutLine: {'line': b'Installing service script to /home/memonsio/wsr2/install/py_srvcli/lib/py_srvcli\n'}
[0.923531] (py_srvcli) StdoutLine: {'line': b"writing list of installed files to '/home/memonsio/wsr2/build/py_srvcli/install.log'\n"}
[0.956304] (py_srvcli) CommandEnded: {'returncode': 0}
[0.977142] (py_srvcli) JobEnded: {'identifier': 'py_srvcli', 'rc': 0}
[0.978164] (-) EventReactorShutdown: {}
