[1.067s] Invoking command in '/home/memonsio/wsr2/src/kuka-lwr4plus/kuka_lwr4plus_urdf': PYTHONPATH=/home/memonsio/wsr2/install/kuka_lwr4plus_urdf/lib/python3.8/site-packages:${PYTHONPATH} /usr/bin/python3 setup.py egg_info --egg-base ../../../build/kuka_lwr4plus_urdf build --build-base /home/memonsio/wsr2/build/kuka_lwr4plus_urdf/build install --prefix /home/memonsio/wsr2/install/kuka_lwr4plus_urdf --record /home/memonsio/wsr2/build/kuka_lwr4plus_urdf/install.log --single-version-externally-managed
[1.832s] running egg_info
[1.832s] writing ../../../build/kuka_lwr4plus_urdf/kuka_lwr4plus_urdf.egg-info/PKG-INFO
[1.832s] writing dependency_links to ../../../build/kuka_lwr4plus_urdf/kuka_lwr4plus_urdf.egg-info/dependency_links.txt
[1.832s] writing entry points to ../../../build/kuka_lwr4plus_urdf/kuka_lwr4plus_urdf.egg-info/entry_points.txt
[1.833s] writing requirements to ../../../build/kuka_lwr4plus_urdf/kuka_lwr4plus_urdf.egg-info/requires.txt
[1.833s] writing top-level names to ../../../build/kuka_lwr4plus_urdf/kuka_lwr4plus_urdf.egg-info/top_level.txt
[1.922s] reading manifest file '../../../build/kuka_lwr4plus_urdf/kuka_lwr4plus_urdf.egg-info/SOURCES.txt'
[1.925s] writing manifest file '../../../build/kuka_lwr4plus_urdf/kuka_lwr4plus_urdf.egg-info/SOURCES.txt'
[1.926s] running build
[1.926s] running build_py
[1.926s] running install
[1.929s] running install_lib
[1.932s] running install_data
[1.935s] running install_egg_info
[1.940s] removing '/home/memonsio/wsr2/install/kuka_lwr4plus_urdf/lib/python3.8/site-packages/kuka_lwr4plus_urdf-0.1.0-py3.8.egg-info' (and everything under it)
[1.940s] Copying ../../../build/kuka_lwr4plus_urdf/kuka_lwr4plus_urdf.egg-info to /home/memonsio/wsr2/install/kuka_lwr4plus_urdf/lib/python3.8/site-packages/kuka_lwr4plus_urdf-0.1.0-py3.8.egg-info
[1.970s] running install_scripts
[2.015s] writing list of installed files to '/home/memonsio/wsr2/build/kuka_lwr4plus_urdf/install.log'
[2.432s] Invoked command in '/home/memonsio/wsr2/src/kuka-lwr4plus/kuka_lwr4plus_urdf' returned '0': PYTHONPATH=/home/memonsio/wsr2/install/kuka_lwr4plus_urdf/lib/python3.8/site-packages:${PYTHONPATH} /usr/bin/python3 setup.py egg_info --egg-base ../../../build/kuka_lwr4plus_urdf build --build-base /home/memonsio/wsr2/build/kuka_lwr4plus_urdf/build install --prefix /home/memonsio/wsr2/install/kuka_lwr4plus_urdf --record /home/memonsio/wsr2/build/kuka_lwr4plus_urdf/install.log --single-version-externally-managed
