running egg_info
writing ../../../build/arcos-lab-humanoid-startup-sim/arcos_lab_humanoid_startup_sim.egg-info/PKG-INFO
writing dependency_links to ../../../build/arcos-lab-humanoid-startup-sim/arcos_lab_humanoid_startup_sim.egg-info/dependency_links.txt
writing entry points to ../../../build/arcos-lab-humanoid-startup-sim/arcos_lab_humanoid_startup_sim.egg-info/entry_points.txt
writing requirements to ../../../build/arcos-lab-humanoid-startup-sim/arcos_lab_humanoid_startup_sim.egg-info/requires.txt
writing top-level names to ../../../build/arcos-lab-humanoid-startup-sim/arcos_lab_humanoid_startup_sim.egg-info/top_level.txt
reading manifest file '../../../build/arcos-lab-humanoid-startup-sim/arcos_lab_humanoid_startup_sim.egg-info/SOURCES.txt'
writing manifest file '../../../build/arcos-lab-humanoid-startup-sim/arcos_lab_humanoid_startup_sim.egg-info/SOURCES.txt'
running build
running build_py
running install
running install_lib
running install_data
running install_egg_info
removing '/home/memonsio/wsr2/install/arcos-lab-humanoid-startup-sim/lib/python3.8/site-packages/arcos_lab_humanoid_startup_sim-0.1.0-py3.8.egg-info' (and everything under it)
Copying ../../../build/arcos-lab-humanoid-startup-sim/arcos_lab_humanoid_startup_sim.egg-info to /home/memonsio/wsr2/install/arcos-lab-humanoid-startup-sim/lib/python3.8/site-packages/arcos_lab_humanoid_startup_sim-0.1.0-py3.8.egg-info
running install_scripts
writing list of installed files to '/home/memonsio/wsr2/build/arcos-lab-humanoid-startup-sim/install.log'
