<?xml version="1.0"?>
<robot xmlns:xacro="http://www.ros.org/wiki/xacro" name="platform">

  <link name="odom">
  </link>
  <link name ="odom_x">
  </link>
  <link name ="odom_y">
  </link>
  <link name ="plat_base">
  </link>

  <joint name="j_plat_x" type="prismatic">
    <origin xyz="0 0 0" rpy= "0 0 0"/>
    <parent link="odom"/>
    <child link="odom_x"/>
    <axis xyz="1 0 0"/>
    <limit lower ="-20.0" upper ="20.0" effort="0.0" velocity="1.0"/> 
  </joint>

  <joint name="j_plat_y" type="prismatic">
    <origin xyz="0 0 0" rpy= "0 0 0"/>
    <parent link="odom_x"/>
    <child link="odom_y"/>
    <axis xyz="0 1 0"/>
    <limit lower ="-20.0" upper ="20.0" effort="0.0" velocity="1.0"/> 
  </joint>

  <joint name="j_plat_z" type="revolute">
    <origin xyz="0 0 0" rpy= "0 0 0"/>
    <parent link="odom_y"/>
    <child link="plat_base"/>
    <axis xyz="0 0 1"/>
    <limit lower ="-3.1416" upper ="-3.1416" effort="0.0" velocity="1.0"/> 
  </joint>


</robot>
