[0.000000] (-) TimerEvent: {}
[0.000686] (-) JobUnselected: {'identifier': 'arcos-lab-humanoid-robot-descriptions'}
[0.000934] (-) JobUnselected: {'identifier': 'arcos-lab-humanoid-startup-sim'}
[0.001428] (-) JobUnselected: {'identifier': 'arcos_lab_mobile_platform_msgs'}
[0.001488] (-) JobUnselected: {'identifier': 'arcos_lab_mobile_platform_sim'}
[0.002406] (-) JobUnselected: {'identifier': 'arcos_lab_mobile_platform_urdf'}
[0.002531] (-) JobUnselected: {'identifier': 'fri_ros2'}
[0.002628] (-) JobUnselected: {'identifier': 'kuka_lwr4plus_msgs'}
[0.002738] (-) JobUnselected: {'identifier': 'kuka_lwr4plus_sim'}
[0.002831] (-) JobUnselected: {'identifier': 'kuka_lwr4plus_urdf'}
[0.002895] (-) JobUnselected: {'identifier': 'py_srvcli'}
[0.002945] (-) JobUnselected: {'identifier': 'wessling_hand_msgs'}
[0.003058] (-) JobUnselected: {'identifier': 'wessling_hand_sim'}
[0.003115] (-) JobUnselected: {'identifier': 'wessling_hand_urdf'}
[0.003149] (tutorial_interfaces) JobQueued: {'identifier': 'tutorial_interfaces', 'dependencies': OrderedDict()}
[0.003212] (tutorial_interfaces) JobStarted: {'identifier': 'tutorial_interfaces'}
[0.016780] (tutorial_interfaces) JobProgress: {'identifier': 'tutorial_interfaces', 'progress': 'cmake'}
[0.017844] (tutorial_interfaces) JobProgress: {'identifier': 'tutorial_interfaces', 'progress': 'build'}
[0.019285] (tutorial_interfaces) Command: {'cmd': ['/usr/bin/cmake', '--build', '/home/memonsio/wsr2/build/tutorial_interfaces', '--', '-j4', '-l4'], 'cwd': '/home/memonsio/wsr2/build/tutorial_interfaces', 'env': OrderedDict([('GJS_DEBUG_TOPICS', 'JS ERROR;JS LOG'), ('LESSOPEN', '| /usr/bin/lesspipe %s'), ('LANGUAGE', 'en'), ('USER', 'memonsio'), ('LC_TIME', 'es_CR.UTF-8'), ('SSH_AGENT_PID', '2678'), ('XDG_SESSION_TYPE', 'x11'), ('SHLVL', '1'), ('HOME', '/home/memonsio'), ('OLDPWD', '/home/memonsio'), ('DESKTOP_SESSION', 'ubuntu'), ('GNOME_SHELL_SESSION_MODE', 'ubuntu'), ('GTK_MODULES', 'gail:atk-bridge'), ('LC_MONETARY', 'es_CR.UTF-8'), ('MANAGERPID', '2526'), ('DBUS_SESSION_BUS_ADDRESS', 'unix:path=/run/user/1001/bus'), ('COLORTERM', 'truecolor'), ('IM_CONFIG_PHASE', '1'), ('LOGNAME', 'memonsio'), ('JOURNAL_STREAM', '8:57780'), ('_', '/usr/bin/colcon'), ('XDG_SESSION_CLASS', 'user'), ('USERNAME', 'memonsio'), ('TERM', 'xterm-256color'), ('GNOME_DESKTOP_SESSION_ID', 'this-is-deprecated'), ('WINDOWPATH', '3'), ('PATH', '/home/memonsio/.local/bin:/usr/local/sbin:/usr/local/bin:/usr/sbin:/usr/bin:/sbin:/bin:/usr/games:/usr/local/games:/snap/bin'), ('SESSION_MANAGER', 'local/luisonsio:@/tmp/.ICE-unix/2722,unix/luisonsio:/tmp/.ICE-unix/2722'), ('INVOCATION_ID', '7e519ce8164e41fc8611e45567102a05'), ('PAPERSIZE', 'letter'), ('XDG_MENU_PREFIX', 'gnome-'), ('LC_ADDRESS', 'es_CR.UTF-8'), ('GNOME_TERMINAL_SCREEN', '/org/gnome/Terminal/screen/d6f85c10_996a_4e81_b558_bd9799b291e9'), ('XDG_RUNTIME_DIR', '/run/user/1001'), ('DISPLAY', ':2'), ('LANG', 'en_US.UTF-8'), ('XDG_CURRENT_DESKTOP', 'ubuntu:GNOME'), ('LC_TELEPHONE', 'es_CR.UTF-8'), ('XMODIFIERS', '@im=ibus'), ('XDG_SESSION_DESKTOP', 'ubuntu'), ('XAUTHORITY', '/run/user/1001/gdm/Xauthority'), ('LS_COLORS', 'rs=0:di=01;34:ln=01;36:mh=00:pi=40;33:so=01;35:do=01;35:bd=40;33;01:cd=40;33;01:or=40;31;01:mi=00:su=37;41:sg=30;43:ca=30;41:tw=30;42:ow=34;42:st=37;44:ex=01;32:*.tar=01;31:*.tgz=01;31:*.arc=01;31:*.arj=01;31:*.taz=01;31:*.lha=01;31:*.lz4=01;31:*.lzh=01;31:*.lzma=01;31:*.tlz=01;31:*.txz=01;31:*.tzo=01;31:*.t7z=01;31:*.zip=01;31:*.z=01;31:*.dz=01;31:*.gz=01;31:*.lrz=01;31:*.lz=01;31:*.lzo=01;31:*.xz=01;31:*.zst=01;31:*.tzst=01;31:*.bz2=01;31:*.bz=01;31:*.tbz=01;31:*.tbz2=01;31:*.tz=01;31:*.deb=01;31:*.rpm=01;31:*.jar=01;31:*.war=01;31:*.ear=01;31:*.sar=01;31:*.rar=01;31:*.alz=01;31:*.ace=01;31:*.zoo=01;31:*.cpio=01;31:*.7z=01;31:*.rz=01;31:*.cab=01;31:*.wim=01;31:*.swm=01;31:*.dwm=01;31:*.esd=01;31:*.jpg=01;35:*.jpeg=01;35:*.mjpg=01;35:*.mjpeg=01;35:*.gif=01;35:*.bmp=01;35:*.pbm=01;35:*.pgm=01;35:*.ppm=01;35:*.tga=01;35:*.xbm=01;35:*.xpm=01;35:*.tif=01;35:*.tiff=01;35:*.png=01;35:*.svg=01;35:*.svgz=01;35:*.mng=01;35:*.pcx=01;35:*.mov=01;35:*.mpg=01;35:*.mpeg=01;35:*.m2v=01;35:*.mkv=01;35:*.webm=01;35:*.ogm=01;35:*.mp4=01;35:*.m4v=01;35:*.mp4v=01;35:*.vob=01;35:*.qt=01;35:*.nuv=01;35:*.wmv=01;35:*.asf=01;35:*.rm=01;35:*.rmvb=01;35:*.flc=01;35:*.avi=01;35:*.fli=01;35:*.flv=01;35:*.gl=01;35:*.dl=01;35:*.xcf=01;35:*.xwd=01;35:*.yuv=01;35:*.cgm=01;35:*.emf=01;35:*.ogv=01;35:*.ogx=01;35:*.aac=00;36:*.au=00;36:*.flac=00;36:*.m4a=00;36:*.mid=00;36:*.midi=00;36:*.mka=00;36:*.mp3=00;36:*.mpc=00;36:*.ogg=00;36:*.ra=00;36:*.wav=00;36:*.oga=00;36:*.opus=00;36:*.spx=00;36:*.xspf=00;36:'), ('GNOME_TERMINAL_SERVICE', ':1.112'), ('SSH_AUTH_SOCK', '/run/user/1001/keyring/ssh'), ('SHELL', '/bin/bash'), ('LC_NAME', 'es_CR.UTF-8'), ('QT_ACCESSIBILITY', '1'), ('GDMSESSION', 'ubuntu'), ('LESSCLOSE', '/usr/bin/lesspipe %s %s'), ('LC_MEASUREMENT', 'es_CR.UTF-8'), ('GPG_AGENT_INFO', '/run/user/1001/gnupg/S.gpg-agent:0:1'), ('GJS_DEBUG_OUTPUT', 'stderr'), ('LC_IDENTIFICATION', 'es_CR.UTF-8'), ('QT_IM_MODULE', 'ibus'), ('PWD', '/home/memonsio/wsr2/build/tutorial_interfaces'), ('LC_ALL', 'en_US.UTF-8'), ('XDG_CONFIG_DIRS', '/etc/xdg/xdg-ubuntu:/etc/xdg'), ('XDG_DATA_DIRS', '/usr/share/ubuntu:/usr/local/share/:/usr/share/:/var/lib/snapd/desktop'), ('LC_NUMERIC', 'es_CR.UTF-8'), ('LC_PAPER', 'es_CR.UTF-8'), ('COLCON', '1'), ('VTE_VERSION', '6003')]), 'shell': False}
[0.061302] (tutorial_interfaces) StdoutLine: {'line': b'-- Found ament_cmake: 0.9.9 (/opt/ros/foxy/share/ament_cmake/cmake)\n'}
[0.093142] (tutorial_interfaces) StdoutLine: {'line': b'-- Using PYTHON_EXECUTABLE: /usr/bin/python3\n'}
[0.099599] (-) TimerEvent: {}
[0.199982] (-) TimerEvent: {}
[0.295180] (tutorial_interfaces) StderrLine: {'line': b'Traceback (most recent call last):\n'}
[0.295459] (tutorial_interfaces) StderrLine: {'line': b'  File "/opt/ros/foxy/share/ament_cmake_core/cmake/package_templates/templates_2_cmake.py", line 21, in <module>\n'}
[0.295601] (tutorial_interfaces) StderrLine: {'line': b'    from ament_package.templates import get_environment_hook_template_path\n'}
[0.295722] (tutorial_interfaces) StderrLine: {'line': b"ModuleNotFoundError: No module named 'ament_package'\n"}
[0.300148] (-) TimerEvent: {}
[0.323213] (tutorial_interfaces) StderrLine: {'line': b'CMake Error at /opt/ros/foxy/share/ament_cmake_core/cmake/ament_cmake_package_templates-extras.cmake:41 (message):\n'}
[0.323445] (tutorial_interfaces) StderrLine: {'line': b'  execute_process(/usr/bin/python3\n'}
[0.323572] (tutorial_interfaces) StderrLine: {'line': b'  /opt/ros/foxy/share/ament_cmake_core/cmake/package_templates/templates_2_cmake.py\n'}
[0.323688] (tutorial_interfaces) StderrLine: {'line': b'  /home/memonsio/wsr2/build/tutorial_interfaces/ament_cmake_package_templates/templates.cmake)\n'}
[0.323800] (tutorial_interfaces) StderrLine: {'line': b'  returned error code 1\n'}
[0.323969] (tutorial_interfaces) StderrLine: {'line': b'Call Stack (most recent call first):\n'}
[0.324067] (tutorial_interfaces) StderrLine: {'line': b'  /opt/ros/foxy/share/ament_cmake_core/cmake/ament_cmake_coreConfig.cmake:41 (include)\n'}
[0.324191] (tutorial_interfaces) StderrLine: {'line': b'  /opt/ros/foxy/share/ament_cmake/cmake/ament_cmake_export_dependencies-extras.cmake:15 (find_package)\n'}
[0.324286] (tutorial_interfaces) StderrLine: {'line': b'  /opt/ros/foxy/share/ament_cmake/cmake/ament_cmakeConfig.cmake:41 (include)\n'}
[0.324377] (tutorial_interfaces) StderrLine: {'line': b'  CMakeLists.txt:19 (find_package)\n'}
[0.324466] (tutorial_interfaces) StderrLine: {'line': b'\n'}
[0.324555] (tutorial_interfaces) StderrLine: {'line': b'\n'}
[0.324643] (tutorial_interfaces) StdoutLine: {'line': b'-- Configuring incomplete, errors occurred!\n'}
[0.324739] (tutorial_interfaces) StdoutLine: {'line': b'See also "/home/memonsio/wsr2/build/tutorial_interfaces/CMakeFiles/CMakeOutput.log".\n'}
[0.326219] (tutorial_interfaces) StderrLine: {'line': b'make: *** [Makefile:988: cmake_check_build_system] Error 1\n'}
[0.328727] (tutorial_interfaces) CommandEnded: {'returncode': 2}
[0.400474] (-) TimerEvent: {}
[0.419841] (tutorial_interfaces) JobEnded: {'identifier': 'tutorial_interfaces', 'rc': 2}
[0.431506] (-) EventReactorShutdown: {}
