Invoking command in '/home/memonsio/wsr2/build/tutorial_interfaces': CMAKE_PREFIX_PATH=${CMAKE_PREFIX_PATH}:/home/memonsio/wsr2/install/wessling_hand_urdf:/home/memonsio/wsr2/install/wessling_hand_sim:/home/memonsio/wsr2/install/py_srvcli:/home/memonsio/wsr2/install/robot_example_urdf:/home/memonsio/wsr2/install/robot_example_sim:/home/memonsio/wsr2/install/learning_tf2_py:/home/memonsio/wsr2/install/kuka_lwr4plus_urdf:/home/memonsio/wsr2/install/kuka_lwr4plus_sim:/home/memonsio/wsr2/install/arcos_lab_mobile_platform_urdf:/home/memonsio/wsr2/install/arcos_lab_mobile_platform_sim:/home/memonsio/wsr2/install/arcos-lab-humanoid-startup-sim:/home/memonsio/wsr2/install/arcos-lab-humanoid-robot-descriptions:/opt/ros/foxy /usr/bin/cmake --build /home/memonsio/wsr2/build/tutorial_interfaces -- -j4 -l4
Invoked command in '/home/memonsio/wsr2/build/tutorial_interfaces' returned '0': CMAKE_PREFIX_PATH=${CMAKE_PREFIX_PATH}:/home/memonsio/wsr2/install/wessling_hand_urdf:/home/memonsio/wsr2/install/wessling_hand_sim:/home/memonsio/wsr2/install/py_srvcli:/home/memonsio/wsr2/install/robot_example_urdf:/home/memonsio/wsr2/install/robot_example_sim:/home/memonsio/wsr2/install/learning_tf2_py:/home/memonsio/wsr2/install/kuka_lwr4plus_urdf:/home/memonsio/wsr2/install/kuka_lwr4plus_sim:/home/memonsio/wsr2/install/arcos_lab_mobile_platform_urdf:/home/memonsio/wsr2/install/arcos_lab_mobile_platform_sim:/home/memonsio/wsr2/install/arcos-lab-humanoid-startup-sim:/home/memonsio/wsr2/install/arcos-lab-humanoid-robot-descriptions:/opt/ros/foxy /usr/bin/cmake --build /home/memonsio/wsr2/build/tutorial_interfaces -- -j4 -l4
Invoking command in '/home/memonsio/wsr2/build/tutorial_interfaces': CMAKE_PREFIX_PATH=${CMAKE_PREFIX_PATH}:/home/memonsio/wsr2/install/wessling_hand_urdf:/home/memonsio/wsr2/install/wessling_hand_sim:/home/memonsio/wsr2/install/py_srvcli:/home/memonsio/wsr2/install/robot_example_urdf:/home/memonsio/wsr2/install/robot_example_sim:/home/memonsio/wsr2/install/learning_tf2_py:/home/memonsio/wsr2/install/kuka_lwr4plus_urdf:/home/memonsio/wsr2/install/kuka_lwr4plus_sim:/home/memonsio/wsr2/install/arcos_lab_mobile_platform_urdf:/home/memonsio/wsr2/install/arcos_lab_mobile_platform_sim:/home/memonsio/wsr2/install/arcos-lab-humanoid-startup-sim:/home/memonsio/wsr2/install/arcos-lab-humanoid-robot-descriptions:/opt/ros/foxy /usr/bin/cmake --install /home/memonsio/wsr2/build/tutorial_interfaces
Invoked command in '/home/memonsio/wsr2/build/tutorial_interfaces' returned '0': CMAKE_PREFIX_PATH=${CMAKE_PREFIX_PATH}:/home/memonsio/wsr2/install/wessling_hand_urdf:/home/memonsio/wsr2/install/wessling_hand_sim:/home/memonsio/wsr2/install/py_srvcli:/home/memonsio/wsr2/install/robot_example_urdf:/home/memonsio/wsr2/install/robot_example_sim:/home/memonsio/wsr2/install/learning_tf2_py:/home/memonsio/wsr2/install/kuka_lwr4plus_urdf:/home/memonsio/wsr2/install/kuka_lwr4plus_sim:/home/memonsio/wsr2/install/arcos_lab_mobile_platform_urdf:/home/memonsio/wsr2/install/arcos_lab_mobile_platform_sim:/home/memonsio/wsr2/install/arcos-lab-humanoid-startup-sim:/home/memonsio/wsr2/install/arcos-lab-humanoid-robot-descriptions:/opt/ros/foxy /usr/bin/cmake --install /home/memonsio/wsr2/build/tutorial_interfaces
