running egg_info
writing ../../../build/kuka_lwr4plus_sim/kuka_lwr4plus_sim.egg-info/PKG-INFO
writing dependency_links to ../../../build/kuka_lwr4plus_sim/kuka_lwr4plus_sim.egg-info/dependency_links.txt
writing entry points to ../../../build/kuka_lwr4plus_sim/kuka_lwr4plus_sim.egg-info/entry_points.txt
writing requirements to ../../../build/kuka_lwr4plus_sim/kuka_lwr4plus_sim.egg-info/requires.txt
writing top-level names to ../../../build/kuka_lwr4plus_sim/kuka_lwr4plus_sim.egg-info/top_level.txt
reading manifest file '../../../build/kuka_lwr4plus_sim/kuka_lwr4plus_sim.egg-info/SOURCES.txt'
writing manifest file '../../../build/kuka_lwr4plus_sim/kuka_lwr4plus_sim.egg-info/SOURCES.txt'
running build
running build_py
running install
running install_lib
running install_data
running install_egg_info
removing '/home/memonsio/wsr2/install/kuka_lwr4plus_sim/lib/python3.8/site-packages/kuka_lwr4plus_sim-0.1.0-py3.8.egg-info' (and everything under it)
Copying ../../../build/kuka_lwr4plus_sim/kuka_lwr4plus_sim.egg-info to /home/memonsio/wsr2/install/kuka_lwr4plus_sim/lib/python3.8/site-packages/kuka_lwr4plus_sim-0.1.0-py3.8.egg-info
running install_scripts
Installing kuka_lwr4plus_sim script to /home/memonsio/wsr2/install/kuka_lwr4plus_sim/lib/kuka_lwr4plus_sim
Installing send_ext_torques script to /home/memonsio/wsr2/install/kuka_lwr4plus_sim/lib/kuka_lwr4plus_sim
writing list of installed files to '/home/memonsio/wsr2/build/kuka_lwr4plus_sim/install.log'
