running egg_info
creating ../../../build/wessling_hand_sim/wessling_hand_sim.egg-info
writing ../../../build/wessling_hand_sim/wessling_hand_sim.egg-info/PKG-INFO
writing dependency_links to ../../../build/wessling_hand_sim/wessling_hand_sim.egg-info/dependency_links.txt
writing entry points to ../../../build/wessling_hand_sim/wessling_hand_sim.egg-info/entry_points.txt
writing requirements to ../../../build/wessling_hand_sim/wessling_hand_sim.egg-info/requires.txt
writing top-level names to ../../../build/wessling_hand_sim/wessling_hand_sim.egg-info/top_level.txt
writing manifest file '../../../build/wessling_hand_sim/wessling_hand_sim.egg-info/SOURCES.txt'
reading manifest file '../../../build/wessling_hand_sim/wessling_hand_sim.egg-info/SOURCES.txt'
writing manifest file '../../../build/wessling_hand_sim/wessling_hand_sim.egg-info/SOURCES.txt'
running build
running build_py
creating /home/memonsio/wsr2/build/wessling_hand_sim/build
creating /home/memonsio/wsr2/build/wessling_hand_sim/build/lib
creating /home/memonsio/wsr2/build/wessling_hand_sim/build/lib/wessling_hand_sim
copying wessling_hand_sim/just_move.py -> /home/memonsio/wsr2/build/wessling_hand_sim/build/lib/wessling_hand_sim
copying wessling_hand_sim/wessling_hand_sim.py -> /home/memonsio/wsr2/build/wessling_hand_sim/build/lib/wessling_hand_sim
copying wessling_hand_sim/__init__.py -> /home/memonsio/wsr2/build/wessling_hand_sim/build/lib/wessling_hand_sim
copying wessling_hand_sim/send_ext_torques.py -> /home/memonsio/wsr2/build/wessling_hand_sim/build/lib/wessling_hand_sim
running install
running install_lib
creating /home/memonsio/wsr2/install/wessling_hand_sim/lib/python3.8/site-packages/wessling_hand_sim
copying /home/memonsio/wsr2/build/wessling_hand_sim/build/lib/wessling_hand_sim/just_move.py -> /home/memonsio/wsr2/install/wessling_hand_sim/lib/python3.8/site-packages/wessling_hand_sim
copying /home/memonsio/wsr2/build/wessling_hand_sim/build/lib/wessling_hand_sim/wessling_hand_sim.py -> /home/memonsio/wsr2/install/wessling_hand_sim/lib/python3.8/site-packages/wessling_hand_sim
copying /home/memonsio/wsr2/build/wessling_hand_sim/build/lib/wessling_hand_sim/__init__.py -> /home/memonsio/wsr2/install/wessling_hand_sim/lib/python3.8/site-packages/wessling_hand_sim
copying /home/memonsio/wsr2/build/wessling_hand_sim/build/lib/wessling_hand_sim/send_ext_torques.py -> /home/memonsio/wsr2/install/wessling_hand_sim/lib/python3.8/site-packages/wessling_hand_sim
byte-compiling /home/memonsio/wsr2/install/wessling_hand_sim/lib/python3.8/site-packages/wessling_hand_sim/just_move.py to just_move.cpython-38.pyc
byte-compiling /home/memonsio/wsr2/install/wessling_hand_sim/lib/python3.8/site-packages/wessling_hand_sim/wessling_hand_sim.py to wessling_hand_sim.cpython-38.pyc
byte-compiling /home/memonsio/wsr2/install/wessling_hand_sim/lib/python3.8/site-packages/wessling_hand_sim/__init__.py to __init__.cpython-38.pyc
byte-compiling /home/memonsio/wsr2/install/wessling_hand_sim/lib/python3.8/site-packages/wessling_hand_sim/send_ext_torques.py to send_ext_torques.cpython-38.pyc
running install_data
creating /home/memonsio/wsr2/install/wessling_hand_sim/share/ament_index
creating /home/memonsio/wsr2/install/wessling_hand_sim/share/ament_index/resource_index
creating /home/memonsio/wsr2/install/wessling_hand_sim/share/ament_index/resource_index/packages
copying resource/wessling_hand_sim -> /home/memonsio/wsr2/install/wessling_hand_sim/share/ament_index/resource_index/packages
copying package.xml -> /home/memonsio/wsr2/install/wessling_hand_sim/share/wessling_hand_sim
copying launch/wessling_hand_sim_test.launch.py -> /home/memonsio/wsr2/install/wessling_hand_sim/share/wessling_hand_sim
copying launch/wessling_hand_sim.launch.py -> /home/memonsio/wsr2/install/wessling_hand_sim/share/wessling_hand_sim
running install_egg_info
Copying ../../../build/wessling_hand_sim/wessling_hand_sim.egg-info to /home/memonsio/wsr2/install/wessling_hand_sim/lib/python3.8/site-packages/wessling_hand_sim-0.1.0-py3.8.egg-info
running install_scripts
Installing just_move script to /home/memonsio/wsr2/install/wessling_hand_sim/lib/wessling_hand_sim
Installing send_ext_torques script to /home/memonsio/wsr2/install/wessling_hand_sim/lib/wessling_hand_sim
Installing sim script to /home/memonsio/wsr2/install/wessling_hand_sim/lib/wessling_hand_sim
writing list of installed files to '/home/memonsio/wsr2/build/wessling_hand_sim/install.log'
