[1.478s] Invoking command in '/home/memonsio/wsr2/build/arcos_lab_mobile_platform_msgs': CMAKE_PREFIX_PATH=${CMAKE_PREFIX_PATH}:/home/memonsio/wsr2/install/wessling_hand_urdf:/home/memonsio/wsr2/install/wessling_hand_sim:/home/memonsio/wsr2/install/py_srvcli:/home/memonsio/wsr2/install/learning_tf2_py:/home/memonsio/wsr2/install/kuka_lwr4plus_urdf:/home/memonsio/wsr2/install/kuka_lwr4plus_sim:/home/memonsio/wsr2/install/arcos_lab_mobile_platform_urdf:/home/memonsio/wsr2/install/arcos_lab_mobile_platform_sim:/home/memonsio/wsr2/install/arcos-lab-humanoid-startup-sim:/home/memonsio/wsr2/install/arcos-lab-humanoid-robot-descriptions:/opt/ros/foxy /usr/bin/cmake --build /home/memonsio/wsr2/build/arcos_lab_mobile_platform_msgs -- -j4 -l4
[1.714s] [  1%] Built target arcos_lab_mobile_platform_msgs__cpp
[1.746s] [ 12%] Built target arcos_lab_mobile_platform_msgs__rosidl_generator_c
[1.803s] [ 23%] Built target arcos_lab_mobile_platform_msgs__rosidl_typesupport_introspection_cpp
[1.898s] [ 34%] Built target arcos_lab_mobile_platform_msgs__rosidl_typesupport_fastrtps_cpp
[1.916s] [ 45%] Built target arcos_lab_mobile_platform_msgs__rosidl_typesupport_cpp
[1.934s] [ 56%] Built target arcos_lab_mobile_platform_msgs__rosidl_typesupport_introspection_c
[1.994s] [ 67%] Built target arcos_lab_mobile_platform_msgs__rosidl_typesupport_c
[2.062s] [ 78%] Built target arcos_lab_mobile_platform_msgs__rosidl_typesupport_fastrtps_c
[2.162s] [ 78%] Built target arcos_lab_mobile_platform_msgs
[2.294s] [ 80%] Built target arcos_lab_mobile_platform_msgs__py
[2.447s] [ 89%] Built target arcos_lab_mobile_platform_msgs__python
[2.608s] [ 92%] Built target arcos_lab_mobile_platform_msgs__rosidl_typesupport_fastrtps_c__pyext
[2.623s] [ 96%] Built target arcos_lab_mobile_platform_msgs__rosidl_typesupport_c__pyext
[2.635s] [100%] Built target arcos_lab_mobile_platform_msgs__rosidl_typesupport_introspection_c__pyext
[2.693s] Invoked command in '/home/memonsio/wsr2/build/arcos_lab_mobile_platform_msgs' returned '0': CMAKE_PREFIX_PATH=${CMAKE_PREFIX_PATH}:/home/memonsio/wsr2/install/wessling_hand_urdf:/home/memonsio/wsr2/install/wessling_hand_sim:/home/memonsio/wsr2/install/py_srvcli:/home/memonsio/wsr2/install/learning_tf2_py:/home/memonsio/wsr2/install/kuka_lwr4plus_urdf:/home/memonsio/wsr2/install/kuka_lwr4plus_sim:/home/memonsio/wsr2/install/arcos_lab_mobile_platform_urdf:/home/memonsio/wsr2/install/arcos_lab_mobile_platform_sim:/home/memonsio/wsr2/install/arcos-lab-humanoid-startup-sim:/home/memonsio/wsr2/install/arcos-lab-humanoid-robot-descriptions:/opt/ros/foxy /usr/bin/cmake --build /home/memonsio/wsr2/build/arcos_lab_mobile_platform_msgs -- -j4 -l4
[3.832s] Invoking command in '/home/memonsio/wsr2/build/arcos_lab_mobile_platform_msgs': CMAKE_PREFIX_PATH=${CMAKE_PREFIX_PATH}:/home/memonsio/wsr2/install/wessling_hand_urdf:/home/memonsio/wsr2/install/wessling_hand_sim:/home/memonsio/wsr2/install/py_srvcli:/home/memonsio/wsr2/install/learning_tf2_py:/home/memonsio/wsr2/install/kuka_lwr4plus_urdf:/home/memonsio/wsr2/install/kuka_lwr4plus_sim:/home/memonsio/wsr2/install/arcos_lab_mobile_platform_urdf:/home/memonsio/wsr2/install/arcos_lab_mobile_platform_sim:/home/memonsio/wsr2/install/arcos-lab-humanoid-startup-sim:/home/memonsio/wsr2/install/arcos-lab-humanoid-robot-descriptions:/opt/ros/foxy /usr/bin/cmake --install /home/memonsio/wsr2/build/arcos_lab_mobile_platform_msgs
[3.945s] -- Install configuration: ""
[3.950s] -- Up-to-date: /home/memonsio/wsr2/install/arcos_lab_mobile_platform_msgs/share/ament_index/resource_index/rosidl_interfaces/arcos_lab_mobile_platform_msgs
[3.951s] -- Up-to-date: /home/memonsio/wsr2/install/arcos_lab_mobile_platform_msgs/include/arcos_lab_mobile_platform_msgs
[3.951s] -- Up-to-date: /home/memonsio/wsr2/install/arcos_lab_mobile_platform_msgs/include/arcos_lab_mobile_platform_msgs/srv
[3.951s] -- Up-to-date: /home/memonsio/wsr2/install/arcos_lab_mobile_platform_msgs/include/arcos_lab_mobile_platform_msgs/srv/mob_enable.h
[3.951s] -- Up-to-date: /home/memonsio/wsr2/install/arcos_lab_mobile_platform_msgs/include/arcos_lab_mobile_platform_msgs/srv/detail
[3.951s] -- Up-to-date: /home/memonsio/wsr2/install/arcos_lab_mobile_platform_msgs/include/arcos_lab_mobile_platform_msgs/srv/detail/mob_enable__functions.c
[3.952s] -- Up-to-date: /home/memonsio/wsr2/install/arcos_lab_mobile_platform_msgs/include/arcos_lab_mobile_platform_msgs/srv/detail/mob_enable__functions.h
[3.952s] -- Up-to-date: /home/memonsio/wsr2/install/arcos_lab_mobile_platform_msgs/include/arcos_lab_mobile_platform_msgs/srv/detail/mob_enable__struct.h
[3.953s] -- Up-to-date: /home/memonsio/wsr2/install/arcos_lab_mobile_platform_msgs/include/arcos_lab_mobile_platform_msgs/srv/detail/mob_enable__type_support.h
[3.954s] -- Up-to-date: /home/memonsio/wsr2/install/arcos_lab_mobile_platform_msgs/include/arcos_lab_mobile_platform_msgs/msg
[3.954s] -- Up-to-date: /home/memonsio/wsr2/install/arcos_lab_mobile_platform_msgs/include/arcos_lab_mobile_platform_msgs/msg/mob_ext_torques.h
[3.954s] -- Up-to-date: /home/memonsio/wsr2/install/arcos_lab_mobile_platform_msgs/include/arcos_lab_mobile_platform_msgs/msg/rosidl_generator_c__visibility_control.h
[3.954s] -- Up-to-date: /home/memonsio/wsr2/install/arcos_lab_mobile_platform_msgs/include/arcos_lab_mobile_platform_msgs/msg/detail
[3.955s] -- Up-to-date: /home/memonsio/wsr2/install/arcos_lab_mobile_platform_msgs/include/arcos_lab_mobile_platform_msgs/msg/detail/mob_ext_torques__functions.h
[3.955s] -- Up-to-date: /home/memonsio/wsr2/install/arcos_lab_mobile_platform_msgs/include/arcos_lab_mobile_platform_msgs/msg/detail/mob_ext_torques__struct.h
[3.955s] -- Up-to-date: /home/memonsio/wsr2/install/arcos_lab_mobile_platform_msgs/include/arcos_lab_mobile_platform_msgs/msg/detail/mob_status__type_support.h
[3.956s] -- Up-to-date: /home/memonsio/wsr2/install/arcos_lab_mobile_platform_msgs/include/arcos_lab_mobile_platform_msgs/msg/detail/mob_status__struct.h
[3.957s] -- Up-to-date: /home/memonsio/wsr2/install/arcos_lab_mobile_platform_msgs/include/arcos_lab_mobile_platform_msgs/msg/detail/mob_command__functions.c
[3.957s] -- Up-to-date: /home/memonsio/wsr2/install/arcos_lab_mobile_platform_msgs/include/arcos_lab_mobile_platform_msgs/msg/detail/mob_command__struct.h
[3.957s] -- Up-to-date: /home/memonsio/wsr2/install/arcos_lab_mobile_platform_msgs/include/arcos_lab_mobile_platform_msgs/msg/detail/mob_status__functions.c
[3.957s] -- Up-to-date: /home/memonsio/wsr2/install/arcos_lab_mobile_platform_msgs/include/arcos_lab_mobile_platform_msgs/msg/detail/mob_ext_torques__functions.c
[3.957s] -- Up-to-date: /home/memonsio/wsr2/install/arcos_lab_mobile_platform_msgs/include/arcos_lab_mobile_platform_msgs/msg/detail/mob_command__type_support.h
[3.958s] -- Up-to-date: /home/memonsio/wsr2/install/arcos_lab_mobile_platform_msgs/include/arcos_lab_mobile_platform_msgs/msg/detail/mob_ext_torques__type_support.h
[3.958s] -- Up-to-date: /home/memonsio/wsr2/install/arcos_lab_mobile_platform_msgs/include/arcos_lab_mobile_platform_msgs/msg/detail/mob_status__functions.h
[3.958s] -- Up-to-date: /home/memonsio/wsr2/install/arcos_lab_mobile_platform_msgs/include/arcos_lab_mobile_platform_msgs/msg/detail/mob_command__functions.h
[3.958s] -- Up-to-date: /home/memonsio/wsr2/install/arcos_lab_mobile_platform_msgs/include/arcos_lab_mobile_platform_msgs/msg/mob_status.h
[3.959s] -- Up-to-date: /home/memonsio/wsr2/install/arcos_lab_mobile_platform_msgs/include/arcos_lab_mobile_platform_msgs/msg/mob_command.h
[3.959s] -- Up-to-date: /home/memonsio/wsr2/install/arcos_lab_mobile_platform_msgs/share/arcos_lab_mobile_platform_msgs/environment/library_path.sh
[3.959s] -- Up-to-date: /home/memonsio/wsr2/install/arcos_lab_mobile_platform_msgs/share/arcos_lab_mobile_platform_msgs/environment/library_path.dsv
[3.959s] -- Up-to-date: /home/memonsio/wsr2/install/arcos_lab_mobile_platform_msgs/lib/libarcos_lab_mobile_platform_msgs__rosidl_generator_c.so
[3.960s] -- Up-to-date: /home/memonsio/wsr2/install/arcos_lab_mobile_platform_msgs/include/arcos_lab_mobile_platform_msgs
[3.960s] -- Up-to-date: /home/memonsio/wsr2/install/arcos_lab_mobile_platform_msgs/include/arcos_lab_mobile_platform_msgs/srv
[3.960s] -- Up-to-date: /home/memonsio/wsr2/install/arcos_lab_mobile_platform_msgs/include/arcos_lab_mobile_platform_msgs/srv/detail
[3.960s] -- Up-to-date: /home/memonsio/wsr2/install/arcos_lab_mobile_platform_msgs/include/arcos_lab_mobile_platform_msgs/srv/detail/mob_enable__rosidl_typesupport_fastrtps_c.h
[3.960s] -- Up-to-date: /home/memonsio/wsr2/install/arcos_lab_mobile_platform_msgs/include/arcos_lab_mobile_platform_msgs/msg
[3.961s] -- Up-to-date: /home/memonsio/wsr2/install/arcos_lab_mobile_platform_msgs/include/arcos_lab_mobile_platform_msgs/msg/detail
[3.961s] -- Up-to-date: /home/memonsio/wsr2/install/arcos_lab_mobile_platform_msgs/include/arcos_lab_mobile_platform_msgs/msg/detail/mob_status__rosidl_typesupport_fastrtps_c.h
[3.962s] -- Up-to-date: /home/memonsio/wsr2/install/arcos_lab_mobile_platform_msgs/include/arcos_lab_mobile_platform_msgs/msg/detail/mob_command__rosidl_typesupport_fastrtps_c.h
[3.962s] -- Up-to-date: /home/memonsio/wsr2/install/arcos_lab_mobile_platform_msgs/include/arcos_lab_mobile_platform_msgs/msg/detail/mob_ext_torques__rosidl_typesupport_fastrtps_c.h
[3.987s] -- Up-to-date: /home/memonsio/wsr2/install/arcos_lab_mobile_platform_msgs/include/arcos_lab_mobile_platform_msgs/msg/rosidl_typesupport_fastrtps_c__visibility_control.h
[3.990s] -- Up-to-date: /home/memonsio/wsr2/install/arcos_lab_mobile_platform_msgs/lib/libarcos_lab_mobile_platform_msgs__rosidl_typesupport_fastrtps_c.so
[3.990s] -- Up-to-date: /home/memonsio/wsr2/install/arcos_lab_mobile_platform_msgs/include/arcos_lab_mobile_platform_msgs
[3.991s] -- Up-to-date: /home/memonsio/wsr2/install/arcos_lab_mobile_platform_msgs/include/arcos_lab_mobile_platform_msgs/srv
[3.991s] -- Up-to-date: /home/memonsio/wsr2/install/arcos_lab_mobile_platform_msgs/include/arcos_lab_mobile_platform_msgs/srv/detail
[3.991s] -- Up-to-date: /home/memonsio/wsr2/install/arcos_lab_mobile_platform_msgs/include/arcos_lab_mobile_platform_msgs/srv/detail/mob_enable__rosidl_typesupport_fastrtps_cpp.hpp
[3.991s] -- Up-to-date: /home/memonsio/wsr2/install/arcos_lab_mobile_platform_msgs/include/arcos_lab_mobile_platform_msgs/srv/detail/dds_fastrtps
[3.991s] -- Up-to-date: /home/memonsio/wsr2/install/arcos_lab_mobile_platform_msgs/include/arcos_lab_mobile_platform_msgs/msg
[3.992s] -- Up-to-date: /home/memonsio/wsr2/install/arcos_lab_mobile_platform_msgs/include/arcos_lab_mobile_platform_msgs/msg/detail
[3.992s] -- Up-to-date: /home/memonsio/wsr2/install/arcos_lab_mobile_platform_msgs/include/arcos_lab_mobile_platform_msgs/msg/detail/mob_status__rosidl_typesupport_fastrtps_cpp.hpp
[3.992s] -- Up-to-date: /home/memonsio/wsr2/install/arcos_lab_mobile_platform_msgs/include/arcos_lab_mobile_platform_msgs/msg/detail/dds_fastrtps
[3.992s] -- Up-to-date: /home/memonsio/wsr2/install/arcos_lab_mobile_platform_msgs/include/arcos_lab_mobile_platform_msgs/msg/detail/mob_command__rosidl_typesupport_fastrtps_cpp.hpp
[3.992s] -- Up-to-date: /home/memonsio/wsr2/install/arcos_lab_mobile_platform_msgs/include/arcos_lab_mobile_platform_msgs/msg/detail/mob_ext_torques__rosidl_typesupport_fastrtps_cpp.hpp
[3.993s] -- Up-to-date: /home/memonsio/wsr2/install/arcos_lab_mobile_platform_msgs/include/arcos_lab_mobile_platform_msgs/msg/rosidl_typesupport_fastrtps_cpp__visibility_control.h
[3.993s] -- Up-to-date: /home/memonsio/wsr2/install/arcos_lab_mobile_platform_msgs/lib/libarcos_lab_mobile_platform_msgs__rosidl_typesupport_fastrtps_cpp.so
[3.993s] -- Up-to-date: /home/memonsio/wsr2/install/arcos_lab_mobile_platform_msgs/include/arcos_lab_mobile_platform_msgs
[3.993s] -- Up-to-date: /home/memonsio/wsr2/install/arcos_lab_mobile_platform_msgs/include/arcos_lab_mobile_platform_msgs/srv
[3.994s] -- Up-to-date: /home/memonsio/wsr2/install/arcos_lab_mobile_platform_msgs/include/arcos_lab_mobile_platform_msgs/srv/detail
[3.994s] -- Up-to-date: /home/memonsio/wsr2/install/arcos_lab_mobile_platform_msgs/include/arcos_lab_mobile_platform_msgs/srv/detail/mob_enable__type_support.c
[3.994s] -- Up-to-date: /home/memonsio/wsr2/install/arcos_lab_mobile_platform_msgs/include/arcos_lab_mobile_platform_msgs/srv/detail/mob_enable__rosidl_typesupport_introspection_c.h
[3.994s] -- Up-to-date: /home/memonsio/wsr2/install/arcos_lab_mobile_platform_msgs/include/arcos_lab_mobile_platform_msgs/msg
[3.995s] -- Up-to-date: /home/memonsio/wsr2/install/arcos_lab_mobile_platform_msgs/include/arcos_lab_mobile_platform_msgs/msg/detail
[3.995s] -- Up-to-date: /home/memonsio/wsr2/install/arcos_lab_mobile_platform_msgs/include/arcos_lab_mobile_platform_msgs/msg/detail/mob_ext_torques__rosidl_typesupport_introspection_c.h
[3.995s] -- Up-to-date: /home/memonsio/wsr2/install/arcos_lab_mobile_platform_msgs/include/arcos_lab_mobile_platform_msgs/msg/detail/mob_status__type_support.c
[3.995s] -- Up-to-date: /home/memonsio/wsr2/install/arcos_lab_mobile_platform_msgs/include/arcos_lab_mobile_platform_msgs/msg/detail/mob_command__rosidl_typesupport_introspection_c.h
[3.995s] -- Up-to-date: /home/memonsio/wsr2/install/arcos_lab_mobile_platform_msgs/include/arcos_lab_mobile_platform_msgs/msg/detail/mob_ext_torques__type_support.c
[3.995s] -- Up-to-date: /home/memonsio/wsr2/install/arcos_lab_mobile_platform_msgs/include/arcos_lab_mobile_platform_msgs/msg/detail/mob_command__type_support.c
[3.996s] -- Up-to-date: /home/memonsio/wsr2/install/arcos_lab_mobile_platform_msgs/include/arcos_lab_mobile_platform_msgs/msg/detail/mob_status__rosidl_typesupport_introspection_c.h
[3.996s] -- Up-to-date: /home/memonsio/wsr2/install/arcos_lab_mobile_platform_msgs/include/arcos_lab_mobile_platform_msgs/msg/rosidl_typesupport_introspection_c__visibility_control.h
[3.996s] -- Up-to-date: /home/memonsio/wsr2/install/arcos_lab_mobile_platform_msgs/lib/libarcos_lab_mobile_platform_msgs__rosidl_typesupport_introspection_c.so
[3.996s] -- Up-to-date: /home/memonsio/wsr2/install/arcos_lab_mobile_platform_msgs/lib/libarcos_lab_mobile_platform_msgs__rosidl_typesupport_c.so
[3.996s] -- Up-to-date: /home/memonsio/wsr2/install/arcos_lab_mobile_platform_msgs/include/arcos_lab_mobile_platform_msgs
[3.997s] -- Up-to-date: /home/memonsio/wsr2/install/arcos_lab_mobile_platform_msgs/include/arcos_lab_mobile_platform_msgs/srv
[3.997s] -- Up-to-date: /home/memonsio/wsr2/install/arcos_lab_mobile_platform_msgs/include/arcos_lab_mobile_platform_msgs/srv/detail
[3.997s] -- Up-to-date: /home/memonsio/wsr2/install/arcos_lab_mobile_platform_msgs/include/arcos_lab_mobile_platform_msgs/srv/detail/mob_enable__struct.hpp
[3.997s] -- Up-to-date: /home/memonsio/wsr2/install/arcos_lab_mobile_platform_msgs/include/arcos_lab_mobile_platform_msgs/srv/detail/mob_enable__traits.hpp
[3.997s] -- Up-to-date: /home/memonsio/wsr2/install/arcos_lab_mobile_platform_msgs/include/arcos_lab_mobile_platform_msgs/srv/detail/mob_enable__builder.hpp
[3.998s] -- Up-to-date: /home/memonsio/wsr2/install/arcos_lab_mobile_platform_msgs/include/arcos_lab_mobile_platform_msgs/srv/mob_enable.hpp
[3.998s] -- Up-to-date: /home/memonsio/wsr2/install/arcos_lab_mobile_platform_msgs/include/arcos_lab_mobile_platform_msgs/msg
[3.998s] -- Up-to-date: /home/memonsio/wsr2/install/arcos_lab_mobile_platform_msgs/include/arcos_lab_mobile_platform_msgs/msg/mob_status.hpp
[3.998s] -- Up-to-date: /home/memonsio/wsr2/install/arcos_lab_mobile_platform_msgs/include/arcos_lab_mobile_platform_msgs/msg/detail
[3.999s] -- Up-to-date: /home/memonsio/wsr2/install/arcos_lab_mobile_platform_msgs/include/arcos_lab_mobile_platform_msgs/msg/detail/mob_status__builder.hpp
[4.000s] -- Up-to-date: /home/memonsio/wsr2/install/arcos_lab_mobile_platform_msgs/include/arcos_lab_mobile_platform_msgs/msg/detail/mob_ext_torques__struct.hpp
[4.004s] -- Up-to-date: /home/memonsio/wsr2/install/arcos_lab_mobile_platform_msgs/include/arcos_lab_mobile_platform_msgs/msg/detail/mob_ext_torques__builder.hpp
[4.004s] -- Up-to-date: /home/memonsio/wsr2/install/arcos_lab_mobile_platform_msgs/include/arcos_lab_mobile_platform_msgs/msg/detail/mob_command__struct.hpp
[4.004s] -- Up-to-date: /home/memonsio/wsr2/install/arcos_lab_mobile_platform_msgs/include/arcos_lab_mobile_platform_msgs/msg/detail/mob_status__traits.hpp
[4.005s] -- Up-to-date: /home/memonsio/wsr2/install/arcos_lab_mobile_platform_msgs/include/arcos_lab_mobile_platform_msgs/msg/detail/mob_command__traits.hpp
[4.005s] -- Up-to-date: /home/memonsio/wsr2/install/arcos_lab_mobile_platform_msgs/include/arcos_lab_mobile_platform_msgs/msg/detail/mob_status__struct.hpp
[4.005s] -- Up-to-date: /home/memonsio/wsr2/install/arcos_lab_mobile_platform_msgs/include/arcos_lab_mobile_platform_msgs/msg/detail/mob_command__builder.hpp
[4.005s] -- Up-to-date: /home/memonsio/wsr2/install/arcos_lab_mobile_platform_msgs/include/arcos_lab_mobile_platform_msgs/msg/detail/mob_ext_torques__traits.hpp
[4.006s] -- Up-to-date: /home/memonsio/wsr2/install/arcos_lab_mobile_platform_msgs/include/arcos_lab_mobile_platform_msgs/msg/mob_ext_torques.hpp
[4.006s] -- Up-to-date: /home/memonsio/wsr2/install/arcos_lab_mobile_platform_msgs/include/arcos_lab_mobile_platform_msgs/msg/mob_command.hpp
[4.006s] -- Up-to-date: /home/memonsio/wsr2/install/arcos_lab_mobile_platform_msgs/include/arcos_lab_mobile_platform_msgs
[4.007s] -- Up-to-date: /home/memonsio/wsr2/install/arcos_lab_mobile_platform_msgs/include/arcos_lab_mobile_platform_msgs/srv
[4.007s] -- Up-to-date: /home/memonsio/wsr2/install/arcos_lab_mobile_platform_msgs/include/arcos_lab_mobile_platform_msgs/srv/detail
[4.007s] -- Up-to-date: /home/memonsio/wsr2/install/arcos_lab_mobile_platform_msgs/include/arcos_lab_mobile_platform_msgs/srv/detail/mob_enable__type_support.cpp
[4.007s] -- Up-to-date: /home/memonsio/wsr2/install/arcos_lab_mobile_platform_msgs/include/arcos_lab_mobile_platform_msgs/srv/detail/mob_enable__rosidl_typesupport_introspection_cpp.hpp
[4.007s] -- Up-to-date: /home/memonsio/wsr2/install/arcos_lab_mobile_platform_msgs/include/arcos_lab_mobile_platform_msgs/msg
[4.008s] -- Up-to-date: /home/memonsio/wsr2/install/arcos_lab_mobile_platform_msgs/include/arcos_lab_mobile_platform_msgs/msg/detail
[4.008s] -- Up-to-date: /home/memonsio/wsr2/install/arcos_lab_mobile_platform_msgs/include/arcos_lab_mobile_platform_msgs/msg/detail/mob_ext_torques__rosidl_typesupport_introspection_cpp.hpp
[4.008s] -- Up-to-date: /home/memonsio/wsr2/install/arcos_lab_mobile_platform_msgs/include/arcos_lab_mobile_platform_msgs/msg/detail/mob_status__rosidl_typesupport_introspection_cpp.hpp
[4.009s] -- Up-to-date: /home/memonsio/wsr2/install/arcos_lab_mobile_platform_msgs/include/arcos_lab_mobile_platform_msgs/msg/detail/mob_command__rosidl_typesupport_introspection_cpp.hpp
[4.009s] -- Up-to-date: /home/memonsio/wsr2/install/arcos_lab_mobile_platform_msgs/include/arcos_lab_mobile_platform_msgs/msg/detail/mob_command__type_support.cpp
[4.009s] -- Up-to-date: /home/memonsio/wsr2/install/arcos_lab_mobile_platform_msgs/include/arcos_lab_mobile_platform_msgs/msg/detail/mob_ext_torques__type_support.cpp
[4.010s] -- Up-to-date: /home/memonsio/wsr2/install/arcos_lab_mobile_platform_msgs/include/arcos_lab_mobile_platform_msgs/msg/detail/mob_status__type_support.cpp
[4.010s] -- Up-to-date: /home/memonsio/wsr2/install/arcos_lab_mobile_platform_msgs/lib/libarcos_lab_mobile_platform_msgs__rosidl_typesupport_introspection_cpp.so
[4.010s] -- Up-to-date: /home/memonsio/wsr2/install/arcos_lab_mobile_platform_msgs/lib/libarcos_lab_mobile_platform_msgs__rosidl_typesupport_cpp.so
[4.011s] -- Up-to-date: /home/memonsio/wsr2/install/arcos_lab_mobile_platform_msgs/share/arcos_lab_mobile_platform_msgs/environment/pythonpath.sh
[4.011s] -- Up-to-date: /home/memonsio/wsr2/install/arcos_lab_mobile_platform_msgs/share/arcos_lab_mobile_platform_msgs/environment/pythonpath.dsv
[4.011s] -- Up-to-date: /home/memonsio/wsr2/install/arcos_lab_mobile_platform_msgs/lib/python3.8/site-packages/arcos_lab_mobile_platform_msgs/__init__.py
[4.036s] -- Up-to-date: /home/memonsio/wsr2/install/arcos_lab_mobile_platform_msgs/lib/python3.8/site-packages/arcos_lab_mobile_platform_msgs/msg
[4.036s] -- Up-to-date: /home/memonsio/wsr2/install/arcos_lab_mobile_platform_msgs/lib/python3.8/site-packages/arcos_lab_mobile_platform_msgs/msg/_mob_status_s.c
[4.036s] -- Up-to-date: /home/memonsio/wsr2/install/arcos_lab_mobile_platform_msgs/lib/python3.8/site-packages/arcos_lab_mobile_platform_msgs/msg/_mob_ext_torques.py
[4.037s] -- Up-to-date: /home/memonsio/wsr2/install/arcos_lab_mobile_platform_msgs/lib/python3.8/site-packages/arcos_lab_mobile_platform_msgs/msg/_mob_command.py
[4.037s] -- Up-to-date: /home/memonsio/wsr2/install/arcos_lab_mobile_platform_msgs/lib/python3.8/site-packages/arcos_lab_mobile_platform_msgs/msg/_mob_command_s.c
[4.037s] -- Up-to-date: /home/memonsio/wsr2/install/arcos_lab_mobile_platform_msgs/lib/python3.8/site-packages/arcos_lab_mobile_platform_msgs/msg/__init__.py
[4.037s] -- Up-to-date: /home/memonsio/wsr2/install/arcos_lab_mobile_platform_msgs/lib/python3.8/site-packages/arcos_lab_mobile_platform_msgs/msg/_mob_status.py
[4.038s] -- Up-to-date: /home/memonsio/wsr2/install/arcos_lab_mobile_platform_msgs/lib/python3.8/site-packages/arcos_lab_mobile_platform_msgs/msg/_mob_ext_torques_s.c
[4.038s] -- Up-to-date: /home/memonsio/wsr2/install/arcos_lab_mobile_platform_msgs/lib/python3.8/site-packages/arcos_lab_mobile_platform_msgs/srv
[4.039s] -- Up-to-date: /home/memonsio/wsr2/install/arcos_lab_mobile_platform_msgs/lib/python3.8/site-packages/arcos_lab_mobile_platform_msgs/srv/__init__.py
[4.039s] -- Up-to-date: /home/memonsio/wsr2/install/arcos_lab_mobile_platform_msgs/lib/python3.8/site-packages/arcos_lab_mobile_platform_msgs/srv/_mob_enable.py
[4.039s] -- Up-to-date: /home/memonsio/wsr2/install/arcos_lab_mobile_platform_msgs/lib/python3.8/site-packages/arcos_lab_mobile_platform_msgs/srv/_mob_enable_s.c
[4.039s] -- Up-to-date: /home/memonsio/wsr2/install/arcos_lab_mobile_platform_msgs/lib/python3.8/site-packages/arcos_lab_mobile_platform_msgs/arcos_lab_mobile_platform_msgs_s__rosidl_typesupport_fastrtps_c.cpython-38-x86_64-linux-gnu.so
[4.042s] -- Up-to-date: /home/memonsio/wsr2/install/arcos_lab_mobile_platform_msgs/lib/python3.8/site-packages/arcos_lab_mobile_platform_msgs/arcos_lab_mobile_platform_msgs_s__rosidl_typesupport_introspection_c.cpython-38-x86_64-linux-gnu.so
[4.042s] -- Up-to-date: /home/memonsio/wsr2/install/arcos_lab_mobile_platform_msgs/lib/python3.8/site-packages/arcos_lab_mobile_platform_msgs/arcos_lab_mobile_platform_msgs_s__rosidl_typesupport_c.cpython-38-x86_64-linux-gnu.so
[4.043s] -- Up-to-date: /home/memonsio/wsr2/install/arcos_lab_mobile_platform_msgs/lib/libarcos_lab_mobile_platform_msgs__python.so
[4.044s] -- Up-to-date: /home/memonsio/wsr2/install/arcos_lab_mobile_platform_msgs/share/arcos_lab_mobile_platform_msgs/msg/MobExtTorques.idl
[4.045s] -- Up-to-date: /home/memonsio/wsr2/install/arcos_lab_mobile_platform_msgs/share/arcos_lab_mobile_platform_msgs/msg/MobCommand.idl
[4.045s] -- Up-to-date: /home/memonsio/wsr2/install/arcos_lab_mobile_platform_msgs/share/arcos_lab_mobile_platform_msgs/msg/MobStatus.idl
[4.046s] -- Up-to-date: /home/memonsio/wsr2/install/arcos_lab_mobile_platform_msgs/share/arcos_lab_mobile_platform_msgs/srv/MobEnable.idl
[4.047s] -- Up-to-date: /home/memonsio/wsr2/install/arcos_lab_mobile_platform_msgs/share/arcos_lab_mobile_platform_msgs/msg/MobExtTorques.msg
[4.048s] -- Up-to-date: /home/memonsio/wsr2/install/arcos_lab_mobile_platform_msgs/share/arcos_lab_mobile_platform_msgs/msg/MobCommand.msg
[4.052s] -- Up-to-date: /home/memonsio/wsr2/install/arcos_lab_mobile_platform_msgs/share/arcos_lab_mobile_platform_msgs/msg/MobStatus.msg
[4.053s] -- Up-to-date: /home/memonsio/wsr2/install/arcos_lab_mobile_platform_msgs/share/arcos_lab_mobile_platform_msgs/srv/MobEnable.srv
[4.053s] -- Up-to-date: /home/memonsio/wsr2/install/arcos_lab_mobile_platform_msgs/share/arcos_lab_mobile_platform_msgs/srv/MobEnable_Request.msg
[4.053s] -- Up-to-date: /home/memonsio/wsr2/install/arcos_lab_mobile_platform_msgs/share/arcos_lab_mobile_platform_msgs/srv/MobEnable_Response.msg
[4.053s] -- Up-to-date: /home/memonsio/wsr2/install/arcos_lab_mobile_platform_msgs/share/ament_index/resource_index/package_run_dependencies/arcos_lab_mobile_platform_msgs
[4.054s] -- Up-to-date: /home/memonsio/wsr2/install/arcos_lab_mobile_platform_msgs/share/ament_index/resource_index/parent_prefix_path/arcos_lab_mobile_platform_msgs
[4.054s] -- Up-to-date: /home/memonsio/wsr2/install/arcos_lab_mobile_platform_msgs/share/arcos_lab_mobile_platform_msgs/environment/ament_prefix_path.sh
[4.054s] -- Up-to-date: /home/memonsio/wsr2/install/arcos_lab_mobile_platform_msgs/share/arcos_lab_mobile_platform_msgs/environment/ament_prefix_path.dsv
[4.056s] -- Up-to-date: /home/memonsio/wsr2/install/arcos_lab_mobile_platform_msgs/share/arcos_lab_mobile_platform_msgs/environment/path.sh
[4.056s] -- Up-to-date: /home/memonsio/wsr2/install/arcos_lab_mobile_platform_msgs/share/arcos_lab_mobile_platform_msgs/environment/path.dsv
[4.056s] -- Up-to-date: /home/memonsio/wsr2/install/arcos_lab_mobile_platform_msgs/share/arcos_lab_mobile_platform_msgs/local_setup.bash
[4.056s] -- Up-to-date: /home/memonsio/wsr2/install/arcos_lab_mobile_platform_msgs/share/arcos_lab_mobile_platform_msgs/local_setup.sh
[4.057s] -- Up-to-date: /home/memonsio/wsr2/install/arcos_lab_mobile_platform_msgs/share/arcos_lab_mobile_platform_msgs/local_setup.zsh
[4.058s] -- Up-to-date: /home/memonsio/wsr2/install/arcos_lab_mobile_platform_msgs/share/arcos_lab_mobile_platform_msgs/local_setup.dsv
[4.058s] -- Installing: /home/memonsio/wsr2/install/arcos_lab_mobile_platform_msgs/share/arcos_lab_mobile_platform_msgs/package.dsv
[4.058s] -- Up-to-date: /home/memonsio/wsr2/install/arcos_lab_mobile_platform_msgs/share/ament_index/resource_index/packages/arcos_lab_mobile_platform_msgs
[4.062s] -- Up-to-date: /home/memonsio/wsr2/install/arcos_lab_mobile_platform_msgs/share/arcos_lab_mobile_platform_msgs/cmake/arcos_lab_mobile_platform_msgs__rosidl_generator_cExport.cmake
[4.062s] -- Up-to-date: /home/memonsio/wsr2/install/arcos_lab_mobile_platform_msgs/share/arcos_lab_mobile_platform_msgs/cmake/arcos_lab_mobile_platform_msgs__rosidl_generator_cExport-noconfig.cmake
[4.063s] -- Up-to-date: /home/memonsio/wsr2/install/arcos_lab_mobile_platform_msgs/share/arcos_lab_mobile_platform_msgs/cmake/arcos_lab_mobile_platform_msgs__rosidl_typesupport_introspection_cExport.cmake
[4.063s] -- Up-to-date: /home/memonsio/wsr2/install/arcos_lab_mobile_platform_msgs/share/arcos_lab_mobile_platform_msgs/cmake/arcos_lab_mobile_platform_msgs__rosidl_typesupport_introspection_cExport-noconfig.cmake
[4.063s] -- Up-to-date: /home/memonsio/wsr2/install/arcos_lab_mobile_platform_msgs/share/arcos_lab_mobile_platform_msgs/cmake/arcos_lab_mobile_platform_msgs__rosidl_typesupport_cExport.cmake
[4.063s] -- Up-to-date: /home/memonsio/wsr2/install/arcos_lab_mobile_platform_msgs/share/arcos_lab_mobile_platform_msgs/cmake/arcos_lab_mobile_platform_msgs__rosidl_typesupport_cExport-noconfig.cmake
[4.064s] -- Up-to-date: /home/memonsio/wsr2/install/arcos_lab_mobile_platform_msgs/share/arcos_lab_mobile_platform_msgs/cmake/arcos_lab_mobile_platform_msgs__rosidl_generator_cppExport.cmake
[4.064s] -- Up-to-date: /home/memonsio/wsr2/install/arcos_lab_mobile_platform_msgs/share/arcos_lab_mobile_platform_msgs/cmake/arcos_lab_mobile_platform_msgs__rosidl_typesupport_introspection_cppExport.cmake
[4.074s] -- Up-to-date: /home/memonsio/wsr2/install/arcos_lab_mobile_platform_msgs/share/arcos_lab_mobile_platform_msgs/cmake/arcos_lab_mobile_platform_msgs__rosidl_typesupport_introspection_cppExport-noconfig.cmake
[4.075s] -- Up-to-date: /home/memonsio/wsr2/install/arcos_lab_mobile_platform_msgs/share/arcos_lab_mobile_platform_msgs/cmake/arcos_lab_mobile_platform_msgs__rosidl_typesupport_cppExport.cmake
[4.075s] -- Up-to-date: /home/memonsio/wsr2/install/arcos_lab_mobile_platform_msgs/share/arcos_lab_mobile_platform_msgs/cmake/arcos_lab_mobile_platform_msgs__rosidl_typesupport_cppExport-noconfig.cmake
[4.075s] -- Up-to-date: /home/memonsio/wsr2/install/arcos_lab_mobile_platform_msgs/share/arcos_lab_mobile_platform_msgs/cmake/rosidl_cmake-extras.cmake
[4.076s] -- Up-to-date: /home/memonsio/wsr2/install/arcos_lab_mobile_platform_msgs/share/arcos_lab_mobile_platform_msgs/cmake/ament_cmake_export_dependencies-extras.cmake
[4.076s] -- Up-to-date: /home/memonsio/wsr2/install/arcos_lab_mobile_platform_msgs/share/arcos_lab_mobile_platform_msgs/cmake/ament_cmake_export_libraries-extras.cmake
[4.076s] -- Up-to-date: /home/memonsio/wsr2/install/arcos_lab_mobile_platform_msgs/share/arcos_lab_mobile_platform_msgs/cmake/ament_cmake_export_targets-extras.cmake
[4.076s] -- Up-to-date: /home/memonsio/wsr2/install/arcos_lab_mobile_platform_msgs/share/arcos_lab_mobile_platform_msgs/cmake/ament_cmake_export_include_directories-extras.cmake
[4.077s] -- Up-to-date: /home/memonsio/wsr2/install/arcos_lab_mobile_platform_msgs/share/arcos_lab_mobile_platform_msgs/cmake/rosidl_cmake_export_typesupport_libraries-extras.cmake
[4.077s] -- Up-to-date: /home/memonsio/wsr2/install/arcos_lab_mobile_platform_msgs/share/arcos_lab_mobile_platform_msgs/cmake/rosidl_cmake_export_typesupport_targets-extras.cmake
[4.077s] -- Up-to-date: /home/memonsio/wsr2/install/arcos_lab_mobile_platform_msgs/share/arcos_lab_mobile_platform_msgs/cmake/arcos_lab_mobile_platform_msgsConfig.cmake
[4.077s] -- Up-to-date: /home/memonsio/wsr2/install/arcos_lab_mobile_platform_msgs/share/arcos_lab_mobile_platform_msgs/cmake/arcos_lab_mobile_platform_msgsConfig-version.cmake
[4.077s] -- Up-to-date: /home/memonsio/wsr2/install/arcos_lab_mobile_platform_msgs/share/arcos_lab_mobile_platform_msgs/package.xml
[4.828s] Invoked command in '/home/memonsio/wsr2/build/arcos_lab_mobile_platform_msgs' returned '0': CMAKE_PREFIX_PATH=${CMAKE_PREFIX_PATH}:/home/memonsio/wsr2/install/wessling_hand_urdf:/home/memonsio/wsr2/install/wessling_hand_sim:/home/memonsio/wsr2/install/py_srvcli:/home/memonsio/wsr2/install/learning_tf2_py:/home/memonsio/wsr2/install/kuka_lwr4plus_urdf:/home/memonsio/wsr2/install/kuka_lwr4plus_sim:/home/memonsio/wsr2/install/arcos_lab_mobile_platform_urdf:/home/memonsio/wsr2/install/arcos_lab_mobile_platform_sim:/home/memonsio/wsr2/install/arcos-lab-humanoid-startup-sim:/home/memonsio/wsr2/install/arcos-lab-humanoid-robot-descriptions:/opt/ros/foxy /usr/bin/cmake --install /home/memonsio/wsr2/build/arcos_lab_mobile_platform_msgs
