[0.511s] Invoking command in '/home/memonsio/wsr2/build/fri_ros2': CMAKE_PREFIX_PATH=${CMAKE_PREFIX_PATH}:/home/memonsio/wsr2/install/wessling_hand_urdf:/home/memonsio/wsr2/install/wessling_hand_sim:/home/memonsio/wsr2/install/py_srvcli:/home/memonsio/wsr2/install/kuka_lwr4plus_urdf:/home/memonsio/wsr2/install/kuka_lwr4plus_sim:/home/memonsio/wsr2/install/arcos_lab_mobile_platform_urdf:/home/memonsio/wsr2/install/arcos_lab_mobile_platform_sim:/home/memonsio/wsr2/install/arcos-lab-humanoid-startup-sim:/home/memonsio/wsr2/install/arcos-lab-humanoid-robot-descriptions:/opt/ros/foxy /usr/bin/cmake --build /home/memonsio/wsr2/build/fri_ros2 -- -j4 -l4
[0.629s] [100%] Built target fri_interface
[0.659s] Invoked command in '/home/memonsio/wsr2/build/fri_ros2' returned '0': CMAKE_PREFIX_PATH=${CMAKE_PREFIX_PATH}:/home/memonsio/wsr2/install/wessling_hand_urdf:/home/memonsio/wsr2/install/wessling_hand_sim:/home/memonsio/wsr2/install/py_srvcli:/home/memonsio/wsr2/install/kuka_lwr4plus_urdf:/home/memonsio/wsr2/install/kuka_lwr4plus_sim:/home/memonsio/wsr2/install/arcos_lab_mobile_platform_urdf:/home/memonsio/wsr2/install/arcos_lab_mobile_platform_sim:/home/memonsio/wsr2/install/arcos-lab-humanoid-startup-sim:/home/memonsio/wsr2/install/arcos-lab-humanoid-robot-descriptions:/opt/ros/foxy /usr/bin/cmake --build /home/memonsio/wsr2/build/fri_ros2 -- -j4 -l4
[0.711s] Invoking command in '/home/memonsio/wsr2/build/fri_ros2': CMAKE_PREFIX_PATH=${CMAKE_PREFIX_PATH}:/home/memonsio/wsr2/install/wessling_hand_urdf:/home/memonsio/wsr2/install/wessling_hand_sim:/home/memonsio/wsr2/install/py_srvcli:/home/memonsio/wsr2/install/kuka_lwr4plus_urdf:/home/memonsio/wsr2/install/kuka_lwr4plus_sim:/home/memonsio/wsr2/install/arcos_lab_mobile_platform_urdf:/home/memonsio/wsr2/install/arcos_lab_mobile_platform_sim:/home/memonsio/wsr2/install/arcos-lab-humanoid-startup-sim:/home/memonsio/wsr2/install/arcos-lab-humanoid-robot-descriptions:/opt/ros/foxy /usr/bin/cmake --install /home/memonsio/wsr2/build/fri_ros2
[0.730s] -- Install configuration: ""
[0.730s] -- Up-to-date: /home/memonsio/wsr2/install/fri_ros2/share/ament_index/resource_index/package_run_dependencies/fri_ros2
[0.730s] -- Up-to-date: /home/memonsio/wsr2/install/fri_ros2/share/ament_index/resource_index/parent_prefix_path/fri_ros2
[0.730s] -- Up-to-date: /home/memonsio/wsr2/install/fri_ros2/share/fri_ros2/environment/ament_prefix_path.sh
[0.731s] -- Up-to-date: /home/memonsio/wsr2/install/fri_ros2/share/fri_ros2/environment/ament_prefix_path.dsv
[0.731s] -- Up-to-date: /home/memonsio/wsr2/install/fri_ros2/share/fri_ros2/environment/path.sh
[0.731s] -- Up-to-date: /home/memonsio/wsr2/install/fri_ros2/share/fri_ros2/environment/path.dsv
[0.731s] -- Up-to-date: /home/memonsio/wsr2/install/fri_ros2/share/fri_ros2/local_setup.bash
[0.732s] -- Up-to-date: /home/memonsio/wsr2/install/fri_ros2/share/fri_ros2/local_setup.sh
[0.732s] -- Up-to-date: /home/memonsio/wsr2/install/fri_ros2/share/fri_ros2/local_setup.zsh
[0.732s] -- Up-to-date: /home/memonsio/wsr2/install/fri_ros2/share/fri_ros2/local_setup.dsv
[0.732s] -- Installing: /home/memonsio/wsr2/install/fri_ros2/share/fri_ros2/package.dsv
[0.733s] -- Up-to-date: /home/memonsio/wsr2/install/fri_ros2/share/ament_index/resource_index/packages/fri_ros2
[0.733s] -- Up-to-date: /home/memonsio/wsr2/install/fri_ros2/share/fri_ros2/cmake/fri_ros2Config.cmake
[0.733s] -- Up-to-date: /home/memonsio/wsr2/install/fri_ros2/share/fri_ros2/cmake/fri_ros2Config-version.cmake
[0.734s] -- Up-to-date: /home/memonsio/wsr2/install/fri_ros2/share/fri_ros2/package.xml
[0.734s] -- Up-to-date: /home/memonsio/wsr2/install/fri_ros2/lib/fri_ros2/fri_interface
[0.739s] Invoked command in '/home/memonsio/wsr2/build/fri_ros2' returned '0': CMAKE_PREFIX_PATH=${CMAKE_PREFIX_PATH}:/home/memonsio/wsr2/install/wessling_hand_urdf:/home/memonsio/wsr2/install/wessling_hand_sim:/home/memonsio/wsr2/install/py_srvcli:/home/memonsio/wsr2/install/kuka_lwr4plus_urdf:/home/memonsio/wsr2/install/kuka_lwr4plus_sim:/home/memonsio/wsr2/install/arcos_lab_mobile_platform_urdf:/home/memonsio/wsr2/install/arcos_lab_mobile_platform_sim:/home/memonsio/wsr2/install/arcos-lab-humanoid-startup-sim:/home/memonsio/wsr2/install/arcos-lab-humanoid-robot-descriptions:/opt/ros/foxy /usr/bin/cmake --install /home/memonsio/wsr2/build/fri_ros2
