[1.090s] Invoking command in '/home/memonsio/wsr2/src/py_srvcli': CMAKE_PREFIX_PATH=/home/memonsio/wsr2/install/tutorial_interfaces:/home/memonsio/wsr2/install/wessling_hand_msgs:/home/memonsio/wsr2/install/robot_example_msgs:/home/memonsio/wsr2/install/kuka_lwr4plus_msgs:/home/memonsio/wsr2/install/fri_ros2:/home/memonsio/wsr2/install/arcos_lab_mobile_platform_msgs LD_LIBRARY_PATH=/home/memonsio/wsr2/install/tutorial_interfaces/lib:/home/memonsio/wsr2/install/wessling_hand_msgs/lib:/home/memonsio/wsr2/install/robot_example_msgs/lib:/home/memonsio/wsr2/install/kuka_lwr4plus_msgs/lib:/home/memonsio/wsr2/install/arcos_lab_mobile_platform_msgs/lib:/opt/ros/foxy/opt/yaml_cpp_vendor/lib:/opt/ros/foxy/opt/rviz_ogre_vendor/lib:/opt/ros/foxy/lib/x86_64-linux-gnu:/opt/ros/foxy/lib PYTHONPATH=/home/memonsio/wsr2/install/py_srvcli/lib/python3.8/site-packages:/home/memonsio/wsr2/install/tutorial_interfaces/lib/python3.8/site-packages:/home/memonsio/wsr2/install/wessling_hand_urdf/lib/python3.8/site-packages:/home/memonsio/wsr2/install/wessling_hand_sim/lib/python3.8/site-packages:/home/memonsio/wsr2/install/wessling_hand_msgs/lib/python3.8/site-packages:/home/memonsio/wsr2/install/py_srvcli/lib/python3.8/site-packages:/home/memonsio/wsr2/install/robot_example_urdf/lib/python3.8/site-packages:/home/memonsio/wsr2/install/robot_example_sim/lib/python3.8/site-packages:/home/memonsio/wsr2/install/robot_example_msgs/lib/python3.8/site-packages:/home/memonsio/wsr2/install/learning_tf2_py/lib/python3.8/site-packages:/home/memonsio/wsr2/install/kuka_lwr4plus_urdf/lib/python3.8/site-packages:/home/memonsio/wsr2/install/kuka_lwr4plus_sim/lib/python3.8/site-packages:/home/memonsio/wsr2/install/kuka_lwr4plus_msgs/lib/python3.8/site-packages:/home/memonsio/wsr2/install/arcos_lab_mobile_platform_urdf/lib/python3.8/site-packages:/home/memonsio/wsr2/install/arcos_lab_mobile_platform_sim/lib/python3.8/site-packages:/home/memonsio/wsr2/install/arcos_lab_mobile_platform_msgs/lib/python3.8/site-packages:/home/memonsio/wsr2/install/arcos-lab-humanoid-startup-sim/lib/python3.8/site-packages:/home/memonsio/wsr2/install/arcos-lab-humanoid-robot-descriptions/lib/python3.8/site-packages:/opt/ros/foxy/lib/python3.8/site-packages /usr/bin/python3 setup.py egg_info --egg-base ../../build/py_srvcli build --build-base /home/memonsio/wsr2/build/py_srvcli/build install --prefix /home/memonsio/wsr2/install/py_srvcli --record /home/memonsio/wsr2/build/py_srvcli/install.log --single-version-externally-managed
[1.677s] running egg_info
[1.678s] writing ../../build/py_srvcli/py_srvcli.egg-info/PKG-INFO
[1.678s] writing dependency_links to ../../build/py_srvcli/py_srvcli.egg-info/dependency_links.txt
[1.679s] writing entry points to ../../build/py_srvcli/py_srvcli.egg-info/entry_points.txt
[1.679s] writing requirements to ../../build/py_srvcli/py_srvcli.egg-info/requires.txt
[1.679s] writing top-level names to ../../build/py_srvcli/py_srvcli.egg-info/top_level.txt
[1.737s] reading manifest file '../../build/py_srvcli/py_srvcli.egg-info/SOURCES.txt'
[1.739s] writing manifest file '../../build/py_srvcli/py_srvcli.egg-info/SOURCES.txt'
[1.739s] running build
[1.739s] running build_py
[1.740s] running install
[1.741s] running install_lib
[1.744s] running install_data
[1.745s] running install_egg_info
[1.747s] removing '/home/memonsio/wsr2/install/py_srvcli/lib/python3.8/site-packages/py_srvcli-0.0.0-py3.8.egg-info' (and everything under it)
[1.748s] Copying ../../build/py_srvcli/py_srvcli.egg-info to /home/memonsio/wsr2/install/py_srvcli/lib/python3.8/site-packages/py_srvcli-0.0.0-py3.8.egg-info
[1.750s] running install_scripts
[1.776s] Installing client script to /home/memonsio/wsr2/install/py_srvcli/lib/py_srvcli
[1.776s] Installing service script to /home/memonsio/wsr2/install/py_srvcli/lib/py_srvcli
[1.777s] writing list of installed files to '/home/memonsio/wsr2/build/py_srvcli/install.log'
[1.816s] Invoked command in '/home/memonsio/wsr2/src/py_srvcli' returned '0': CMAKE_PREFIX_PATH=/home/memonsio/wsr2/install/tutorial_interfaces:/home/memonsio/wsr2/install/wessling_hand_msgs:/home/memonsio/wsr2/install/robot_example_msgs:/home/memonsio/wsr2/install/kuka_lwr4plus_msgs:/home/memonsio/wsr2/install/fri_ros2:/home/memonsio/wsr2/install/arcos_lab_mobile_platform_msgs LD_LIBRARY_PATH=/home/memonsio/wsr2/install/tutorial_interfaces/lib:/home/memonsio/wsr2/install/wessling_hand_msgs/lib:/home/memonsio/wsr2/install/robot_example_msgs/lib:/home/memonsio/wsr2/install/kuka_lwr4plus_msgs/lib:/home/memonsio/wsr2/install/arcos_lab_mobile_platform_msgs/lib:/opt/ros/foxy/opt/yaml_cpp_vendor/lib:/opt/ros/foxy/opt/rviz_ogre_vendor/lib:/opt/ros/foxy/lib/x86_64-linux-gnu:/opt/ros/foxy/lib PYTHONPATH=/home/memonsio/wsr2/install/py_srvcli/lib/python3.8/site-packages:/home/memonsio/wsr2/install/tutorial_interfaces/lib/python3.8/site-packages:/home/memonsio/wsr2/install/wessling_hand_urdf/lib/python3.8/site-packages:/home/memonsio/wsr2/install/wessling_hand_sim/lib/python3.8/site-packages:/home/memonsio/wsr2/install/wessling_hand_msgs/lib/python3.8/site-packages:/home/memonsio/wsr2/install/py_srvcli/lib/python3.8/site-packages:/home/memonsio/wsr2/install/robot_example_urdf/lib/python3.8/site-packages:/home/memonsio/wsr2/install/robot_example_sim/lib/python3.8/site-packages:/home/memonsio/wsr2/install/robot_example_msgs/lib/python3.8/site-packages:/home/memonsio/wsr2/install/learning_tf2_py/lib/python3.8/site-packages:/home/memonsio/wsr2/install/kuka_lwr4plus_urdf/lib/python3.8/site-packages:/home/memonsio/wsr2/install/kuka_lwr4plus_sim/lib/python3.8/site-packages:/home/memonsio/wsr2/install/kuka_lwr4plus_msgs/lib/python3.8/site-packages:/home/memonsio/wsr2/install/arcos_lab_mobile_platform_urdf/lib/python3.8/site-packages:/home/memonsio/wsr2/install/arcos_lab_mobile_platform_sim/lib/python3.8/site-packages:/home/memonsio/wsr2/install/arcos_lab_mobile_platform_msgs/lib/python3.8/site-packages:/home/memonsio/wsr2/install/arcos-lab-humanoid-startup-sim/lib/python3.8/site-packages:/home/memonsio/wsr2/install/arcos-lab-humanoid-robot-descriptions/lib/python3.8/site-packages:/opt/ros/foxy/lib/python3.8/site-packages /usr/bin/python3 setup.py egg_info --egg-base ../../build/py_srvcli build --build-base /home/memonsio/wsr2/build/py_srvcli/build install --prefix /home/memonsio/wsr2/install/py_srvcli --record /home/memonsio/wsr2/build/py_srvcli/install.log --single-version-externally-managed
