[  0%] Built target wessling_hand_msgs__cpp
[ 12%] Built target wessling_hand_msgs__rosidl_generator_c
[ 23%] Built target wessling_hand_msgs__rosidl_typesupport_fastrtps_cpp
[ 35%] Built target wessling_hand_msgs__rosidl_typesupport_cpp
[ 47%] Built target wessling_hand_msgs__rosidl_typesupport_introspection_cpp
[ 59%] Built target wessling_hand_msgs__rosidl_typesupport_introspection_c
[ 70%] Built target wessling_hand_msgs__rosidl_typesupport_c
[ 82%] Built target wessling_hand_msgs__rosidl_typesupport_fastrtps_c
[ 82%] Built target wessling_hand_msgs
[ 83%] Built target wessling_hand_msgs__py
[ 94%] Built target wessling_hand_msgs__python
[ 96%] Built target wessling_hand_msgs__rosidl_typesupport_fastrtps_c__pyext
[ 98%] Built target wessling_hand_msgs__rosidl_typesupport_c__pyext
[100%] Built target wessling_hand_msgs__rosidl_typesupport_introspection_c__pyext
-- Install configuration: ""
-- Up-to-date: /home/memonsio/wsr2/install/wessling_hand_msgs/share/ament_index/resource_index/rosidl_interfaces/wessling_hand_msgs
-- Up-to-date: /home/memonsio/wsr2/install/wessling_hand_msgs/include/wessling_hand_msgs
-- Up-to-date: /home/memonsio/wsr2/install/wessling_hand_msgs/include/wessling_hand_msgs/srv
-- Up-to-date: /home/memonsio/wsr2/install/wessling_hand_msgs/include/wessling_hand_msgs/srv/detail
-- Up-to-date: /home/memonsio/wsr2/install/wessling_hand_msgs/include/wessling_hand_msgs/srv/detail/enable_hands__functions.c
-- Up-to-date: /home/memonsio/wsr2/install/wessling_hand_msgs/include/wessling_hand_msgs/srv/detail/enable_hands__struct.h
-- Up-to-date: /home/memonsio/wsr2/install/wessling_hand_msgs/include/wessling_hand_msgs/srv/detail/enable_hands__functions.h
-- Up-to-date: /home/memonsio/wsr2/install/wessling_hand_msgs/include/wessling_hand_msgs/srv/detail/enable_hands__type_support.h
-- Up-to-date: /home/memonsio/wsr2/install/wessling_hand_msgs/include/wessling_hand_msgs/srv/enable_hands.h
-- Up-to-date: /home/memonsio/wsr2/install/wessling_hand_msgs/include/wessling_hand_msgs/msg
-- Up-to-date: /home/memonsio/wsr2/install/wessling_hand_msgs/include/wessling_hand_msgs/msg/finger_status.h
-- Up-to-date: /home/memonsio/wsr2/install/wessling_hand_msgs/include/wessling_hand_msgs/msg/finger_command.h
-- Up-to-date: /home/memonsio/wsr2/install/wessling_hand_msgs/include/wessling_hand_msgs/msg/hand_status.h
-- Up-to-date: /home/memonsio/wsr2/install/wessling_hand_msgs/include/wessling_hand_msgs/msg/rosidl_generator_c__visibility_control.h
-- Up-to-date: /home/memonsio/wsr2/install/wessling_hand_msgs/include/wessling_hand_msgs/msg/system_ext_torques.h
-- Up-to-date: /home/memonsio/wsr2/install/wessling_hand_msgs/include/wessling_hand_msgs/msg/hand_command.h
-- Up-to-date: /home/memonsio/wsr2/install/wessling_hand_msgs/include/wessling_hand_msgs/msg/detail
-- Up-to-date: /home/memonsio/wsr2/install/wessling_hand_msgs/include/wessling_hand_msgs/msg/detail/system_command__struct.h
-- Up-to-date: /home/memonsio/wsr2/install/wessling_hand_msgs/include/wessling_hand_msgs/msg/detail/finger_command__functions.c
-- Up-to-date: /home/memonsio/wsr2/install/wessling_hand_msgs/include/wessling_hand_msgs/msg/detail/finger_status__struct.h
-- Up-to-date: /home/memonsio/wsr2/install/wessling_hand_msgs/include/wessling_hand_msgs/msg/detail/hand_status__type_support.h
-- Up-to-date: /home/memonsio/wsr2/install/wessling_hand_msgs/include/wessling_hand_msgs/msg/detail/finger_command__functions.h
-- Up-to-date: /home/memonsio/wsr2/install/wessling_hand_msgs/include/wessling_hand_msgs/msg/detail/hand_ext_torques__type_support.h
-- Up-to-date: /home/memonsio/wsr2/install/wessling_hand_msgs/include/wessling_hand_msgs/msg/detail/hand_command__functions.c
-- Up-to-date: /home/memonsio/wsr2/install/wessling_hand_msgs/include/wessling_hand_msgs/msg/detail/system_command__functions.h
-- Up-to-date: /home/memonsio/wsr2/install/wessling_hand_msgs/include/wessling_hand_msgs/msg/detail/system_ext_torques__functions.c
-- Up-to-date: /home/memonsio/wsr2/install/wessling_hand_msgs/include/wessling_hand_msgs/msg/detail/finger_ext_torques__struct.h
-- Up-to-date: /home/memonsio/wsr2/install/wessling_hand_msgs/include/wessling_hand_msgs/msg/detail/hand_command__struct.h
-- Up-to-date: /home/memonsio/wsr2/install/wessling_hand_msgs/include/wessling_hand_msgs/msg/detail/finger_command__type_support.h
-- Up-to-date: /home/memonsio/wsr2/install/wessling_hand_msgs/include/wessling_hand_msgs/msg/detail/system_ext_torques__type_support.h
-- Up-to-date: /home/memonsio/wsr2/install/wessling_hand_msgs/include/wessling_hand_msgs/msg/detail/finger_ext_torques__functions.c
-- Up-to-date: /home/memonsio/wsr2/install/wessling_hand_msgs/include/wessling_hand_msgs/msg/detail/system_ext_torques__functions.h
-- Up-to-date: /home/memonsio/wsr2/install/wessling_hand_msgs/include/wessling_hand_msgs/msg/detail/system_status__struct.h
-- Up-to-date: /home/memonsio/wsr2/install/wessling_hand_msgs/include/wessling_hand_msgs/msg/detail/system_status__functions.h
-- Up-to-date: /home/memonsio/wsr2/install/wessling_hand_msgs/include/wessling_hand_msgs/msg/detail/hand_status__struct.h
-- Up-to-date: /home/memonsio/wsr2/install/wessling_hand_msgs/include/wessling_hand_msgs/msg/detail/system_command__type_support.h
-- Up-to-date: /home/memonsio/wsr2/install/wessling_hand_msgs/include/wessling_hand_msgs/msg/detail/finger_status__functions.c
-- Up-to-date: /home/memonsio/wsr2/install/wessling_hand_msgs/include/wessling_hand_msgs/msg/detail/hand_ext_torques__functions.c
-- Up-to-date: /home/memonsio/wsr2/install/wessling_hand_msgs/include/wessling_hand_msgs/msg/detail/system_ext_torques__struct.h
-- Up-to-date: /home/memonsio/wsr2/install/wessling_hand_msgs/include/wessling_hand_msgs/msg/detail/hand_command__functions.h
-- Up-to-date: /home/memonsio/wsr2/install/wessling_hand_msgs/include/wessling_hand_msgs/msg/detail/hand_status__functions.c
-- Up-to-date: /home/memonsio/wsr2/install/wessling_hand_msgs/include/wessling_hand_msgs/msg/detail/hand_ext_torques__functions.h
-- Up-to-date: /home/memonsio/wsr2/install/wessling_hand_msgs/include/wessling_hand_msgs/msg/detail/finger_command__struct.h
-- Up-to-date: /home/memonsio/wsr2/install/wessling_hand_msgs/include/wessling_hand_msgs/msg/detail/system_status__functions.c
-- Up-to-date: /home/memonsio/wsr2/install/wessling_hand_msgs/include/wessling_hand_msgs/msg/detail/finger_status__type_support.h
-- Up-to-date: /home/memonsio/wsr2/install/wessling_hand_msgs/include/wessling_hand_msgs/msg/detail/system_status__type_support.h
-- Up-to-date: /home/memonsio/wsr2/install/wessling_hand_msgs/include/wessling_hand_msgs/msg/detail/system_command__functions.c
-- Up-to-date: /home/memonsio/wsr2/install/wessling_hand_msgs/include/wessling_hand_msgs/msg/detail/hand_ext_torques__struct.h
-- Up-to-date: /home/memonsio/wsr2/install/wessling_hand_msgs/include/wessling_hand_msgs/msg/detail/finger_status__functions.h
-- Up-to-date: /home/memonsio/wsr2/install/wessling_hand_msgs/include/wessling_hand_msgs/msg/detail/hand_status__functions.h
-- Up-to-date: /home/memonsio/wsr2/install/wessling_hand_msgs/include/wessling_hand_msgs/msg/detail/finger_ext_torques__functions.h
-- Up-to-date: /home/memonsio/wsr2/install/wessling_hand_msgs/include/wessling_hand_msgs/msg/detail/finger_ext_torques__type_support.h
-- Up-to-date: /home/memonsio/wsr2/install/wessling_hand_msgs/include/wessling_hand_msgs/msg/detail/hand_command__type_support.h
-- Up-to-date: /home/memonsio/wsr2/install/wessling_hand_msgs/include/wessling_hand_msgs/msg/system_status.h
-- Up-to-date: /home/memonsio/wsr2/install/wessling_hand_msgs/include/wessling_hand_msgs/msg/system_command.h
-- Up-to-date: /home/memonsio/wsr2/install/wessling_hand_msgs/include/wessling_hand_msgs/msg/hand_ext_torques.h
-- Up-to-date: /home/memonsio/wsr2/install/wessling_hand_msgs/include/wessling_hand_msgs/msg/finger_ext_torques.h
-- Up-to-date: /home/memonsio/wsr2/install/wessling_hand_msgs/share/wessling_hand_msgs/environment/library_path.sh
-- Up-to-date: /home/memonsio/wsr2/install/wessling_hand_msgs/share/wessling_hand_msgs/environment/library_path.dsv
-- Up-to-date: /home/memonsio/wsr2/install/wessling_hand_msgs/lib/libwessling_hand_msgs__rosidl_generator_c.so
-- Up-to-date: /home/memonsio/wsr2/install/wessling_hand_msgs/include/wessling_hand_msgs
-- Up-to-date: /home/memonsio/wsr2/install/wessling_hand_msgs/include/wessling_hand_msgs/srv
-- Up-to-date: /home/memonsio/wsr2/install/wessling_hand_msgs/include/wessling_hand_msgs/srv/detail
-- Up-to-date: /home/memonsio/wsr2/install/wessling_hand_msgs/include/wessling_hand_msgs/srv/detail/enable_hands__rosidl_typesupport_fastrtps_c.h
-- Up-to-date: /home/memonsio/wsr2/install/wessling_hand_msgs/include/wessling_hand_msgs/msg
-- Up-to-date: /home/memonsio/wsr2/install/wessling_hand_msgs/include/wessling_hand_msgs/msg/detail
-- Up-to-date: /home/memonsio/wsr2/install/wessling_hand_msgs/include/wessling_hand_msgs/msg/detail/system_ext_torques__rosidl_typesupport_fastrtps_c.h
-- Up-to-date: /home/memonsio/wsr2/install/wessling_hand_msgs/include/wessling_hand_msgs/msg/detail/system_status__rosidl_typesupport_fastrtps_c.h
-- Up-to-date: /home/memonsio/wsr2/install/wessling_hand_msgs/include/wessling_hand_msgs/msg/detail/hand_ext_torques__rosidl_typesupport_fastrtps_c.h
-- Up-to-date: /home/memonsio/wsr2/install/wessling_hand_msgs/include/wessling_hand_msgs/msg/detail/finger_ext_torques__rosidl_typesupport_fastrtps_c.h
-- Up-to-date: /home/memonsio/wsr2/install/wessling_hand_msgs/include/wessling_hand_msgs/msg/detail/system_command__rosidl_typesupport_fastrtps_c.h
-- Up-to-date: /home/memonsio/wsr2/install/wessling_hand_msgs/include/wessling_hand_msgs/msg/detail/hand_command__rosidl_typesupport_fastrtps_c.h
-- Up-to-date: /home/memonsio/wsr2/install/wessling_hand_msgs/include/wessling_hand_msgs/msg/detail/hand_status__rosidl_typesupport_fastrtps_c.h
-- Up-to-date: /home/memonsio/wsr2/install/wessling_hand_msgs/include/wessling_hand_msgs/msg/detail/finger_status__rosidl_typesupport_fastrtps_c.h
-- Up-to-date: /home/memonsio/wsr2/install/wessling_hand_msgs/include/wessling_hand_msgs/msg/detail/finger_command__rosidl_typesupport_fastrtps_c.h
-- Up-to-date: /home/memonsio/wsr2/install/wessling_hand_msgs/include/wessling_hand_msgs/msg/rosidl_typesupport_fastrtps_c__visibility_control.h
-- Up-to-date: /home/memonsio/wsr2/install/wessling_hand_msgs/lib/libwessling_hand_msgs__rosidl_typesupport_fastrtps_c.so
-- Up-to-date: /home/memonsio/wsr2/install/wessling_hand_msgs/include/wessling_hand_msgs
-- Up-to-date: /home/memonsio/wsr2/install/wessling_hand_msgs/include/wessling_hand_msgs/srv
-- Up-to-date: /home/memonsio/wsr2/install/wessling_hand_msgs/include/wessling_hand_msgs/srv/detail
-- Up-to-date: /home/memonsio/wsr2/install/wessling_hand_msgs/include/wessling_hand_msgs/srv/detail/enable_hands__rosidl_typesupport_fastrtps_cpp.hpp
-- Up-to-date: /home/memonsio/wsr2/install/wessling_hand_msgs/include/wessling_hand_msgs/srv/detail/dds_fastrtps
-- Up-to-date: /home/memonsio/wsr2/install/wessling_hand_msgs/include/wessling_hand_msgs/msg
-- Up-to-date: /home/memonsio/wsr2/install/wessling_hand_msgs/include/wessling_hand_msgs/msg/detail
-- Up-to-date: /home/memonsio/wsr2/install/wessling_hand_msgs/include/wessling_hand_msgs/msg/detail/finger_status__rosidl_typesupport_fastrtps_cpp.hpp
-- Up-to-date: /home/memonsio/wsr2/install/wessling_hand_msgs/include/wessling_hand_msgs/msg/detail/hand_command__rosidl_typesupport_fastrtps_cpp.hpp
-- Up-to-date: /home/memonsio/wsr2/install/wessling_hand_msgs/include/wessling_hand_msgs/msg/detail/finger_command__rosidl_typesupport_fastrtps_cpp.hpp
-- Up-to-date: /home/memonsio/wsr2/install/wessling_hand_msgs/include/wessling_hand_msgs/msg/detail/hand_status__rosidl_typesupport_fastrtps_cpp.hpp
-- Up-to-date: /home/memonsio/wsr2/install/wessling_hand_msgs/include/wessling_hand_msgs/msg/detail/finger_ext_torques__rosidl_typesupport_fastrtps_cpp.hpp
-- Up-to-date: /home/memonsio/wsr2/install/wessling_hand_msgs/include/wessling_hand_msgs/msg/detail/system_command__rosidl_typesupport_fastrtps_cpp.hpp
-- Up-to-date: /home/memonsio/wsr2/install/wessling_hand_msgs/include/wessling_hand_msgs/msg/detail/dds_fastrtps
-- Up-to-date: /home/memonsio/wsr2/install/wessling_hand_msgs/include/wessling_hand_msgs/msg/detail/hand_ext_torques__rosidl_typesupport_fastrtps_cpp.hpp
-- Up-to-date: /home/memonsio/wsr2/install/wessling_hand_msgs/include/wessling_hand_msgs/msg/detail/system_ext_torques__rosidl_typesupport_fastrtps_cpp.hpp
-- Up-to-date: /home/memonsio/wsr2/install/wessling_hand_msgs/include/wessling_hand_msgs/msg/detail/system_status__rosidl_typesupport_fastrtps_cpp.hpp
-- Up-to-date: /home/memonsio/wsr2/install/wessling_hand_msgs/include/wessling_hand_msgs/msg/rosidl_typesupport_fastrtps_cpp__visibility_control.h
-- Up-to-date: /home/memonsio/wsr2/install/wessling_hand_msgs/lib/libwessling_hand_msgs__rosidl_typesupport_fastrtps_cpp.so
-- Up-to-date: /home/memonsio/wsr2/install/wessling_hand_msgs/include/wessling_hand_msgs
-- Up-to-date: /home/memonsio/wsr2/install/wessling_hand_msgs/include/wessling_hand_msgs/srv
-- Up-to-date: /home/memonsio/wsr2/install/wessling_hand_msgs/include/wessling_hand_msgs/srv/detail
-- Up-to-date: /home/memonsio/wsr2/install/wessling_hand_msgs/include/wessling_hand_msgs/srv/detail/enable_hands__rosidl_typesupport_introspection_c.h
-- Up-to-date: /home/memonsio/wsr2/install/wessling_hand_msgs/include/wessling_hand_msgs/srv/detail/enable_hands__type_support.c
-- Up-to-date: /home/memonsio/wsr2/install/wessling_hand_msgs/include/wessling_hand_msgs/msg
-- Up-to-date: /home/memonsio/wsr2/install/wessling_hand_msgs/include/wessling_hand_msgs/msg/detail
-- Up-to-date: /home/memonsio/wsr2/install/wessling_hand_msgs/include/wessling_hand_msgs/msg/detail/finger_ext_torques__type_support.c
-- Up-to-date: /home/memonsio/wsr2/install/wessling_hand_msgs/include/wessling_hand_msgs/msg/detail/finger_command__rosidl_typesupport_introspection_c.h
-- Up-to-date: /home/memonsio/wsr2/install/wessling_hand_msgs/include/wessling_hand_msgs/msg/detail/system_command__rosidl_typesupport_introspection_c.h
-- Up-to-date: /home/memonsio/wsr2/install/wessling_hand_msgs/include/wessling_hand_msgs/msg/detail/hand_ext_torques__type_support.c
-- Up-to-date: /home/memonsio/wsr2/install/wessling_hand_msgs/include/wessling_hand_msgs/msg/detail/hand_command__type_support.c
-- Up-to-date: /home/memonsio/wsr2/install/wessling_hand_msgs/include/wessling_hand_msgs/msg/detail/system_ext_torques__type_support.c
-- Up-to-date: /home/memonsio/wsr2/install/wessling_hand_msgs/include/wessling_hand_msgs/msg/detail/system_command__type_support.c
-- Up-to-date: /home/memonsio/wsr2/install/wessling_hand_msgs/include/wessling_hand_msgs/msg/detail/finger_ext_torques__rosidl_typesupport_introspection_c.h
-- Up-to-date: /home/memonsio/wsr2/install/wessling_hand_msgs/include/wessling_hand_msgs/msg/detail/finger_status__rosidl_typesupport_introspection_c.h
-- Up-to-date: /home/memonsio/wsr2/install/wessling_hand_msgs/include/wessling_hand_msgs/msg/detail/hand_status__type_support.c
-- Up-to-date: /home/memonsio/wsr2/install/wessling_hand_msgs/include/wessling_hand_msgs/msg/detail/system_status__type_support.c
-- Up-to-date: /home/memonsio/wsr2/install/wessling_hand_msgs/include/wessling_hand_msgs/msg/detail/system_ext_torques__rosidl_typesupport_introspection_c.h
-- Up-to-date: /home/memonsio/wsr2/install/wessling_hand_msgs/include/wessling_hand_msgs/msg/detail/hand_command__rosidl_typesupport_introspection_c.h
-- Up-to-date: /home/memonsio/wsr2/install/wessling_hand_msgs/include/wessling_hand_msgs/msg/detail/hand_status__rosidl_typesupport_introspection_c.h
-- Up-to-date: /home/memonsio/wsr2/install/wessling_hand_msgs/include/wessling_hand_msgs/msg/detail/system_status__rosidl_typesupport_introspection_c.h
-- Up-to-date: /home/memonsio/wsr2/install/wessling_hand_msgs/include/wessling_hand_msgs/msg/detail/finger_status__type_support.c
-- Up-to-date: /home/memonsio/wsr2/install/wessling_hand_msgs/include/wessling_hand_msgs/msg/detail/finger_command__type_support.c
-- Up-to-date: /home/memonsio/wsr2/install/wessling_hand_msgs/include/wessling_hand_msgs/msg/detail/hand_ext_torques__rosidl_typesupport_introspection_c.h
-- Up-to-date: /home/memonsio/wsr2/install/wessling_hand_msgs/include/wessling_hand_msgs/msg/rosidl_typesupport_introspection_c__visibility_control.h
-- Up-to-date: /home/memonsio/wsr2/install/wessling_hand_msgs/lib/libwessling_hand_msgs__rosidl_typesupport_introspection_c.so
-- Up-to-date: /home/memonsio/wsr2/install/wessling_hand_msgs/lib/libwessling_hand_msgs__rosidl_typesupport_c.so
-- Up-to-date: /home/memonsio/wsr2/install/wessling_hand_msgs/include/wessling_hand_msgs
-- Up-to-date: /home/memonsio/wsr2/install/wessling_hand_msgs/include/wessling_hand_msgs/srv
-- Up-to-date: /home/memonsio/wsr2/install/wessling_hand_msgs/include/wessling_hand_msgs/srv/detail
-- Up-to-date: /home/memonsio/wsr2/install/wessling_hand_msgs/include/wessling_hand_msgs/srv/detail/enable_hands__builder.hpp
-- Up-to-date: /home/memonsio/wsr2/install/wessling_hand_msgs/include/wessling_hand_msgs/srv/detail/enable_hands__traits.hpp
-- Up-to-date: /home/memonsio/wsr2/install/wessling_hand_msgs/include/wessling_hand_msgs/srv/detail/enable_hands__struct.hpp
-- Up-to-date: /home/memonsio/wsr2/install/wessling_hand_msgs/include/wessling_hand_msgs/srv/enable_hands.hpp
-- Up-to-date: /home/memonsio/wsr2/install/wessling_hand_msgs/include/wessling_hand_msgs/msg
-- Up-to-date: /home/memonsio/wsr2/install/wessling_hand_msgs/include/wessling_hand_msgs/msg/finger_ext_torques.hpp
-- Up-to-date: /home/memonsio/wsr2/install/wessling_hand_msgs/include/wessling_hand_msgs/msg/finger_status.hpp
-- Up-to-date: /home/memonsio/wsr2/install/wessling_hand_msgs/include/wessling_hand_msgs/msg/detail
-- Up-to-date: /home/memonsio/wsr2/install/wessling_hand_msgs/include/wessling_hand_msgs/msg/detail/finger_ext_torques__traits.hpp
-- Up-to-date: /home/memonsio/wsr2/install/wessling_hand_msgs/include/wessling_hand_msgs/msg/detail/system_command__traits.hpp
-- Up-to-date: /home/memonsio/wsr2/install/wessling_hand_msgs/include/wessling_hand_msgs/msg/detail/finger_status__struct.hpp
-- Up-to-date: /home/memonsio/wsr2/install/wessling_hand_msgs/include/wessling_hand_msgs/msg/detail/system_ext_torques__builder.hpp
-- Up-to-date: /home/memonsio/wsr2/install/wessling_hand_msgs/include/wessling_hand_msgs/msg/detail/finger_ext_torques__struct.hpp
-- Up-to-date: /home/memonsio/wsr2/install/wessling_hand_msgs/include/wessling_hand_msgs/msg/detail/hand_ext_torques__traits.hpp
-- Up-to-date: /home/memonsio/wsr2/install/wessling_hand_msgs/include/wessling_hand_msgs/msg/detail/system_status__builder.hpp
-- Up-to-date: /home/memonsio/wsr2/install/wessling_hand_msgs/include/wessling_hand_msgs/msg/detail/system_ext_torques__struct.hpp
-- Up-to-date: /home/memonsio/wsr2/install/wessling_hand_msgs/include/wessling_hand_msgs/msg/detail/hand_command__builder.hpp
-- Up-to-date: /home/memonsio/wsr2/install/wessling_hand_msgs/include/wessling_hand_msgs/msg/detail/finger_status__traits.hpp
-- Up-to-date: /home/memonsio/wsr2/install/wessling_hand_msgs/include/wessling_hand_msgs/msg/detail/hand_command__struct.hpp
-- Up-to-date: /home/memonsio/wsr2/install/wessling_hand_msgs/include/wessling_hand_msgs/msg/detail/system_status__struct.hpp
-- Up-to-date: /home/memonsio/wsr2/install/wessling_hand_msgs/include/wessling_hand_msgs/msg/detail/finger_command__builder.hpp
-- Up-to-date: /home/memonsio/wsr2/install/wessling_hand_msgs/include/wessling_hand_msgs/msg/detail/system_command__struct.hpp
-- Up-to-date: /home/memonsio/wsr2/install/wessling_hand_msgs/include/wessling_hand_msgs/msg/detail/finger_command__traits.hpp
-- Up-to-date: /home/memonsio/wsr2/install/wessling_hand_msgs/include/wessling_hand_msgs/msg/detail/hand_command__traits.hpp
-- Up-to-date: /home/memonsio/wsr2/install/wessling_hand_msgs/include/wessling_hand_msgs/msg/detail/hand_ext_torques__struct.hpp
-- Up-to-date: /home/memonsio/wsr2/install/wessling_hand_msgs/include/wessling_hand_msgs/msg/detail/hand_status__struct.hpp
-- Up-to-date: /home/memonsio/wsr2/install/wessling_hand_msgs/include/wessling_hand_msgs/msg/detail/finger_command__struct.hpp
-- Up-to-date: /home/memonsio/wsr2/install/wessling_hand_msgs/include/wessling_hand_msgs/msg/detail/system_command__builder.hpp
-- Up-to-date: /home/memonsio/wsr2/install/wessling_hand_msgs/include/wessling_hand_msgs/msg/detail/system_status__traits.hpp
-- Up-to-date: /home/memonsio/wsr2/install/wessling_hand_msgs/include/wessling_hand_msgs/msg/detail/hand_status__traits.hpp
-- Up-to-date: /home/memonsio/wsr2/install/wessling_hand_msgs/include/wessling_hand_msgs/msg/detail/hand_status__builder.hpp
-- Up-to-date: /home/memonsio/wsr2/install/wessling_hand_msgs/include/wessling_hand_msgs/msg/detail/finger_ext_torques__builder.hpp
-- Up-to-date: /home/memonsio/wsr2/install/wessling_hand_msgs/include/wessling_hand_msgs/msg/detail/finger_status__builder.hpp
-- Up-to-date: /home/memonsio/wsr2/install/wessling_hand_msgs/include/wessling_hand_msgs/msg/detail/system_ext_torques__traits.hpp
-- Up-to-date: /home/memonsio/wsr2/install/wessling_hand_msgs/include/wessling_hand_msgs/msg/detail/hand_ext_torques__builder.hpp
-- Up-to-date: /home/memonsio/wsr2/install/wessling_hand_msgs/include/wessling_hand_msgs/msg/hand_command.hpp
-- Up-to-date: /home/memonsio/wsr2/install/wessling_hand_msgs/include/wessling_hand_msgs/msg/system_status.hpp
-- Up-to-date: /home/memonsio/wsr2/install/wessling_hand_msgs/include/wessling_hand_msgs/msg/system_ext_torques.hpp
-- Up-to-date: /home/memonsio/wsr2/install/wessling_hand_msgs/include/wessling_hand_msgs/msg/hand_status.hpp
-- Up-to-date: /home/memonsio/wsr2/install/wessling_hand_msgs/include/wessling_hand_msgs/msg/hand_ext_torques.hpp
-- Up-to-date: /home/memonsio/wsr2/install/wessling_hand_msgs/include/wessling_hand_msgs/msg/finger_command.hpp
-- Up-to-date: /home/memonsio/wsr2/install/wessling_hand_msgs/include/wessling_hand_msgs/msg/system_command.hpp
-- Up-to-date: /home/memonsio/wsr2/install/wessling_hand_msgs/include/wessling_hand_msgs
-- Up-to-date: /home/memonsio/wsr2/install/wessling_hand_msgs/include/wessling_hand_msgs/srv
-- Up-to-date: /home/memonsio/wsr2/install/wessling_hand_msgs/include/wessling_hand_msgs/srv/detail
-- Up-to-date: /home/memonsio/wsr2/install/wessling_hand_msgs/include/wessling_hand_msgs/srv/detail/enable_hands__type_support.cpp
-- Up-to-date: /home/memonsio/wsr2/install/wessling_hand_msgs/include/wessling_hand_msgs/srv/detail/enable_hands__rosidl_typesupport_introspection_cpp.hpp
-- Up-to-date: /home/memonsio/wsr2/install/wessling_hand_msgs/include/wessling_hand_msgs/msg
-- Up-to-date: /home/memonsio/wsr2/install/wessling_hand_msgs/include/wessling_hand_msgs/msg/detail
-- Up-to-date: /home/memonsio/wsr2/install/wessling_hand_msgs/include/wessling_hand_msgs/msg/detail/system_status__rosidl_typesupport_introspection_cpp.hpp
-- Up-to-date: /home/memonsio/wsr2/install/wessling_hand_msgs/include/wessling_hand_msgs/msg/detail/hand_command__type_support.cpp
-- Up-to-date: /home/memonsio/wsr2/install/wessling_hand_msgs/include/wessling_hand_msgs/msg/detail/system_status__type_support.cpp
-- Up-to-date: /home/memonsio/wsr2/install/wessling_hand_msgs/include/wessling_hand_msgs/msg/detail/hand_status__type_support.cpp
-- Up-to-date: /home/memonsio/wsr2/install/wessling_hand_msgs/include/wessling_hand_msgs/msg/detail/hand_ext_torques__type_support.cpp
-- Up-to-date: /home/memonsio/wsr2/install/wessling_hand_msgs/include/wessling_hand_msgs/msg/detail/hand_command__rosidl_typesupport_introspection_cpp.hpp
-- Up-to-date: /home/memonsio/wsr2/install/wessling_hand_msgs/include/wessling_hand_msgs/msg/detail/finger_command__rosidl_typesupport_introspection_cpp.hpp
-- Up-to-date: /home/memonsio/wsr2/install/wessling_hand_msgs/include/wessling_hand_msgs/msg/detail/finger_ext_torques__type_support.cpp
-- Up-to-date: /home/memonsio/wsr2/install/wessling_hand_msgs/include/wessling_hand_msgs/msg/detail/hand_status__rosidl_typesupport_introspection_cpp.hpp
-- Up-to-date: /home/memonsio/wsr2/install/wessling_hand_msgs/include/wessling_hand_msgs/msg/detail/finger_status__type_support.cpp
-- Up-to-date: /home/memonsio/wsr2/install/wessling_hand_msgs/include/wessling_hand_msgs/msg/detail/finger_ext_torques__rosidl_typesupport_introspection_cpp.hpp
-- Up-to-date: /home/memonsio/wsr2/install/wessling_hand_msgs/include/wessling_hand_msgs/msg/detail/finger_status__rosidl_typesupport_introspection_cpp.hpp
-- Up-to-date: /home/memonsio/wsr2/install/wessling_hand_msgs/include/wessling_hand_msgs/msg/detail/system_ext_torques__rosidl_typesupport_introspection_cpp.hpp
-- Up-to-date: /home/memonsio/wsr2/install/wessling_hand_msgs/include/wessling_hand_msgs/msg/detail/system_command__type_support.cpp
-- Up-to-date: /home/memonsio/wsr2/install/wessling_hand_msgs/include/wessling_hand_msgs/msg/detail/finger_command__type_support.cpp
-- Up-to-date: /home/memonsio/wsr2/install/wessling_hand_msgs/include/wessling_hand_msgs/msg/detail/hand_ext_torques__rosidl_typesupport_introspection_cpp.hpp
-- Up-to-date: /home/memonsio/wsr2/install/wessling_hand_msgs/include/wessling_hand_msgs/msg/detail/system_ext_torques__type_support.cpp
-- Up-to-date: /home/memonsio/wsr2/install/wessling_hand_msgs/include/wessling_hand_msgs/msg/detail/system_command__rosidl_typesupport_introspection_cpp.hpp
-- Up-to-date: /home/memonsio/wsr2/install/wessling_hand_msgs/lib/libwessling_hand_msgs__rosidl_typesupport_introspection_cpp.so
-- Up-to-date: /home/memonsio/wsr2/install/wessling_hand_msgs/lib/libwessling_hand_msgs__rosidl_typesupport_cpp.so
-- Up-to-date: /home/memonsio/wsr2/install/wessling_hand_msgs/share/wessling_hand_msgs/environment/pythonpath.sh
-- Up-to-date: /home/memonsio/wsr2/install/wessling_hand_msgs/share/wessling_hand_msgs/environment/pythonpath.dsv
-- Up-to-date: /home/memonsio/wsr2/install/wessling_hand_msgs/lib/python3.8/site-packages/wessling_hand_msgs/__init__.py
-- Up-to-date: /home/memonsio/wsr2/install/wessling_hand_msgs/lib/python3.8/site-packages/wessling_hand_msgs/msg
-- Up-to-date: /home/memonsio/wsr2/install/wessling_hand_msgs/lib/python3.8/site-packages/wessling_hand_msgs/msg/_hand_ext_torques.py
-- Up-to-date: /home/memonsio/wsr2/install/wessling_hand_msgs/lib/python3.8/site-packages/wessling_hand_msgs/msg/_hand_status.py
-- Up-to-date: /home/memonsio/wsr2/install/wessling_hand_msgs/lib/python3.8/site-packages/wessling_hand_msgs/msg/_hand_ext_torques_s.c
-- Up-to-date: /home/memonsio/wsr2/install/wessling_hand_msgs/lib/python3.8/site-packages/wessling_hand_msgs/msg/_system_command_s.c
-- Up-to-date: /home/memonsio/wsr2/install/wessling_hand_msgs/lib/python3.8/site-packages/wessling_hand_msgs/msg/_system_ext_torques.py
-- Up-to-date: /home/memonsio/wsr2/install/wessling_hand_msgs/lib/python3.8/site-packages/wessling_hand_msgs/msg/_system_status.py
-- Up-to-date: /home/memonsio/wsr2/install/wessling_hand_msgs/lib/python3.8/site-packages/wessling_hand_msgs/msg/_finger_status.py
-- Up-to-date: /home/memonsio/wsr2/install/wessling_hand_msgs/lib/python3.8/site-packages/wessling_hand_msgs/msg/_system_status_s.c
-- Up-to-date: /home/memonsio/wsr2/install/wessling_hand_msgs/lib/python3.8/site-packages/wessling_hand_msgs/msg/_system_ext_torques_s.c
-- Up-to-date: /home/memonsio/wsr2/install/wessling_hand_msgs/lib/python3.8/site-packages/wessling_hand_msgs/msg/_finger_command.py
-- Up-to-date: /home/memonsio/wsr2/install/wessling_hand_msgs/lib/python3.8/site-packages/wessling_hand_msgs/msg/_finger_ext_torques.py
-- Up-to-date: /home/memonsio/wsr2/install/wessling_hand_msgs/lib/python3.8/site-packages/wessling_hand_msgs/msg/__init__.py
-- Up-to-date: /home/memonsio/wsr2/install/wessling_hand_msgs/lib/python3.8/site-packages/wessling_hand_msgs/msg/_finger_status_s.c
-- Up-to-date: /home/memonsio/wsr2/install/wessling_hand_msgs/lib/python3.8/site-packages/wessling_hand_msgs/msg/_hand_command_s.c
-- Up-to-date: /home/memonsio/wsr2/install/wessling_hand_msgs/lib/python3.8/site-packages/wessling_hand_msgs/msg/_system_command.py
-- Up-to-date: /home/memonsio/wsr2/install/wessling_hand_msgs/lib/python3.8/site-packages/wessling_hand_msgs/msg/_hand_status_s.c
-- Up-to-date: /home/memonsio/wsr2/install/wessling_hand_msgs/lib/python3.8/site-packages/wessling_hand_msgs/msg/_hand_command.py
-- Up-to-date: /home/memonsio/wsr2/install/wessling_hand_msgs/lib/python3.8/site-packages/wessling_hand_msgs/msg/_finger_ext_torques_s.c
-- Up-to-date: /home/memonsio/wsr2/install/wessling_hand_msgs/lib/python3.8/site-packages/wessling_hand_msgs/msg/_finger_command_s.c
-- Up-to-date: /home/memonsio/wsr2/install/wessling_hand_msgs/lib/python3.8/site-packages/wessling_hand_msgs/srv
-- Up-to-date: /home/memonsio/wsr2/install/wessling_hand_msgs/lib/python3.8/site-packages/wessling_hand_msgs/srv/__init__.py
-- Up-to-date: /home/memonsio/wsr2/install/wessling_hand_msgs/lib/python3.8/site-packages/wessling_hand_msgs/srv/_enable_hands.py
-- Up-to-date: /home/memonsio/wsr2/install/wessling_hand_msgs/lib/python3.8/site-packages/wessling_hand_msgs/srv/_enable_hands_s.c
-- Up-to-date: /home/memonsio/wsr2/install/wessling_hand_msgs/lib/python3.8/site-packages/wessling_hand_msgs/wessling_hand_msgs_s__rosidl_typesupport_fastrtps_c.cpython-38-x86_64-linux-gnu.so
-- Up-to-date: /home/memonsio/wsr2/install/wessling_hand_msgs/lib/python3.8/site-packages/wessling_hand_msgs/wessling_hand_msgs_s__rosidl_typesupport_introspection_c.cpython-38-x86_64-linux-gnu.so
-- Up-to-date: /home/memonsio/wsr2/install/wessling_hand_msgs/lib/python3.8/site-packages/wessling_hand_msgs/wessling_hand_msgs_s__rosidl_typesupport_c.cpython-38-x86_64-linux-gnu.so
-- Up-to-date: /home/memonsio/wsr2/install/wessling_hand_msgs/lib/libwessling_hand_msgs__python.so
-- Up-to-date: /home/memonsio/wsr2/install/wessling_hand_msgs/share/wessling_hand_msgs/msg/FingerCommand.idl
-- Up-to-date: /home/memonsio/wsr2/install/wessling_hand_msgs/share/wessling_hand_msgs/msg/FingerExtTorques.idl
-- Up-to-date: /home/memonsio/wsr2/install/wessling_hand_msgs/share/wessling_hand_msgs/msg/FingerStatus.idl
-- Up-to-date: /home/memonsio/wsr2/install/wessling_hand_msgs/share/wessling_hand_msgs/msg/HandCommand.idl
-- Up-to-date: /home/memonsio/wsr2/install/wessling_hand_msgs/share/wessling_hand_msgs/msg/HandExtTorques.idl
-- Up-to-date: /home/memonsio/wsr2/install/wessling_hand_msgs/share/wessling_hand_msgs/msg/HandStatus.idl
-- Up-to-date: /home/memonsio/wsr2/install/wessling_hand_msgs/share/wessling_hand_msgs/msg/SystemCommand.idl
-- Up-to-date: /home/memonsio/wsr2/install/wessling_hand_msgs/share/wessling_hand_msgs/msg/SystemExtTorques.idl
-- Up-to-date: /home/memonsio/wsr2/install/wessling_hand_msgs/share/wessling_hand_msgs/msg/SystemStatus.idl
-- Up-to-date: /home/memonsio/wsr2/install/wessling_hand_msgs/share/wessling_hand_msgs/srv/EnableHands.idl
-- Up-to-date: /home/memonsio/wsr2/install/wessling_hand_msgs/share/wessling_hand_msgs/msg/FingerCommand.msg
-- Up-to-date: /home/memonsio/wsr2/install/wessling_hand_msgs/share/wessling_hand_msgs/msg/FingerExtTorques.msg
-- Up-to-date: /home/memonsio/wsr2/install/wessling_hand_msgs/share/wessling_hand_msgs/msg/FingerStatus.msg
-- Up-to-date: /home/memonsio/wsr2/install/wessling_hand_msgs/share/wessling_hand_msgs/msg/HandCommand.msg
-- Up-to-date: /home/memonsio/wsr2/install/wessling_hand_msgs/share/wessling_hand_msgs/msg/HandExtTorques.msg
-- Up-to-date: /home/memonsio/wsr2/install/wessling_hand_msgs/share/wessling_hand_msgs/msg/HandStatus.msg
-- Up-to-date: /home/memonsio/wsr2/install/wessling_hand_msgs/share/wessling_hand_msgs/msg/SystemCommand.msg
-- Up-to-date: /home/memonsio/wsr2/install/wessling_hand_msgs/share/wessling_hand_msgs/msg/SystemExtTorques.msg
-- Up-to-date: /home/memonsio/wsr2/install/wessling_hand_msgs/share/wessling_hand_msgs/msg/SystemStatus.msg
-- Up-to-date: /home/memonsio/wsr2/install/wessling_hand_msgs/share/wessling_hand_msgs/srv/EnableHands.srv
-- Up-to-date: /home/memonsio/wsr2/install/wessling_hand_msgs/share/wessling_hand_msgs/srv/EnableHands_Request.msg
-- Up-to-date: /home/memonsio/wsr2/install/wessling_hand_msgs/share/wessling_hand_msgs/srv/EnableHands_Response.msg
-- Up-to-date: /home/memonsio/wsr2/install/wessling_hand_msgs/share/ament_index/resource_index/package_run_dependencies/wessling_hand_msgs
-- Up-to-date: /home/memonsio/wsr2/install/wessling_hand_msgs/share/ament_index/resource_index/parent_prefix_path/wessling_hand_msgs
-- Up-to-date: /home/memonsio/wsr2/install/wessling_hand_msgs/share/wessling_hand_msgs/environment/ament_prefix_path.sh
-- Up-to-date: /home/memonsio/wsr2/install/wessling_hand_msgs/share/wessling_hand_msgs/environment/ament_prefix_path.dsv
-- Up-to-date: /home/memonsio/wsr2/install/wessling_hand_msgs/share/wessling_hand_msgs/environment/path.sh
-- Up-to-date: /home/memonsio/wsr2/install/wessling_hand_msgs/share/wessling_hand_msgs/environment/path.dsv
-- Up-to-date: /home/memonsio/wsr2/install/wessling_hand_msgs/share/wessling_hand_msgs/local_setup.bash
-- Up-to-date: /home/memonsio/wsr2/install/wessling_hand_msgs/share/wessling_hand_msgs/local_setup.sh
-- Up-to-date: /home/memonsio/wsr2/install/wessling_hand_msgs/share/wessling_hand_msgs/local_setup.zsh
-- Up-to-date: /home/memonsio/wsr2/install/wessling_hand_msgs/share/wessling_hand_msgs/local_setup.dsv
-- Installing: /home/memonsio/wsr2/install/wessling_hand_msgs/share/wessling_hand_msgs/package.dsv
-- Up-to-date: /home/memonsio/wsr2/install/wessling_hand_msgs/share/ament_index/resource_index/packages/wessling_hand_msgs
-- Up-to-date: /home/memonsio/wsr2/install/wessling_hand_msgs/share/wessling_hand_msgs/cmake/wessling_hand_msgs__rosidl_generator_cExport.cmake
-- Up-to-date: /home/memonsio/wsr2/install/wessling_hand_msgs/share/wessling_hand_msgs/cmake/wessling_hand_msgs__rosidl_generator_cExport-noconfig.cmake
-- Up-to-date: /home/memonsio/wsr2/install/wessling_hand_msgs/share/wessling_hand_msgs/cmake/wessling_hand_msgs__rosidl_typesupport_introspection_cExport.cmake
-- Up-to-date: /home/memonsio/wsr2/install/wessling_hand_msgs/share/wessling_hand_msgs/cmake/wessling_hand_msgs__rosidl_typesupport_introspection_cExport-noconfig.cmake
-- Up-to-date: /home/memonsio/wsr2/install/wessling_hand_msgs/share/wessling_hand_msgs/cmake/wessling_hand_msgs__rosidl_typesupport_cExport.cmake
-- Up-to-date: /home/memonsio/wsr2/install/wessling_hand_msgs/share/wessling_hand_msgs/cmake/wessling_hand_msgs__rosidl_typesupport_cExport-noconfig.cmake
-- Up-to-date: /home/memonsio/wsr2/install/wessling_hand_msgs/share/wessling_hand_msgs/cmake/wessling_hand_msgs__rosidl_generator_cppExport.cmake
-- Up-to-date: /home/memonsio/wsr2/install/wessling_hand_msgs/share/wessling_hand_msgs/cmake/wessling_hand_msgs__rosidl_typesupport_introspection_cppExport.cmake
-- Up-to-date: /home/memonsio/wsr2/install/wessling_hand_msgs/share/wessling_hand_msgs/cmake/wessling_hand_msgs__rosidl_typesupport_introspection_cppExport-noconfig.cmake
-- Up-to-date: /home/memonsio/wsr2/install/wessling_hand_msgs/share/wessling_hand_msgs/cmake/wessling_hand_msgs__rosidl_typesupport_cppExport.cmake
-- Up-to-date: /home/memonsio/wsr2/install/wessling_hand_msgs/share/wessling_hand_msgs/cmake/wessling_hand_msgs__rosidl_typesupport_cppExport-noconfig.cmake
-- Up-to-date: /home/memonsio/wsr2/install/wessling_hand_msgs/share/wessling_hand_msgs/cmake/rosidl_cmake-extras.cmake
-- Up-to-date: /home/memonsio/wsr2/install/wessling_hand_msgs/share/wessling_hand_msgs/cmake/ament_cmake_export_dependencies-extras.cmake
-- Up-to-date: /home/memonsio/wsr2/install/wessling_hand_msgs/share/wessling_hand_msgs/cmake/ament_cmake_export_libraries-extras.cmake
-- Up-to-date: /home/memonsio/wsr2/install/wessling_hand_msgs/share/wessling_hand_msgs/cmake/ament_cmake_export_targets-extras.cmake
-- Up-to-date: /home/memonsio/wsr2/install/wessling_hand_msgs/share/wessling_hand_msgs/cmake/ament_cmake_export_include_directories-extras.cmake
-- Up-to-date: /home/memonsio/wsr2/install/wessling_hand_msgs/share/wessling_hand_msgs/cmake/rosidl_cmake_export_typesupport_libraries-extras.cmake
-- Up-to-date: /home/memonsio/wsr2/install/wessling_hand_msgs/share/wessling_hand_msgs/cmake/rosidl_cmake_export_typesupport_targets-extras.cmake
-- Up-to-date: /home/memonsio/wsr2/install/wessling_hand_msgs/share/wessling_hand_msgs/cmake/wessling_hand_msgsConfig.cmake
-- Up-to-date: /home/memonsio/wsr2/install/wessling_hand_msgs/share/wessling_hand_msgs/cmake/wessling_hand_msgsConfig-version.cmake
-- Up-to-date: /home/memonsio/wsr2/install/wessling_hand_msgs/share/wessling_hand_msgs/package.xml
